%YAML 1.1
%TAG !u! tag:unity3d.com,2011:
--- !u!114 &11400000
MonoBehaviour:
  m_ObjectHideFlags: 0
  m_CorrespondingSourceObject: {fileID: 0}
  m_PrefabInstance: {fileID: 0}
  m_PrefabAsset: {fileID: 0}
  m_GameObject: {fileID: 0}
  m_Enabled: 1
  m_EditorHideFlags: 0
  m_Script: {fileID: 11500000, guid: 4189e3028d1f4f648962fd11688eee3d, type: 3}
  m_Name: data
  m_EditorClassIdentifier: 
  questions:
  - quizType: 2
    title: Prevenimos los delitos financieros
    text: Para cada enunciado relacionado con los delitos financieros, escribe V
      o F.
    imageCode: 
    answers:
    - text: "Los delitos financieros es otra forma de llamar a los delitos econ\xF3micos."
      isCorrect: 0
    - text: Los delitos financieros no son sancionados por el Estados.
      isCorrect: 0
    - text: "Uno de los delitos financieros es la pir\xE1mide financiera."
      isCorrect: 1
  - quizType: 0
    title: Prevenimos los delitos financieros
    text: Un buen consumidor financiero evita el __________ y _______ una parte de
      sus ingresos y los deposita en una entidad supervisada por el SBS.
    imageCode: 
    answers:
    - text: sobreendeudamiento - gasta.
      isCorrect: 0
    - text: prepago - ahorra.
      isCorrect: 0
    - text: sobreendeudamiento - ahorra.
      isCorrect: 1
  - quizType: 0
    title: Prevenimos los delitos financieros
    text: "Cuando la se\xF1orita que atendi\xF3 a la mam\xE1 de Gina quiso llevarse
      su tarjeta, le dijo que no pod\xEDa llevarse su tarjeta. \xBFHizo bien?"
    imageCode: 
    answers:
    - text: "S\xED, porque tiene que cuidar su tarjeta."
      isCorrect: 1
    - text: "No, porque fue maleducada con la se\xF1orita."
      isCorrect: 0
  - quizType: 0
    title: Prevenimos los delitos financieros
    text: Ya que los delitos financieros afectan tanto a ____________ como al ____________,
      el Estado debe sancionarlos.
    imageCode: 
    answers:
    - text: "los consumidores - desarrollo del pa\xEDs."
      isCorrect: 0
    - text: "las personas - desarrollo del pa\xEDs."
      isCorrect: 1
    - text: las personas - Gobierno.
      isCorrect: 0
  - quizType: 0
    title: Prevenimos los delitos financieros
    text: "A la mam\xE1 de Gina la invitaron a participar en un \u201Cbuen negocio\u201D,
      pero ten\xEDa que invitar a otros familiares o amigos. \xBFQu\xE9 delito financiero
      es?"
    imageCode: 
    answers:
    - text: Phishing.
      isCorrect: 0
    - text: "\u201CClonaci\xF3n\u201D de tarjeta."
      isCorrect: 0
    - text: "Pir\xE1mide financiera."
      isCorrect: 1
  - quizType: 0
    title: Prevenimos los delitos financieros
    text: "Gina est\xE1 investigando sobre los efectos del lavado de activos. \xBFCu\xE1l
      de estos es uno de ellos?"
    imageCode: 
    answers:
    - text: "Menos inversi\xF3n en obras p\xFAblicas por la reducci\xF3n de tributos."
      isCorrect: 0
    - text: Ventaja competitiva de la empresa ilegal frente a la legal.
      isCorrect: 0
    - text: "Menos inversi\xF3n en obras p\xFAblicas y ventaja competitiva de empresas
        ilegales."
      isCorrect: 1
  - quizType: 0
    title: Prevenimos los delitos financieros
    text: "En el grupo de WhatsApp de PP. FF. del aula de Gina, su madre recibi\xF3
      un enlace con promociones y ofertas de una empresa. \xBFQu\xE9 delito financiero
      es? "
    imageCode: 
    answers:
    - text: "Pir\xE1mide financiera."
      isCorrect: 0
    - text: Phishing.
      isCorrect: 1
    - text: "Malversaci\xF3n de fondos."
      isCorrect: 0
  - quizType: 0
    title: Prevenimos los delitos financieros
    text: "Ahora que la vecina de Gina ya tiene su dinero en el banco, \xBFqu\xE9
      acciones debe realizar para evitar ser v\xEDctima de un fraude financiero?"
    imageCode: 
    answers:
    - text: "No abrir ning\xFAn enlace de mensajes, correos o redes sociales."
      isCorrect: 0
    - text: "Cuidar su tarjeta: no entregar su contrase\xF1a a nadie."
      isCorrect: 0
    - text: "No abrir enlaces por ning\xFAn medio y cuidar su tarjeta."
      isCorrect: 1
  - quizType: 0
    title: Prevenimos los delitos financieros
    text: "\xBFCu\xE1l de estas afirmaciones sobre la pir\xE1mide financiera es falsa?"
    imageCode: 
    answers:
    - text: "Es una actividad econ\xF3mica legal que permite que algunas personas
        ganen dinero de manera m\xE1s r\xE1pida."
      isCorrect: 1
    - text: "Es un delito financiero que consiste en ofrecer grandes beneficios econ\xF3micos
        con la finalidad de robar dinero de los participantes."
      isCorrect: 0
    - text: "Una de sus caracter\xEDsticas es que exige a los participantes incluir
        a m\xE1s personas para ganar m\xE1s dinero."
      isCorrect: 0
  - quizType: 0
    title: Prevenimos los delitos financieros
    text: "Al ir a retirar dinero del cajero, la vecina de Gina se di cuenta de que
      hab\xEDan vaciado su cuenta. \xBFCu\xE1les podr\xEDan ser las causas de este
      delito?"
    imageCode: 
    answers:
    - text: "Le dio la contrase\xF1a de su tarjeta a alguna persona."
      isCorrect: 0
    - text: "Abri\xF3 alg\xFAn enlace fraudulento y le robaron sus datos."
      isCorrect: 0
    - text: Ambas alternativas.
      isCorrect: 1
