%YAML 1.1
%TAG !u! tag:unity3d.com,2011:
--- !u!114 &11400000
MonoBehaviour:
  m_ObjectHideFlags: 0
  m_CorrespondingSourceObject: {fileID: 0}
  m_PrefabInstance: {fileID: 0}
  m_PrefabAsset: {fileID: 0}
  m_GameObject: {fileID: 0}
  m_Enabled: 1
  m_EditorHideFlags: 0
  m_Script: {fileID: 11500000, guid: 4189e3028d1f4f648962fd11688eee3d, type: 3}
  m_Name: data
  m_EditorClassIdentifier: 
  questions:
  - quizType: 0
    title: Debemos elegir bien
    text: "Marca la alternativa correcta. \xBFQu\xE9 se puede comprar mayormente
      con las propinas?\r"
    imageCode: 
    answers:
    - text: Ropa
      isCorrect: 0
    - text: Juguetes
      isCorrect: 0
    - text: Alimentos
      isCorrect: 1
  - quizType: 0
    title: Debemos elegir bien
    text: "Lara recibi\xF3 de propina tres soles. Ella fue a la tienda a comprarse
      una gaseosa y papitas fritas. Estos son alimentos\u2026"
    imageCode: 
    answers:
    - text: nutritivos
      isCorrect: 0
    - text: no saludables
      isCorrect: 1
    - text: baratos
      isCorrect: 0
  - quizType: 1
    title: Debemos elegir bien
    text: "Marca una o m\xE1s alternativas correctas. Son alimentos saludables\u2026\r"
    imageCode: 
    answers:
    - text: Leche, manzana, avena.
      isCorrect: 1
    - text: "Jugo de frutas, chupet\xEDn, galletas. "
      isCorrect: 0
    - text: 'Yogur, huevo duro, mandarina. '
      isCorrect: 1
  - quizType: 0
    title: Debemos elegir bien
    text: "\r\xBFPor qu\xE9 las ni\xF1as y los ni\xF1os deben comer alimentos nutritivos?\r"
    imageCode: 
    answers:
    - text: Porque los ayudan a crecer sanamente.
      isCorrect: 0
    - text: Porque evitan que desarrollen enfermedades.
      isCorrect: 0
    - text: 'Todas las anteriores. '
      isCorrect: 1
  - quizType: 0
    title: Debemos elegir bien
    text: "\r\xBFQu\xE9 consecuencia puede traer comer muchas frituras?\r"
    imageCode: 
    answers:
    - text: Obesidad
      isCorrect: 1
    - text: Caries
      isCorrect: 0
    - text: Cansancio
      isCorrect: 0
  - quizType: 0
    title: Debemos elegir bien
    text: "Al pap\xE1 de Paco le encanta comer pizza o pollo a la brasa por las noches.
      El cambio f\xEDsico que tendr\xE1 con esa dieta es\u2026\r"
    imageCode: 
    answers:
    - text: subir de peso.
      isCorrect: 1
    - text: "verse m\xE1s joven."
      isCorrect: 0
    - text: "que la ropa le quedar\xE1 m\xE1s ajustada. "
      isCorrect: 0
  - quizType: 0
    title: Debemos elegir bien
    text: "Leo ha ido al quiosco de su colegio con su amiga Kati. Ella le ha dicho
      que compre una salchipapa, pero \xE9l quiero comer algo saludable, como\u2026\r"
    imageCode: 
    answers:
    - text: 'una hamburguesa '
      isCorrect: 0
    - text: "un pl\xE1tano"
      isCorrect: 1
    - text: 'pollo broster '
      isCorrect: 0
  - quizType: 1
    title: Debemos elegir bien
    text: "Marca una o m\xE1s alternativas. \xBFC\xF3mo reconocemos los alimentos
      no saludables al leer los oct\xF3gonos de sus etiquetas?"
    imageCode: 
    answers:
    - text: "Si son altos en az\xFAcar."
      isCorrect: 1
    - text: Si son altos en sal y grasas.
      isCorrect: 1
    - text: "Por el dise\xF1o de sus empaques."
      isCorrect: 0
  - quizType: 0
    title: Debemos elegir bien
    text: "Marca una o m\xE1s alternativas.\xBFC\xF3mo reconocemos los alimentos
      no saludables al leer los oct\xF3gonos de sus etiquetas?"
    imageCode: 
    answers:
    - text: camotes fritos y gaseosa.
      isCorrect: 0
    - text: "s\xE1ndwich de queso y fruta fresca."
      isCorrect: 1
    - text: churros rellenos y gomitas masticables.
      isCorrect: 0
  - quizType: 0
    title: Debemos elegir bien
    text: "En casa de Leo, el almuerzo se acompa\xF1a con una ensalada de verduras
      o fruta de postre. \xBFCon qu\xE9 frecuencia deber\xEDan comerse estos alimentos?\r"
    imageCode: 
    answers:
    - text: Nunca
      isCorrect: 0
    - text: 'A menudo '
      isCorrect: 0
    - text: Siempre
      isCorrect: 1
