%YAML 1.1
%TAG !u! tag:unity3d.com,2011:
--- !u!114 &11400000
MonoBehaviour:
  m_ObjectHideFlags: 0
  m_CorrespondingSourceObject: {fileID: 0}
  m_PrefabInstance: {fileID: 0}
  m_PrefabAsset: {fileID: 0}
  m_GameObject: {fileID: 0}
  m_Enabled: 1
  m_EditorHideFlags: 0
  m_Script: {fileID: 11500000, guid: 4189e3028d1f4f648962fd11688eee3d, type: 3}
  m_Name: data
  m_EditorClassIdentifier: 
  questions:
  - quizType: 0
    title: Cumplimos metas en familia
    text: "Marca la alternativa correcta. \xBFQu\xE9 es para ti una meta familiar?\r"
    imageCode: 
    answers:
    - text: "Es cuando participamos por igual en lograr una meta com\xFAn. "
      isCorrect: 1
    - text: 'Es cuando vemos que nuestros padres alcanzan '
      isCorrect: 0
    - text: Es cuando la familia nos ayuda a conseguir nuestra propia meta.
      isCorrect: 0
  - quizType: 0
    title: Cumplimos metas en familia
    text: "\xBFCu\xE1l de las alternativas no es una meta familiar?\r"
    imageCode: 
    answers:
    - text: 'Ordenar los libros de la biblioteca de casa. '
      isCorrect: 0
    - text: Ir a trabajar de lunes a viernes.
      isCorrect: 1
    - text: "Tener un d\xEDa de limpieza general en casa. "
      isCorrect: 0
  - quizType: 1
    title: Cumplimos metas en familia
    text: "Marca una o m\xE1s alternativas incorrectas. Un ejemplo de meta familiar
      es\u2026\r"
    imageCode: 
    answers:
    - text: Planificar un paseo familiar en vacaciones.
      isCorrect: 0
    - text: "Que los hijos varones vean partidos de f\xFAtbol."
      isCorrect: 1
    - text: Que las hijas mujeres ayuden a cocinar.
      isCorrect: 1
  - quizType: 0
    title: Cumplimos metas en familia
    text: "Iv\xE1n siempre deja la computadora prendida cuando sale a jugar. Sus
      padres le han pedido que, para ahorrar electricidad, \xE9l puede\u2026\r"
    imageCode: 
    answers:
    - text: 'Apagar solo el monitor. '
      isCorrect: 0
    - text: 'Apagar y desconectar la computadora. '
      isCorrect: 1
    - text: No salir a jugar.
      isCorrect: 0
  - quizType: 0
    title: Cumplimos metas en familia
    text: "Marca la alternativa incorrecta. \xBFQui\xE9nes pueden trazar una meta
      familiar?"
    imageCode: 
    answers:
    - text: "La mam\xE1 o el pap\xE1 de una familia. "
      isCorrect: 0
    - text: 'Los adultos de una familia. '
      isCorrect: 0
    - text: "Solo el pap\xE1 o el abuelo de una familia."
      isCorrect: 1
  - quizType: 0
    title: Cumplimos metas en familia
    text: "Es importante tener metas familiares porque\u2026"
    imageCode: 
    answers:
    - text: benefician a todos los integrantes de la familia.
      isCorrect: 1
    - text: demuestra que los adultos mandan en casa.
      isCorrect: 0
    - text: diferencian las labores de los hombres y las mujeres.
      isCorrect: 0
  - quizType: 1
    title: Cumplimos metas en familia
    text: "Marca una o m\xE1s alternativas. \xBFQu\xE9 ocurrir\xEDa si en nuestra
      familia se nos asigna la labor de limpiar solo por ser ni\xF1as y jugar al
      f\xFAtbol solo por ser ni\xF1os?\r"
    imageCode: 
    answers:
    - text: "Se organizar\xEDan mejor las labores dom\xE9sticas. "
      isCorrect: 0
    - text: "Se incentivar\xEDa a recibir un trato desigual."
      isCorrect: 1
    - text: "Nos acostumbrar\xEDan a sentirnos m\xE1s o menos que alguien. "
      isCorrect: 1
  - quizType: 0
    title: Cumplimos metas en familia
    text: "El fin de semana, la familia de Rosita ha organizado una parrillada. Para
      que todas y todos almuercen a tiempo\u2026"
    imageCode: 
    answers:
    - text: "Rosita y su mam\xE1 preparar\xE1n la parrilla."
      isCorrect: 0
    - text: "El hermano de Rosita y su pap\xE1 preparar\xE1n la parrilla."
      isCorrect: 0
    - text: "A cada uno se le dar\xE1 una tarea en la preparaci\xF3n."
      isCorrect: 1
  - quizType: 0
    title: Cumplimos metas en familia
    text: "El perrito de Dora siempre ensucia la sala porque no lo sacan a tiempo
      para que haga sus necesidades. \xBFQu\xE9 meta familiar puede trazarse?\r"
    imageCode: 
    answers:
    - text: Abrir la puerta para que salga solo.
      isCorrect: 0
    - text: Turnarse para sacarlo a pasear.
      isCorrect: 1
    - text: Regalarlo para que otros lo cuiden.
      isCorrect: 0
  - quizType: 0
    title: Cumplimos metas en familia
    text: "Si en nuestra familia cuidamos el consumo de agua y luz, entonces el dinero
      ahorrado podr\xEDa ser invertido en la meta familiar de\u2026"
    imageCode: 
    answers:
    - text: Comprar un nuevo videojuego.
      isCorrect: 0
    - text: "Comprar m\xE1s electrodom\xE9sticos para la casa."
      isCorrect: 0
    - text: Comprar un juego de mesa para compartir en familia.
      isCorrect: 1
