%YAML 1.1
%TAG !u! tag:unity3d.com,2011:
--- !u!114 &11400000
MonoBehaviour:
  m_ObjectHideFlags: 0
  m_CorrespondingSourceObject: {fileID: 0}
  m_PrefabInstance: {fileID: 0}
  m_PrefabAsset: {fileID: 0}
  m_GameObject: {fileID: 0}
  m_Enabled: 1
  m_EditorHideFlags: 0
  m_Script: {fileID: 11500000, guid: 4189e3028d1f4f648962fd11688eee3d, type: 3}
  m_Name: data
  m_EditorClassIdentifier: 
  questions:
  - quizType: 2
    title: Tenemos necesidades y las satisfacemos
    text: 
    imageCode: 
    answers:
    - text: "Los recursos econ\xF3micos son escasos porque existe una cantidad limitada
        de recursos para satisfacer necesidades ilimitadas."
      isCorrect: 1
    - text: "Las familias reciben ingresos limitados por ello, deben tomar decisiones
        para saber c\xF3mo utilizarlos."
      isCorrect: 1
    - text: "Los recursos econ\xF3micos son ilimitados por eso se puede satisfacer
        todas las necesidades. "
      isCorrect: 0
  - quizType: 0
    title: Tenemos necesidades y las satisfacemos
    text: "Es importante saber c\xF3mo utilizar los recursos econ\xF3micos cuando
      estos son escasos. Por ello, se deben diferenciar las necesidades de los deseos,
      ya que nos ayudar\xE1 a tomar decisiones adecuadas. Este enunciado es:"
    imageCode: 
    answers:
    - text: Falso
      isCorrect: 0
    - text: Verdadero
      isCorrect: 1
  - quizType: 0
    title: Tenemos necesidades y las satisfacemos
    text: Una _______________ es todo aquello indispensable para vivir, ya sea un
      producto o un servicio.
    imageCode: 
    answers:
    - text: "decisi\xF3n"
      isCorrect: 0
    - text: compra
      isCorrect: 0
    - text: necesidad
      isCorrect: 1
  - quizType: 0
    title: Tenemos necesidades y las satisfacemos
    text: "La mam\xE1 de Marco prepar\xF3 una lista de productos que necesitaba para
      comprarlos en el supermercado, como arroz, leche, verduras, frutas y carnes.
      \xBFCrees que la lista de productos que hizo la mam\xE1 de Marco forma parte
      de las principales necesidades de la familia?"
    imageCode: 
    answers:
    - text: "No, porque esta lista deber\xEDa incluir los dulces y gaseosas que quer\xEDa
        Marco."
      isCorrect: 0
    - text: "S\xED, porque estos productos no son indispensables para vivir."
      isCorrect: 0
    - text: "S\xED, porque estos productos son indispensables para vivir."
      isCorrect: 1
  - quizType: 0
    title: Tenemos necesidades y las satisfacemos
    text: Un ___________ es lo que se quiere tener en un determinado momento, pero
      que no es indispensable para vivir.
    imageCode: 
    answers:
    - text: deseo
      isCorrect: 1
    - text: producto
      isCorrect: 0
    - text: servicio
      isCorrect: 0
  - quizType: 0
    title: Tenemos necesidades y las satisfacemos
    text: "Cuando la mam\xE1 de Marco estaba a punto de pagar los productos en el
      supermercado, se dio cuenta que Marco hab\xEDa agregado chocolates, galletas
      y gaseosas. \xBFCrees que lo que agreg\xF3 Marco forma parte de las principales
      necesidades de la familia?"
    imageCode: 
    answers:
    - text: "S\xED, porque estos productos son indispensables para la vida."
      isCorrect: 0
    - text: "No, porque estos productos no son indispensables para vivir, m\xE1s
        bien forma parte de un deseo."
      isCorrect: 1
    - text: "S\xED, porque estos productos forman parte de las principales necesidades
        de la familia."
      isCorrect: 0
  - quizType: 0
    title: Tenemos necesidades y las satisfacemos
    text: "\xBFQu\xE9 producto podr\xEDas adquirir tomando en cuenta que los recursos
      econ\xF3micos son escasos?"
    imageCode: 
    answers:
    - text: Alimentos
      isCorrect: 1
    - text: Videojuego
      isCorrect: 0
    - text: Dulces
      isCorrect: 0
  - quizType: 0
    title: Tenemos necesidades y las satisfacemos
    text: "\xBFC\xF3mo satisfacer la necesidad de hidratarse?"
    imageCode: 
    answers:
    - text: Acudiendo a un hospital
      isCorrect: 0
    - text: Bebiendo agua
      isCorrect: 1
    - text: Consumiendo alimentos
      isCorrect: 0
  - quizType: 0
    title: Tenemos necesidades y las satisfacemos
    text: "\xBFQu\xE9 servicio podr\xEDas adquirir tomando en cuenta que los recursos
      econ\xF3micos son escasos?"
    imageCode: 
    answers:
    - text: Cultural
      isCorrect: 0
    - text: Educativo
      isCorrect: 1
    - text: Vacacional
      isCorrect: 0
  - quizType: 0
    title: Tenemos necesidades y las satisfacemos
    text: "\xBFC\xF3mo satisfacer la necesidad de abrigo?"
    imageCode: 
    answers:
    - text: Consumiendo alimentos
      isCorrect: 0
    - text: Bebiendo agua
      isCorrect: 0
    - text: Usando ropa
      isCorrect: 1
