%YAML 1.1
%TAG !u! tag:unity3d.com,2011:
--- !u!114 &11400000
MonoBehaviour:
  m_ObjectHideFlags: 0
  m_CorrespondingSourceObject: {fileID: 0}
  m_PrefabInstance: {fileID: 0}
  m_PrefabAsset: {fileID: 0}
  m_GameObject: {fileID: 0}
  m_Enabled: 1
  m_EditorHideFlags: 0
  m_Script: {fileID: 11500000, guid: 801d1e00514c3a84c8214b759d9ad4d3, type: 3}
  m_Name: MemoryData
  m_EditorClassIdentifier: 
  levels:
  - time: 15
    lives: 3
    target: 3
    rounds: 2
  - time: 25
    lives: 3
    target: 4
    rounds: 3
  - time: 50
    lives: 3
    target: 5
    rounds: 4
  - time: 100
    lives: 3
    target: 6
    rounds: 5
  - time: 140
    lives: 3
    target: 8
    rounds: 6
  artGroups:
  - groupId: m1
    sprites:
    - {fileID: 21300000, guid: 5e154ff631fa56c429527c497749837b, type: 3}
    - {fileID: 21300000, guid: bc84f4d623892af4397d9feb359c3b01, type: 3}
    - {fileID: 21300000, guid: 02d9d605f02dbac47a9a19d37f290df4, type: 3}
    - {fileID: 21300000, guid: 82b57da483bff3a47a1a66f042b454d1, type: 3}
    - {fileID: 21300000, guid: 57f2bbdee8dbb834584346f6bae1084c, type: 3}
    - {fileID: 21300000, guid: 35c0c8e2c2d59ab48b192baaf29a332c, type: 3}
    - {fileID: 21300000, guid: 69b356419f9ae46489aed562860b8f0d, type: 3}
    - {fileID: 21300000, guid: f8ef48bcad49f7945a6c2bc50bfaee71, type: 3}
