%YAML 1.1
%TAG !u! tag:unity3d.com,2011:
--- !u!114 &11400000
MonoBehaviour:
  m_ObjectHideFlags: 0
  m_CorrespondingSourceObject: {fileID: 0}
  m_PrefabInstance: {fileID: 0}
  m_PrefabAsset: {fileID: 0}
  m_GameObject: {fileID: 0}
  m_Enabled: 1
  m_EditorHideFlags: 0
  m_Script: {fileID: 11500000, guid: 4189e3028d1f4f648962fd11688eee3d, type: 3}
  m_Name: data
  m_EditorClassIdentifier: 
  questions:
  - quizType: 0
    title: 'Ejercemos nuestros derechos: el libro de reclamaciones'
    text: "El libro de __________  es una herramienta \xFAtil para la presentaci\xF3n
      de tus quejas y reclamos ante un proveedor por inconvenientes surgidos tras
      la compra de un producto o servicio."
    imageCode: 
    answers:
    - text: Reclamaciones.
      isCorrect: 1
    - text: Quejas.
      isCorrect: 0
    - text: Acuerdos.
      isCorrect: 0
  - quizType: 0
    title: 'Ejercemos nuestros derechos: el libro de reclamaciones'
    text: "Todo proveedor debe poner el libro a tu disposici\xF3n en cada uno de
      sus establecimientos comerciales o plataformas de ventas por internet. Este
      enunciado es:\r"
    imageCode: 
    answers:
    - text: Verdadero.
      isCorrect: 1
    - text: Falso.
      isCorrect: 0
  - quizType: 0
    title: 'Ejercemos nuestros derechos: el libro de reclamaciones'
    text: "Una queja se produce cuando:\r"
    imageCode: 
    answers:
    - text: "Existe una disconformidad frente a una mala atenci\xF3n del proveedor,
        pero no guarda relaci\xF3n directa con el producto."
      isCorrect: 1
    - text: "Una disconformidad del producto adquirido o servicio brindado. El proveedor
        tiene la obligaci\xF3n de darte una respuesta."
      isCorrect: 0
    - text: Se presenta una quejas y reclamos ante un proveedor por inconvenientes
        surgidos tras la compra de un producto o servicio.
      isCorrect: 0
  - quizType: 0
    title: 'Ejercemos nuestros derechos: el libro de reclamaciones'
    text: "El ______________ se produce cuando no est\xE1s conforme con el producto
      adquirido o servicio brindado."
    imageCode: 
    answers:
    - text: Proceso de queja.
      isCorrect: 0
    - text: Reclamo.
      isCorrect: 1
    - text: Libro de reclamaciones.
      isCorrect: 0
  - quizType: 0
    title: 'Ejercemos nuestros derechos: el libro de reclamaciones'
    text: "El ______________ presenta diez consejos pr\xE1cticos que permite que
      conozcas los derechos tienes antes de comprar un producto o contratar un servicio."
    imageCode: 
    answers:
    - text: "Dec\xE1logo del consumidor."
      isCorrect: 1
    - text: "Dec\xE1logo del comunicador."
      isCorrect: 0
    - text: "Dec\xE1logo del productor."
      isCorrect: 0
  - quizType: 2
    title: 'Ejercemos nuestros derechos: el libro de reclamaciones'
    text: "Coloca V si es verdadero y F si es falso, seg\xFAn corresponda\r"
    imageCode: 
    answers:
    - text: Si tenemos deudas, podemos adelantar sus pagos. El banco no debe cobrarnos
        por ello.
      isCorrect: 1
    - text: Debemos exigir la boleta de pago por nuestras compras; con ella, podremos
        hacer cualquier reclamo.
      isCorrect: 1
    - text: 'Debemos exigir que las proveedoras o los proveedores de productos o
        servicios no cumplan con brindarnos lo que aparece en su publicidad o en
        sus promociones. '
      isCorrect: 0
  - quizType: 0
    title: 'Ejercemos nuestros derechos: el libro de reclamaciones'
    text: "El mapa de consumo informa qu\xE9:"
    imageCode: 
    answers:
    - text: "Instituciones p\xFAblicas pueden presentar un reclamo o una denuncia,
        seg\xFAn el rubro al que pertenezcan los productos o servicios adquiridos."
      isCorrect: 1
    - text: "Instituciones p\xFAblicas pueden presentar un anuncio, seg\xFAn el rubro
        al que pertenezcan los productos o servicios adquiridos."
      isCorrect: 0
    - text: "Instituciones p\xFAblicas pueden presentar un acuerdo, seg\xFAn el rubro
        al que pertenezcan los productos o servicios adquiridos. "
      isCorrect: 0
  - quizType: 0
    title: 'Ejercemos nuestros derechos: el libro de reclamaciones'
    text: "Pedro tiene problemas con la velocidad del internet, ya que esta no es
      la ofrecida en el servicio contratado. \xBFEn qu\xE9 entidad puede realizar
      su reclamo Pedro?"
    imageCode: 
    answers:
    - text: INDECOPI.
      isCorrect: 0
    - text: OSITRAN.
      isCorrect: 0
    - text: OSIPTEL.
      isCorrect: 1
  - quizType: 0
    title: 'Ejercemos nuestros derechos: el libro de reclamaciones'
    text: "En una publicidad, dec\xEDa que, por la compra de dos polos, regalar\xEDan
      un aud\xEDfono, pero a Josefina no se lo dieron y pidi\xF3 el Libro de Reclamaciones.
      \xBFEn cu\xE1nto tiempo debe responder la tienda?"
    imageCode: 
    answers:
    - text: "20 d\xEDas calendario."
      isCorrect: 0
    - text: "30 d\xEDas calendario."
      isCorrect: 1
    - text: "40 d\xEDas calendario."
      isCorrect: 0
  - quizType: 0
    title: 'Ejercemos nuestros derechos: el libro de reclamaciones'
    text: "A Mariano, que forma parte de una comunidad shipiba, no lo dejaron ingresar
      a un restaurante por su forma de vestir. \xBFA qu\xE9 entidad debe presentar
      su denuncia?"
    imageCode: 
    answers:
    - text: OSIPTEL.
      isCorrect: 0
    - text: INDECOPI.
      isCorrect: 1
    - text: OSINERGMIN.
      isCorrect: 0
