%YAML 1.1
%TAG !u! tag:unity3d.com,2011:
--- !u!114 &11400000
MonoBehaviour:
  m_ObjectHideFlags: 0
  m_CorrespondingSourceObject: {fileID: 0}
  m_PrefabInstance: {fileID: 0}
  m_PrefabAsset: {fileID: 0}
  m_GameObject: {fileID: 0}
  m_Enabled: 1
  m_EditorHideFlags: 0
  m_Script: {fileID: 11500000, guid: 4189e3028d1f4f648962fd11688eee3d, type: 3}
  m_Name: data
  m_EditorClassIdentifier: 
  questions:
  - quizType: 0
    title: "Explicamos la importancia de respetar la ley en el proceso econ\xF3mico"
    text: "En el mercado, la mam\xE1 de Karla quiso comprar unos cosm\xE9ticos, pero
      ol\xEDan y se ve\xEDan extra\xF1os. \xBFQu\xE9 tipo de delito econ\xF3mico
      se evidencia?"
    imageCode: 
    answers:
    - text: "Especulaci\xF3n."
      isCorrect: 0
    - text: "Adulteraci\xF3n."
      isCorrect: 1
    - text: "Venta ilegal de mercader\xEDas."
      isCorrect: 0
  - quizType: 0
    title: "Explicamos la importancia de respetar la ley en el proceso econ\xF3mico"
    text: "\xBFCu\xE1l de estas afirmaciones sobre los delitos econ\xF3micos es falsa?"
    imageCode: 
    answers:
    - text: Su objetivo es el beneficio propio en perjuicio de terceras personas.
      isCorrect: 0
    - text: "Son condenados por el C\xF3digo Penal."
      isCorrect: 0
    - text: "No son tan graves, por lo que no deber\xEDan ser sancionados."
      isCorrect: 1
  - quizType: 0
    title: "Explicamos la importancia de respetar la ley en el proceso econ\xF3mico"
    text: "Un comedor del barrio de Mario vendi\xF3, aunque a un precio c\xF3modo,
      algunos productos recibidos como donaci\xF3n. \xBFQu\xE9 tipo de delito se
      evidencia?"
    imageCode: 
    answers:
    - text: "Especulaci\xF3n."
      isCorrect: 0
    - text: "Adulteraci\xF3n."
      isCorrect: 0
    - text: "Venta ilegal de mercader\xEDas."
      isCorrect: 1
  - quizType: 0
    title: "Explicamos la importancia de respetar la ley en el proceso econ\xF3mico"
    text: "\u201CLa especulaci\xF3n es un delito grave porque se aprovechan de la
      necesidad de las personas\u201D, dijo la profesora de Mario. \xBFEs cierta
      est\xE1 afirmaci\xF3n?"
    imageCode: 
    answers:
    - text: "S\xED, porque son productos de primera necesidad, por lo que se tienen
        que comprar."
      isCorrect: 1
    - text: No, porque se trata solo de ganar dinero, por lo que las personas pueden
        no comprarlos.
      isCorrect: 0
  - quizType: 1
    title: "Explicamos la importancia de respetar la ley en el proceso econ\xF3mico"
    text: "\xBFPor qu\xE9 la venta ilegal de los productos del comedor del barrio
      de Mario fue grave?"
    imageCode: 
    answers:
    - text: "Fue grave, porque afect\xF3 a los beneficiarios del comedor."
      isCorrect: 1
    - text: "Fue grave, ya que perjudic\xF3 al Estado."
      isCorrect: 1
    - text: No fue grave, ya que las personas que vendieron el producto ganaron algo.
      isCorrect: 0
  - quizType: 1
    title: "Explicamos la importancia de respetar la ley en el proceso econ\xF3mico"
    text: "Karla quiere saber por qu\xE9 la adulteraci\xF3n de un producto es grave.
      \xBFCu\xE1les de estas pueden ser las razones?"
    imageCode: 
    answers:
    - text: Puede afectar la salud de las personas que consumen el producto, si este
        es comestible (bebidas) o es para su piel (cremas).
      isCorrect: 1
    - text: "En realidad, este tipo de delito no es grave porque no atenta contra
        ninguna persona, por lo que no deber\xEDa ser sancionado."
      isCorrect: 0
    - text: "Perjudica a las empresas que s\xED venden buenos productos, pues los
        adulterados cuestan menos."
      isCorrect: 1
  - quizType: 0
    title: "Explicamos la importancia de respetar la ley en el proceso econ\xF3mico"
    text: "\u201CLos delitos econ\xF3micos afectan al desarrollo del pa\xEDs\u201D,
      dijo el pap\xE1 de Karla. \xBFCu\xE1l de estas opciones no es un efecto de
      los delitos econ\xF3micos? \r\n"
    imageCode: 
    answers:
    - text: "Menos impuestos para el pa\xEDs."
      isCorrect: 0
    - text: "Poblaci\xF3n estafada."
      isCorrect: 0
    - text: "Mayores ganancias para la poblaci\xF3n."
      isCorrect: 1
  - quizType: 0
    title: "Explicamos la importancia de respetar la ley en el proceso econ\xF3mico"
    text: "La madre de Karla toma medidas antes de adquirir un producto o servicio,
      de manera que no sea v\xEDctima de un delito econ\xF3mico. \xBFCu\xE1l de estas
      puede ser una medida?\r\n"
    imageCode: 
    answers:
    - text: "Identificaci\xF3n de las caracter\xEDsticas del producto o servicio,
        seg\xFAn sus necesidades."
      isCorrect: 0
    - text: "Revisi\xF3n del c\xF3digo de registro sanitario."
      isCorrect: 1
    - text: "Identificaci\xF3n de la mejor oferta para ahorrar dinero en su compra."
      isCorrect: 0
  - quizType: 2
    title: "Explicamos la importancia de respetar la ley en el proceso econ\xF3mico"
    text: "Para cada enunciado, escribe V o F, seg\xFAn corresponda:"
    imageCode: 
    answers:
    - text: "Los delitos econ\xF3micos son sancionados con pena privativa de libertad."
      isCorrect: 1
    - text: "Los delitos econ\xF3micos son problemas graves que afectan al pa\xEDs."
      isCorrect: 1
    - text: "Los delitos econ\xF3micos solo se sancionan con multas leves."
      isCorrect: 0
  - quizType: 0
    title: "Explicamos la importancia de respetar la ley en el proceso econ\xF3mico"
    text: "Debido a los efectos _________ de los delitos econ\xF3micos en las familias,
      el Estado y el desarrollo del pa\xEDs, el Estado ___________ a los infractores."
    imageCode: 
    answers:
    - text: positivos - premia.
      isCorrect: 0
    - text: negativos - sanciona.
      isCorrect: 1
    - text: negativos - cuestiona.
      isCorrect: 0
