%YAML 1.1
%TAG !u! tag:unity3d.com,2011:
--- !u!114 &11400000
MonoBehaviour:
  m_ObjectHideFlags: 0
  m_CorrespondingSourceObject: {fileID: 0}
  m_PrefabInstance: {fileID: 0}
  m_PrefabAsset: {fileID: 0}
  m_GameObject: {fileID: 0}
  m_Enabled: 1
  m_EditorHideFlags: 0
  m_Script: {fileID: 11500000, guid: 4189e3028d1f4f648962fd11688eee3d, type: 3}
  m_Name: data
  m_EditorClassIdentifier: 
  questions:
  - quizType: 0
    title: "Entendemos el rol del Estado en la Econom\xEDa"
    text: "\xBFQu\xE9 es un agente econ\xF3mico?"
    imageCode: 
    answers:
    - text: "Son unos servicios que brindan los bancos en algunas tiendas y permiten
        hacer dep\xF3sitos o retirar dinero o hacer pagos."
      isCorrect: 0
    - text: "Son actores que intervienen en la econom\xEDa y toman decisiones para
        optimizar su bienestar."
      isCorrect: 1
    - text: "Son las personas encargadas de vigilar que compradores y vendedores
        no hagan trampa al momento de una transacci\xF3n."
      isCorrect: 0
  - quizType: 0
    title: "Entendemos el rol del Estado en la Econom\xEDa"
    text: "\xBFQu\xE9 ocurre en el mercado de productos?"
    imageCode: 
    answers:
    - text: Se compran y venden bienes y servicios.
      isCorrect: 1
    - text: Se encuentra todo lo que uno necesite.
      isCorrect: 0
    - text: Se encuentran ofertas y novedades.
      isCorrect: 0
  - quizType: 0
    title: "Entendemos el rol del Estado en la Econom\xEDa"
    text: "\xBFCu\xE1les son los factores disponibles en el mercado de factores?"
    imageCode: 
    answers:
    - text: Empleo, Edificios y Dinero
      isCorrect: 0
    - text: Trabajo, Tierra y Capital
      isCorrect: 1
    - text: Personas, Empresas y Bancos.
      isCorrect: 0
  - quizType: 0
    title: "Entendemos el rol del Estado en la Econom\xEDa"
    text: "\xBFC\xF3mo hace el Estado para lograr el bien com\xFAn de las personas?\r"
    imageCode: 
    answers:
    - text: Nos pide que nos pongamos de acuerdo para que logremos el bienestar general.
      isCorrect: 0
    - text: "Desarrolla campa\xF1as a nivel nacional para que todos nos sintamos
        bien."
      isCorrect: 0
    - text: "Cumple con ciertas funciones como, por ejemplo, regulaci\xF3n o redistribuci\xF3n."
      isCorrect: 1
  - quizType: 0
    title: "Entendemos el rol del Estado en la Econom\xEDa"
    text: "Indica cu\xE1l de estos bienes o servicios le corresponde garantizar al
      Estado porque favorece al bien com\xFAn."
    imageCode: 
    answers:
    - text: Salud.
      isCorrect: 1
    - text: "Televisi\xF3n por cable."
      isCorrect: 0
    - text: Centros comerciales.
      isCorrect: 0
  - quizType: 0
    title: "Entendemos el rol del Estado en la Econom\xEDa"
    text: "Responde V (verdadero) o F (falso): El bien com\xFAn implica el beneficio
      general y no a favor de un solo grupo o clase espec\xEDfica."
    imageCode: 
    answers:
    - text: V
      isCorrect: 1
    - text: F
      isCorrect: 0
  - quizType: 0
    title: "Entendemos el rol del Estado en la Econom\xEDa"
    text: "Cuando en los medios de noticias se dice que el Estado \u201Cest\xE1 dise\xF1ando
      medidas para frenar el alza de precios\u201D, \xBFqu\xE9 funci\xF3n estar\xEDa
      cumpliendo?."
    imageCode: 
    answers:
    - text: "Asignaci\xF3n."
      isCorrect: 0
    - text: "Estabilizaci\xF3n. "
      isCorrect: 1
    - text: "Redistribuci\xF3n."
      isCorrect: 0
  - quizType: 0
    title: "Entendemos el rol del Estado en la Econom\xEDa"
    text: "La funci\xF3n que tiene como uno de sus objetivos cobrarle m\xE1s impuestos
      a los sectores de mayores ingresos es la de:\r"
    imageCode: 
    answers:
    - text: "Asignaci\xF3n."
      isCorrect: 0
    - text: "Estabilizaci\xF3n. "
      isCorrect: 0
    - text: "Redistribuci\xF3n."
      isCorrect: 1
  - quizType: 0
    title: "Entendemos el rol del Estado en la Econom\xEDa"
    text: "\u201CPromover el bienestar general que se fundamenta en la justicia y
      en el desarrollo integral y equilibrado de la Naci\xF3n\u201D es uno de los
      deberes del Estado que est\xE1 contenido en el art\xEDculo 44 de:"
    imageCode: 
    answers:
    - text: La Ley del Estado Peruano.
      isCorrect: 0
    - text: "La Constituci\xF3n pol\xEDtica del Per\xFA."
      isCorrect: 1
    - text: "El Reglamento del Congreso de la Rep\xFAblica."
      isCorrect: 0
  - quizType: 2
    title: "Entendemos el rol del Estado en la Econom\xEDa"
    text: 
    imageCode: 
    answers:
    - text: "El bien com\xFAn se trata, principalmente, de alimentos."
      isCorrect: 0
    - text: "Que el Estado garantice la educaci\xF3n favorece el bien com\xFAn."
      isCorrect: 1
    - text: "La protecci\xF3n y defensa del medio ambiente no es tarear del Estado."
      isCorrect: 0
