%YAML 1.1
%TAG !u! tag:unity3d.com,2011:
--- !u!114 &11400000
MonoBehaviour:
  m_ObjectHideFlags: 0
  m_CorrespondingSourceObject: {fileID: 0}
  m_PrefabInstance: {fileID: 0}
  m_PrefabAsset: {fileID: 0}
  m_GameObject: {fileID: 0}
  m_Enabled: 1
  m_EditorHideFlags: 0
  m_Script: {fileID: 11500000, guid: 4189e3028d1f4f648962fd11688eee3d, type: 3}
  m_Name: data
  m_EditorClassIdentifier: 
  questions:
  - quizType: 0
    title: Identificamos y manejamos los conflictos
    text: "El __________________ es una situaci\xF3n en la cual dos o m\xE1s partes
      (personas o grupos) se ____________ debido a varias razones."
    imageCode: 
    answers:
    - text: problema - retan
      isCorrect: 0
    - text: "conflicto \u2013 enfrentan"
      isCorrect: 1
    - text: "inconveniente - desaf\xEDan"
      isCorrect: 0
  - quizType: 2
    title: Identificamos y manejamos los conflictos
    text: "\xBFQu\xE9 causas influyen en la generaci\xF3n de conflictos?"
    imageCode: 
    answers:
    - text: Cuando las partes tienen opiniones, necesidades o intereses distintos.
      isCorrect: 1
    - text: Cuando una parte no busca imponer sus ideas sobre las otras.
      isCorrect: 0
    - text: "Cuando las personas entienden a su manera una indicaci\xF3n o mensaje."
      isCorrect: 1
    - text: Cuando una parte busca imponer sus ideas sobre las otras.
      isCorrect: 1
  - quizType: 0
    title: Identificamos y manejamos los conflictos
    text: "Rosa, la delegada del aula, no sabe qu\xE9 hacer para la salida de campo,
      ya que un grupo de sus compa\xF1eras y compa\xF1eros quieren ir al zool\xF3gico
      y el otro grupo quieren ir al museo; pero lo que si sabe es que ning\xFAn grupo
      se pone de acuerdo, al contrario, se molestan e impacientan y otros se ponen
      tristes. \xBFCu\xE1l es la causa del conflicto?"
    imageCode: 
    answers:
    - text: Cada grupo entiende diferente el mensaje de Rosa.
      isCorrect: 0
    - text: Cada grupo tiene necesidades e intereses distintos.
      isCorrect: 1
    - text: Un grupo intenta imponerse sobre el otro.
      isCorrect: 0
  - quizType: 0
    title: Identificamos y manejamos los conflictos
    text: "\xBFCu\xE1l de las siguientes afirmaciones es consecuencia de un conflicto?"
    imageCode: 
    answers:
    - text: "Varios estudiantes quieren ir al zool\xF3gico porque podr\xEDan aprender
        mucho acerca de los animales."
      isCorrect: 0
    - text: "Varios estudiantes quieren ir al museo porque podr\xEDan aprender m\xE1s
        sobre la historia del Per\xFA."
      isCorrect: 0
    - text: Varios estudiantes se molestan, impacientan y otros se ponen tristes.
      isCorrect: 1
  - quizType: 2
    title: Identificamos y manejamos los conflictos
    text: "La profesora Karina se entera del problema de sus estudiantes, que un
      grupo quiere ir al zool\xF3gico y el otro al museo. Entonces ella los re\xFAne
      a todos y les pide que expliquen sus razones por las cuales quieren ir a un
      lugar y al otro, adem\xE1s escribe en la pizarra la causa del conflicto. Finalmente,
      plantea ir a ambos lugares, pero en diferentes fechas. \r"
    imageCode: 
    answers:
    - text: La mediadora fue la profesora Karina.
      isCorrect: 1
    - text: "La mediadora reuni\xF3 a ambas partes y les pidi\xF3 que expresen sus
        puntos de vista."
      isCorrect: 1
    - text: "La mediadora identific\xF3 las causas del conflicto."
      isCorrect: 1
    - text: "Una de las partes plante\xF3 la alternativa de soluci\xF3n."
      isCorrect: 0
  - quizType: 0
    title: Identificamos y manejamos los conflictos
    text: "Los conflictos se deben______________, ya que, si no se resuelven, puede
      da\xF1as las ___________ entre las personas, perjudica a los grupos de trabajo
      e, incluso, puede conducir a comportamientos _________________."
    imageCode: 
    answers:
    - text: "evitar \u2013 amistades - extra\xF1os"
      isCorrect: 0
    - text: "resolver \u2013 relaciones - violentos"
      isCorrect: 1
    - text: "solucionar \u2013 amistades - diferentes"
      isCorrect: 0
  - quizType: 0
    title: Identificamos y manejamos los conflictos
    text: "La mediadora o el mediador debe favorecer el di\xE1logo entre las partes
      implicadas en el conflicto para que estas lleguen a un acuerdo que las satisfagan.
      El enunciado es:"
    imageCode: 
    answers:
    - text: Verdadero
      isCorrect: 1
    - text: Falso
      isCorrect: 0
  - quizType: 0
    title: Identificamos y manejamos los conflictos
    text: "Durante el recreo, Julio quiere comprar un refresco. En su camino, tropez\xF3
      con Sonia, quien estaba tomando un jugo, el cual cay\xF3 al piso. Ella le exigi\xF3
      a Julio que le comprara uno nuevo. \xC9l aduc\xEDa que fue un accidente. De
      pronto lleg\xF3 su profesora y le pidi\xF3 a cado uno que exprese su punto
      de vista. \xBFQu\xE9 sugerencia para dialogar emple\xF3 la mediadora?"
    imageCode: 
    answers:
    - text: Emplear un tono inadecuado al momento de hablar.
      isCorrect: 0
    - text: Practicar la escucha activa, respetar a los que hablan y expresar sus
        ideas con claridad.
      isCorrect: 1
    - text: "Mostrar cualquier emoci\xF3n al momento de expresar tus ideas. "
      isCorrect: 0
  - quizType: 0
    title: Identificamos y manejamos los conflictos
    text: "Para que el _____________ sea exitoso ambas partes deben ____________
      sus emociones al momento de expresar sus ideas. Para ello, se debe emplear
      alguna estrategia de regulaci\xF3n de las emociones. "
    imageCode: 
    answers:
    - text: "di\xE1logo - regular"
      isCorrect: 1
    - text: conflicto - resolver
      isCorrect: 0
    - text: mediador - sentir
      isCorrect: 0
  - quizType: 0
    title: Identificamos y manejamos los conflictos
    text: "\u201CPara solucionar un conflicto ambos debemos emplear un tono adecuado
      al hablar\u201D, dijo la profesora de Julio y Sonia. \xBFEs cierta esta afirmaci\xF3n?"
    imageCode: 
    answers:
    - text: "S\xED, porque, al emplear un tono adecuado ambos se calmar\xE1n y se
        dar\xE1n cuenta de que se est\xE1n respetando mutuamente e intentar\xE1n
        buscar una soluci\xF3n al conflicto."
      isCorrect: 1
    - text: "No, porque es dif\xEDcil calmar a las personas cuando ya est\xE1n discutiendo."
      isCorrect: 0
