%YAML 1.1
%TAG !u! tag:unity3d.com,2011:
--- !u!114 &11400000
MonoBehaviour:
  m_ObjectHideFlags: 0
  m_CorrespondingSourceObject: {fileID: 0}
  m_PrefabInstance: {fileID: 0}
  m_PrefabAsset: {fileID: 0}
  m_GameObject: {fileID: 0}
  m_Enabled: 1
  m_EditorHideFlags: 0
  m_Script: {fileID: 11500000, guid: 4189e3028d1f4f648962fd11688eee3d, type: 3}
  m_Name: data
  m_EditorClassIdentifier: 
  questions:
  - quizType: 0
    title: "Actuamos de manera \xE9tica"
    text: "Las amigas de Marisol le dicen que falten a clase para ir al cine. \xBFqu\xE9
      deber\xEDa hacer ella para actuar \xE9ticamente?"
    imageCode: 
    answers:
    - text: "Deber\xEDa ir con sus amigas porque nadie se dar\xE1 cuenta que no fue
        la colegio."
      isCorrect: 0
    - text: "Deber\xEDa decirles a sus amigas que vayan a clase y mejor salen el
        s\xE1bado al cine."
      isCorrect: 1
    - text: "Deber\xEDa acusarlas con sus padres para que nadie vaya al cine."
      isCorrect: 0
  - quizType: 0
    title: "Actuamos de manera \xE9tica"
    text: "En la casa de Pablo han cortado la luz por falta de pago. Un familiar
      les dice que puede conectar el servicio clandestinamente. \xBFQu\xE9 se debe
      hacer?"
    imageCode: 
    answers:
    - text: "Agradecer el consejo y analizar si es correcto o no ponerlo en pr\xE1ctica."
      isCorrect: 1
    - text: "Considerar el consejo porque hay urgencia de tener el servicio el\xE9ctrico."
      isCorrect: 0
    - text: "Evaluar primero si al pagar el servicio el\xE9ctrico tendr\xE1n luz
        inmediatamente."
      isCorrect: 0
  - quizType: 0
    title: "Actuamos de manera \xE9tica"
    text: "Un conflicto moral involucra enfrentarnos a un problema y escoger alternativas
      opuestas entre s\xED. \xBFEsto es verdadero o falso?"
    imageCode: 
    answers:
    - text: Verdadero
      isCorrect: 1
    - text: Falso
      isCorrect: 0
  - quizType: 0
    title: "Actuamos de manera \xE9tica"
    text: "Cuando estamos frente a un conflicto moral, \xBFqu\xE9 nos ayuda a escoger
      la soluci\xF3n correcta?"
    imageCode: 
    answers:
    - text: Los valores que tenemos y que nos han inculcado nuestros familiares.
      isCorrect: 1
    - text: Las habilidades que hemos desarrollado en nuestro colegio.
      isCorrect: 0
    - text: Las estrategias para controlar nuestras emociones.
      isCorrect: 0
  - quizType: 0
    title: "Actuamos de manera \xE9tica"
    text: "Marisol le pide a Pablo que incluya su nombre en el trabajo grupal pese
      a que no hizo nada. \xBFQu\xE9 deber\xEDa hacer Pablo para actuar \xE9ticamente?"
    imageCode: 
    answers:
    - text: "Decirle a Marisol que no puede hacerlo porque es injusto para los que
        s\xED colaboraron."
      isCorrect: 1
    - text: Decirle a Marisol que puede hacerlo, pero depende de los otros integrantes
        del grupo.
      isCorrect: 0
    - text: "Decirle a Marisol que lo har\xE1, pero debe cubrir los costos de la
        impresi\xF3n del trabajo."
      isCorrect: 0
  - quizType: 0
    title: "Actuamos de manera \xE9tica"
    text: "Pablo necesita urgente comprar un l\xE1piz para hacer su tarea, su mam\xE1
      no est\xE1 en casa, pero ha dejado su cartera con dinero. \xBFQu\xE9 debe hacer?"
    imageCode: 
    answers:
    - text: Tratar de comunicarse con su madre para preguntar si puede tomar dinero
        de su cartera.
      isCorrect: 1
    - text: Tomar el dinero de la cartera de su madre porque tiene una urgencia.
      isCorrect: 0
    - text: "No comprar el l\xE1piz y no hacer la tarea hasta que llegue su mam\xE1."
      isCorrect: 0
  - quizType: 0
    title: "Actuamos de manera \xE9tica"
    text: "Vas al banco y una persona te dice que te ceder\xE1 su turno de atenci\xF3n
      si le das una propina. \xBFQu\xE9 har\xEDas?"
    imageCode: 
    answers:
    - text: "Seguir esperando mi turno de atenci\xF3n."
      isCorrect: 1
    - text: "Tomar en consideraci\xF3n la oferta."
      isCorrect: 0
    - text: Acusar al banco por el servicio que brindan.
      isCorrect: 0
  - quizType: 0
    title: "Actuamos de manera \xE9tica"
    text: "Marisol y Pablo de causalidad rompieron la ventana. Cuando preguntaron
      quien fue ambos se quedaron callados. \xBFEst\xE1n actuando correctamente?"
    imageCode: 
    answers:
    - text: "S\xED, porque as\xED ambos no ser\xE1n castigados."
      isCorrect: 0
    - text: "No, porque pese a que ellos lo hicieron est\xE1n siendo solidarios."
      isCorrect: 0
    - text: "No, porque ellos est\xE1n evadiendo las consecuencias de sus actos."
      isCorrect: 1
  - quizType: 1
    title: "Actuamos de manera \xE9tica"
    text: "Los padres de Pablo le piden a un familiar que llam\xE9 a su amigo para
      que los ayude a sacar el permiso de su negocio m\xE1s r\xE1pido. \xBFQu\xE9
      le dir\xEDas?"
    imageCode: 
    answers:
    - text: "Que lo que est\xE1n haciendo es deshonesto y que fomenta la corrupci\xF3n."
      isCorrect: 1
    - text: Que es recomendable pedir ayuda a los amigos cuando uno necesita apoyo.
      isCorrect: 0
    - text: "Que lo recomendable hacer los tr\xE1mites por la v\xEDa oficial."
      isCorrect: 1
  - quizType: 0
    title: "Actuamos de manera \xE9tica"
    text: "En un dilema moral las alternativas de soluci\xF3n pueden tener consecuencias
      positivas y negativas. \xBFesto es verdadero o falso?"
    imageCode: 
    answers:
    - text: Verdadero
      isCorrect: 1
    - text: Falso
      isCorrect: 0
