%YAML 1.1
%TAG !u! tag:unity3d.com,2011:
--- !u!114 &11400000
MonoBehaviour:
  m_ObjectHideFlags: 0
  m_CorrespondingSourceObject: {fileID: 0}
  m_PrefabInstance: {fileID: 0}
  m_PrefabAsset: {fileID: 0}
  m_GameObject: {fileID: 0}
  m_Enabled: 1
  m_EditorHideFlags: 0
  m_Script: {fileID: 11500000, guid: 4189e3028d1f4f648962fd11688eee3d, type: 3}
  m_Name: data
  m_EditorClassIdentifier: 
  questions:
  - quizType: 1
    title: 
    text: "\xBFCu\xE1les son los roles dentro de una familia?"
    imageCode: 
    answers:
    - text: Rol reproductivo
      isCorrect: 1
    - text: Rol activo
      isCorrect: 0
    - text: Rol productivo
      isCorrect: 1
  - quizType: 0
    title: 
    text: "\xBFCu\xE1l de las siguientes es una ventaja de regular nuestras emociones?"
    imageCode: 
    answers:
    - text: Mejorar las relaciones interpersonales
      isCorrect: 1
    - text: Dejar de sentir miedo o ira
      isCorrect: 0
    - text: Estar alegres en todo momento
      isCorrect: 0
  - quizType: 0
    title: 
    text: "\xBFQu\xE9 significa actuar de manera \xE9tica?"
    imageCode: 
    answers:
    - text: "Elegir la mejor opci\xF3n para uno mismo"
      isCorrect: 0
    - text: Buscar opciones opuestas a las del resto
      isCorrect: 0
    - text: Respetar valores y principios
      isCorrect: 1
  - quizType: 0
    title: "Lee el caso y responde: \xBFqu\xE9 deber\xEDa hacer Cecilia para regular
      sus emociones?"
    text: "Cecilia est\xE1 muy emocionada porque van a organizar las actividades
      por el aniversario del colegio. Ella es una buena l\xEDder y tiene muchas ideas
      interesantes. Pero, cuando forma las comisiones, la profesora pone a Andrea
      como coordinadora. Cecilia no logra ocultar su decepci\xF3n y ya no pone inter\xE9s
      en participar."
    imageCode: 
    answers:
    - text: Exigir a la maestra que la nombre coordinadora
      isCorrect: 0
    - text: Compartir sus ideas y ofrecer su ayuda a Andrea
      isCorrect: 1
    - text: Retirarse de las actividades para no molestar
      isCorrect: 0
  - quizType: 0
    title: "Lee el caso y responde: \xBFc\xF3mo deber\xEDa actuar V\xEDctor para
      tener un comportamiento \xE9tico?"
    text: "V\xEDctor est\xE1 triste porque su hermana est\xE1 enferma y su familia
      no puede pagar el tratamiento que necesita. \xDAltimamente, ha empezado a andar
      con unos amigos del barrio que le dan dinero para llevar unos paquetes, pero
      le piden que no mire lo que hay dentro. \xC9l sospecha que lo que hace no est\xE1
      bien, pero considera que solo as\xED ayudar\xE1 a su hermana."
    imageCode: 
    answers:
    - text: Juntar solo lo necesario y luego dejar de llevar los paquetes
      isCorrect: 0
    - text: "Continuar porque la salud de su hermana es lo m\xE1s importante"
      isCorrect: 0
    - text: "Dejar estos env\xEDos y buscar otras formas de obtener dinero"
      isCorrect: 1
