%YAML 1.1
%TAG !u! tag:unity3d.com,2011:
--- !u!114 &11400000
MonoBehaviour:
  m_ObjectHideFlags: 0
  m_CorrespondingSourceObject: {fileID: 0}
  m_PrefabInstance: {fileID: 0}
  m_PrefabAsset: {fileID: 0}
  m_GameObject: {fileID: 0}
  m_Enabled: 1
  m_EditorHideFlags: 0
  m_Script: {fileID: 11500000, guid: 4189e3028d1f4f648962fd11688eee3d, type: 3}
  m_Name: data
  m_EditorClassIdentifier: 
  questions:
  - quizType: 0
    title: Elaboramos un plan de vida
    text: "\xBFCu\xE1l de estas afirmaciones sobre tu plan de vida es falsa?"
    imageCode: 
    answers:
    - text: No se relaciona con tus principios y valores.
      isCorrect: 1
    - text: "Se requiere plantear una misi\xF3n."
      isCorrect: 0
    - text: "Es importante establecer objetivos estrat\xE9gicos."
      isCorrect: 0
  - quizType: 0
    title: Elaboramos un plan de vida
    text: "Ceci estudiar\xE1 administraci\xF3n, por lo que ha decidido empezar a
      investigar d\xF3nde estudiar esta carrera. \xBFEsta estrategia la ayudar\xE1
      a cumplir su meta?"
    imageCode: 
    answers:
    - text: "S\xED, porque es importante identificar d\xF3nde estudiar."
      isCorrect: 1
    - text: "No, porque basta con saber qu\xE9 se quiere hacer para cumplir la meta."
      isCorrect: 0
  - quizType: 0
    title: Elaboramos un plan de vida
    text: "Ceci estudiar\xE1 administraci\xF3n porque, alg\xFAn d\xEDa, quiere tener
      un negocio y administrarlo ella misma. \xBFHay coherencia entre lo que har\xE1
      y lo desea?"
    imageCode: 
    answers:
    - text: "S\xED, porque se est\xE1 preparando para obtener lo que quiere."
      isCorrect: 1
    - text: No, porque ella quiere un negocio, no ser administradora.
      isCorrect: 0
  - quizType: 0
    title: Elaboramos un plan de vida
    text: "Para formular tu visi\xF3n personal, debes tomar en cuenta tus _______
      y ________, ya que esto te permitir\xE1 saber lo que necesitas para conseguir
      tu meta."
    imageCode: 
    answers:
    - text: "sue\xF1os - metas."
      isCorrect: 0
    - text: fortalezas - debilidades.
      isCorrect: 1
    - text: estrategias - fortalezas.
      isCorrect: 0
  - quizType: 0
    title: Elaboramos un plan de vida
    text: "Juan quiere ser abogado, pero no estableci\xF3 las estrategias que seguir\xE1
      para lograrlo. \xBFCrees que ha tomado una decisi\xF3n responsable? "
    imageCode: 
    answers:
    - text: "S\xED, porque ya sabe lo que quiere ser."
      isCorrect: 0
    - text: "No, porque, sin sus objetivos y estrategias, no lograr\xE1 su meta."
      isCorrect: 1
  - quizType: 0
    title: Elaboramos un plan de vida
    text: "El FODA permite evaluar tus fortalezas, oportunidades, debilidades y amenazas,
      que es fundamental para el plan de vida. \xBFEs cierta la afirmaci\xF3n? \r"
    imageCode: 
    answers:
    - text: "S\xED."
      isCorrect: 1
    - text: No.
      isCorrect: 0
  - quizType: 2
    title: Elaboramos un plan de vida
    text: "Escribe V o F en cada enunciado, seg\xFAn lo revisado sobre el plan de
      vida:"
    imageCode: 
    answers:
    - text: "Cuando formulas tu plan de vida, debes establecer un prop\xF3sito. "
      isCorrect: 1
    - text: Tu plan de vida no debe contradecir tu plan de vida.
      isCorrect: 1
    - text: Tus fortalezas y debilidades no deben afectar tu plan de vida.
      isCorrect: 0
  - quizType: 0
    title: Elaboramos un plan de vida
    text: "En un a\xF1o, la hermana de Ceci terminar\xE1 su carrera, por lo que ya
      sabe d\xF3nde quiere trabajar y c\xF3mo lo lograr\xE1. \xBFEs responsable con
      su plan de vida?"
    imageCode: 
    answers:
    - text: "S\xED, ya que est\xE1 estableciendo un prop\xF3sito y sus estrategias
        para conseguirlo."
      isCorrect: 1
    - text: "No, porque no es claro su prop\xF3sito y no se sabe qu\xE9 har\xE1 para
        lograrlo."
      isCorrect: 0
  - quizType: 0
    title: Elaboramos un plan de vida
    text: "\xBFCu\xE1l de estos adjetivos no caracteriza a los objetivos estrat\xE9gicos?"
    imageCode: 
    answers:
    - text: Medibles.
      isCorrect: 0
    - text: Abstractos.
      isCorrect: 1
    - text: "Relacionados con mi prop\xF3sito."
      isCorrect: 0
  - quizType: 0
    title: Elaboramos un plan de vida
    text: "\u201CTu plan de vida debe ser acorde a tu visi\xF3n personal\u201D, le
      dijo su tutora a Ceci. \xBFQu\xE9 pasar\xEDa si no fuera as\xED?"
    imageCode: 
    answers:
    - text: "Se sentir\xEDa inc\xF3moda con su vida porque habr\xEDa incoherencias
        con sus valores."
      isCorrect: 1
    - text: "No pasar\xEDa nada porque su plan de vida no tiene nada que ver con
        su visi\xF3n personal."
      isCorrect: 0
    - text: "Es probable que no se sienta c\xF3moda, pero puede ignorar la situaci\xF3n."
      isCorrect: 0
