%YAML 1.1
%TAG !u! tag:unity3d.com,2011:
--- !u!114 &11400000
MonoBehaviour:
  m_ObjectHideFlags: 0
  m_CorrespondingSourceObject: {fileID: 0}
  m_PrefabInstance: {fileID: 0}
  m_PrefabAsset: {fileID: 0}
  m_GameObject: {fileID: 0}
  m_Enabled: 1
  m_EditorHideFlags: 0
  m_Script: {fileID: 11500000, guid: 4189e3028d1f4f648962fd11688eee3d, type: 3}
  m_Name: data
  m_EditorClassIdentifier: 
  questions:
  - quizType: 1
    title: Consumimos de forma responsable
    text: "\xBFPor qu\xE9 debemos fijarnos en los letreros de oct\xF3gonos en los
      alimentos que compramos?"
    imageCode: 
    answers:
    - text: "Porque nos permiten informarnos de las caracter\xEDsticas de los productos
        que compramos."
      isCorrect: 1
    - text: "Porque as\xED sabremos si el alimento que compramos es apto y bueno
        para nuestra salud."
      isCorrect: 1
    - text: "Porque as\xED podremos interponer un reclamo o queja si no nos gusta."
      isCorrect: 0
  - quizType: 1
    title: Consumimos de forma responsable
    text: "\xBFQu\xE9 es lo que debemos hacer antes de comprar un producto en la
      tienda escolar?"
    imageCode: 
    answers:
    - text: "Ver las etiquetas de los oct\xF3gonos."
      isCorrect: 1
    - text: Ver la fecha de vencimiento.
      isCorrect: 1
    - text: 'Ver el registro sanitario '
      isCorrect: 1
  - quizType: 0
    title: Consumimos de forma responsable
    text: "Los consumidores tienen derechos, pero tambi\xE9n responsabilidades, como
      estar informados de los productos que adquieren. \xBFEsto es verdadero o falso?"
    imageCode: 
    answers:
    - text: 'Verdadero '
      isCorrect: 1
    - text: 'Falso  '
      isCorrect: 0
  - quizType: 0
    title: Consumimos de forma responsable
    text: "Luzmila le pide a su padre que le compre unas zapatillas, pero su padre
      le dice que ya tiene varias. \xBFQu\xE9 muestra esta acci\xF3n?"
    imageCode: 
    answers:
    - text: "Que Luzmila se est\xE1 dejando llevar por un deseo y no por una necesidad."
      isCorrect: 1
    - text: Que Luzmila tiene la necesidad de tener varias zapatillas.
      isCorrect: 0
    - text: "Que Luzmila se est\xE1 dejando llevar por una necesidad y no por un
        deseo. "
      isCorrect: 0
  - quizType: 0
    title: Consumimos de forma responsable
    text: "Miguel compr\xF3 un \xE1lbum de la Selecci\xF3n de f\xFAtbol a pesar de
      que ya tiene otro \xE1lbum completo. \xBFQu\xE9 muestra esta acci\xF3n?"
    imageCode: 
    answers:
    - text: "Miguel no est\xE1 siendo un consumidor responsable."
      isCorrect: 1
    - text: Miguel es muy constante en la meta que se ha propuesto.
      isCorrect: 0
    - text: "Miguel est\xE1 enfocado a tener dos \xE1lbumes completos."
      isCorrect: 0
  - quizType: 0
    title: Consumimos de forma responsable
    text: "La profesara pide traer temperas y pinceles. Luzmila tiene temperas, pero
      no pinceles. \xBFQu\xE9 le sugerir\xEDas para que sea una consumidora responsable? "
    imageCode: 
    answers:
    - text: Que sea responsable y compre ambos materiales, porque los va a necesitar.
      isCorrect: 0
    - text: Que analice si tiene el dinero suficiente para comprar ambos materiales.
      isCorrect: 0
    - text: "Que identifique cu\xE1l de los materiales es una necesidad y cu\xE1l
        un deseo."
      isCorrect: 1
  - quizType: 1
    title: Consumimos de forma responsable
    text: "Luzmila cada vez que se lava las manos o se ducha, cierra el ca\xF1o al
      jabonarse. \xBFQu\xE9 demuestra ella con esta acci\xF3n?  "
    imageCode: 
    answers:
    - text: "Ella est\xE1 usando responsablemente el agua."
      isCorrect: 1
    - text: "Ella est\xE1 contribuyendo a minimizar los gastos de servicios p\xFAblicos."
      isCorrect: 1
    - text: "Ella est\xE1 siendo muy mezquina con el agua que utiliza para asearse."
      isCorrect: 0
  - quizType: 0
    title: Consumimos de forma responsable
    text: "Cuando usamos responsablemente los servicios p\xFAblicos contribuimos
      con el ahorro de los gastos de nuestro hogar. \xBFEsto es verdadero o falso?"
    imageCode: 
    answers:
    - text: Verdadero
      isCorrect: 1
    - text: 'Falso '
      isCorrect: 0
  - quizType: 1
    title: Consumimos de forma responsable
    text: "El padre de Luzmila estuvo regando el jard\xEDn y olvid\xF3 cerrar la
      llave del ca\xF1o. \xBFQu\xE9 deber\xEDa decirle Luzmila a su padre?"
    imageCode: 
    answers:
    - text: "Que debe cerrarse la llave del ca\xF1o al terminar de regar. "
      isCorrect: 1
    - text: "Que ser\xEDa conveniente que otra persona se encargue de regar el jard\xEDn."
      isCorrect: 0
    - text: "Que si no desperdiciamos el agua el recibo de agua ser\xE1 m\xE1s barato"
      isCorrect: 1
  - quizType: 0
    title: Consumimos de forma responsable
    text: "Miguel deja constantemente la luz de su cuarto prendida, es m\xE1s, la
      prende incluso en el d\xEDa. \xBF\xC9l est\xE1 siendo un consumidor responsable?
      \xBFPor qu\xE9?"
    imageCode: 
    answers:
    - text: "No, porque est\xE1 desperdiciando la energ\xEDa el\xE9ctrica al dejarla
        prendida durante el d\xEDa."
      isCorrect: 1
    - text: "S\xED, porque est\xE1 protegiendo su salud al utilizar la luz el\xE9ctrica
        antes que la luz natural del d\xEDa."
      isCorrect: 0
    - text: "No, porque est\xE1 dejando llevar por el deseo antes que por la necesidad. "
      isCorrect: 0
