%YAML 1.1
%TAG !u! tag:unity3d.com,2011:
--- !u!114 &11400000
MonoBehaviour:
  m_ObjectHideFlags: 0
  m_CorrespondingSourceObject: {fileID: 0}
  m_PrefabInstance: {fileID: 0}
  m_PrefabAsset: {fileID: 0}
  m_GameObject: {fileID: 0}
  m_Enabled: 1
  m_EditorHideFlags: 0
  m_Script: {fileID: 11500000, guid: 4189e3028d1f4f648962fd11688eee3d, type: 3}
  m_Name: data
  m_EditorClassIdentifier: 
  questions:
  - quizType: 0
    title: Difundimos la importancia de pagar nuestras deudas
    text: "La mam\xE1 de Gina se ha dado cuenta de que, si usa adecuadamente la tarjeta
      de cr\xE9dito, esta es muy \xFAtil. \xBFPor qu\xE9 crees que piensa esto?"
    imageCode: 
    answers:
    - text: Puede darse sus gustos porque no es dinero.
      isCorrect: 0
    - text: Puede hacer diversas compras y usarla en diferentes empresas.
      isCorrect: 0
    - text: "Cuando hay una situaci\xF3n de emergencia, puede hacer pagos, aunque
        no tenga el dinero."
      isCorrect: 1
  - quizType: 0
    title: Difundimos la importancia de pagar nuestras deudas
    text: "Un primo de Gina se ha endeudado debido a la tarjeta de cr\xE9dito que
      ten\xEDa. \xBFCu\xE1l de estas opciones no es una raz\xF3n?"
    imageCode: 
    answers:
    - text: "Pagaba solo el monto m\xEDnimo cada mes, porque as\xED se ahorraba su
        dinero."
      isCorrect: 0
    - text: "Usaba el dinero de la tarjeta de cr\xE9dito como si fuera suyo en lugar
        de asumir que es un pr\xE9stamo."
      isCorrect: 0
    - text: "Toda tarjeta de cr\xE9dito te endeuda, por lo que nadie deber\xEDa usarla."
      isCorrect: 1
  - quizType: 0
    title: Difundimos la importancia de pagar nuestras deudas
    text: "\xBFCu\xE1l de estas afirmaciones sobre la tarjeta de cr\xE9dito es falsa?"
    imageCode: 
    answers:
    - text: Se deben consumir productos o servicios con cuota 0 o sin cuotas.
      isCorrect: 0
    - text: "Es recomendable tener solo una tarjeta de cr\xE9dito. "
      isCorrect: 0
    - text: "Se puede disponer, sin ning\xFAn problema, del efectivo que ofrece la
        tarjeta. "
      isCorrect: 1
  - quizType: 0
    title: Difundimos la importancia de pagar nuestras deudas
    text: "Un familiar de Gina \u201Crevent\xF3\u201D la tarjeta de cr\xE9dito y
      no puede pagar. A pesar de que el banco lo llama, no responde. \xBFQu\xE9 efecto
      no es posible?\r"
    imageCode: 
    answers:
    - text: "Puede ir a la c\xE1rcel por la deuda que tiene."
      isCorrect: 1
    - text: "Algunas empresas no querr\xE1n contratarlo porque est\xE1 en Infocorp."
      isCorrect: 0
    - text: "No puede solicitar un pr\xE9stamo al banco si surgiera alguna emergencia."
      isCorrect: 0
  - quizType: 0
    title: Difundimos la importancia de pagar nuestras deudas
    text: "Gina se pregunta por qu\xE9 algunas personas no tienen problemas con su
      tarjeta de cr\xE9dito y otras s\xED. \xBFCu\xE1l podr\xEDa ser la raz\xF3n
      m\xE1s probable?"
    imageCode: 
    answers:
    - text: Algunas personas quieren contraer deudas, ya que no les preocupa su historial
        financiero.
      isCorrect: 0
    - text: "Algunas personas se informan sobre c\xF3mo usar su tarjeta y siguen
        las recomendaciones."
      isCorrect: 1
    - text: "No hay acceso a entidades financieras legales, por lo que deciden usar
        la tarjeta de cr\xE9dito."
      isCorrect: 0
  - quizType: 0
    title: Difundimos la importancia de pagar nuestras deudas
    text: "La mam\xE1 de Gina le cont\xF3 que, cuando trabaje, debe pagar su jubilaci\xF3n,
      que es un tipo de tributo. \xBFA cu\xE1l se refiere? \r"
    imageCode: 
    answers:
    - text: Impuesto
      isCorrect: 0
    - text: "Contribuci\xF3n"
      isCorrect: 1
    - text: Tasa
      isCorrect: 0
  - quizType: 0
    title: Difundimos la importancia de pagar nuestras deudas
    text: "Gina y su mam\xE1 est\xE1n revisando los pagos que deben pasar. Entre
      estos, se encuentran los arbitrios. \xBFA qu\xE9 tipo de tributo se refiere?"
    imageCode: 
    answers:
    - text: Impuesto
      isCorrect: 0
    - text: "Contribuci\xF3n"
      isCorrect: 0
    - text: Tasa
      isCorrect: 1
  - quizType: 2
    title: Difundimos la importancia de pagar nuestras deudas
    text: "Lee estos enunciados sobre los tributos y, luego, escribe V o F seg\xFAn
      corresponda a cada caso."
    imageCode: 
    answers:
    - text: "No todas las personas est\xE1n obligadas a pagar tributos."
      isCorrect: 0
    - text: El impuesto es un tipo de tributo.
      isCorrect: 1
    - text: Existen tres tipos de tributos, pero solo debemos pagar dos.
      isCorrect: 0
  - quizType: 2
    title: Difundimos la importancia de pagar nuestras deudas
    text: "\xBFCu\xE1l de estas afirmaciones sobre la tasa es falsa?"
    imageCode: 
    answers:
    - text: 'Existen tres tipos de tasas: arbitrios, derechos y licencias.'
      isCorrect: 0
    - text: Los arbitrios es un pago que realizan todas las personas con alguna propiedad.
      isCorrect: 0
    - text: Las licencias es un pago que deben realizar todas las personas.
      isCorrect: 1
  - quizType: 2
    title: Difundimos la importancia de pagar nuestras deudas
    text: "\u201CEs fundamental que, como buenos ciudadanos, paguemos nuestros impuestos\u201D,
      dijo la mam\xE1 de Gina. \xBFEst\xE1s de acuerdo con ella?\r"
    imageCode: 
    answers:
    - text: "S\xED, porque estos aportes sirven para que el Estado invierta en la
        comunidad o directamente en los que los pagan."
      isCorrect: 1
    - text: "No, porque este dinero no beneficia de ninguna manera a la poblaci\xF3n."
      isCorrect: 0
