%YAML 1.1
%TAG !u! tag:unity3d.com,2011:
--- !u!114 &11400000
MonoBehaviour:
  m_ObjectHideFlags: 0
  m_CorrespondingSourceObject: {fileID: 0}
  m_PrefabInstance: {fileID: 0}
  m_PrefabAsset: {fileID: 0}
  m_GameObject: {fileID: 0}
  m_Enabled: 1
  m_EditorHideFlags: 0
  m_Script: {fileID: 11500000, guid: 4189e3028d1f4f648962fd11688eee3d, type: 3}
  m_Name: data
  m_EditorClassIdentifier: 
  questions:
  - quizType: 0
    title: Estrategias para trabajar en nuestro club de emprendedores
    text: 'Una estrategia que permite llevar a cabo el club de emprendedores es:'
    imageCode: 
    answers:
    - text: Trabajo cooperativo
      isCorrect: 1
    - text: Aprendizaje colaborativo
      isCorrect: 0
    - text: Trabajo colaborativo
      isCorrect: 0
  - quizType: 0
    title: Estrategias para trabajar en nuestro club de emprendedores
    text: "De acuerdo con el video, \u201CFormando Emprendedores del Ma\xF1ana: trabajo
      en equipo\u201D, La mam\xE1 de Jesica menciona, que para el trabajo en equipo
      funcione es clave:"
    imageCode: 
    answers:
    - text: "El asertividad, autonom\xEDa y la empat\xEDa."
      isCorrect: 1
    - text: "La conectividad, autoridad y la empat\xEDa."
      isCorrect: 0
    - text: "El asertividad, autonom\xEDa y la paz."
      isCorrect: 0
  - quizType: 0
    title: Estrategias para trabajar en nuestro club de emprendedores
    text: 'Un grupo de estudiantes desea realizar el Club de Emprendedores, para
      ello deben tener en cuenta:'
    imageCode: 
    answers:
    - text: Las debilidades de los estudiantes.
      isCorrect: 0
    - text: Los gustos y preferencias de cada estudiante.
      isCorrect: 0
    - text: "La conformaci\xF3n del grupo de clase."
      isCorrect: 1
  - quizType: 0
    title: Estrategias para trabajar en nuestro club de emprendedores
    text: Dentro del grupo de clase, es importante conocer las _______________ de
      los miembros que lo conforman.
    imageCode: 
    answers:
    - text: capacidades
      isCorrect: 0
    - text: habilidades
      isCorrect: 1
    - text: orientaciones
      isCorrect: 0
  - quizType: 0
    title: Estrategias para trabajar en nuestro club de emprendedores
    text: 'Para realizar el trabajo cooperativo es importante tener en cuenta:'
    imageCode: 
    answers:
    - text: Las diferencias que tiene cada integrante del grupo.
      isCorrect: 0
    - text: "Las responsabilidades que cada integrante asumir\xE1 dentro del grupo."
      isCorrect: 1
    - text: "Las habilidades, para saber qui\xE9nes son los que aportan m\xE1s ideas
        innovadoras."
      isCorrect: 0
  - quizType: 0
    title: Estrategias para trabajar en nuestro club de emprendedores
    text: "Para evaluar los logros y metas alcanzadas en cada sesi\xF3n, los estudiantes
      que pertenecen al   _________________ realizan un bolet\xEDn de autoevaluaci\xF3n.\r"
    imageCode: 
    answers:
    - text: Grupo de trabajo
      isCorrect: 0
    - text: Grupo clase
      isCorrect: 1
    - text: "Grupo de l\xEDderes"
      isCorrect: 0
  - quizType: 0
    title: Estrategias para trabajar en nuestro club de emprendedores
    text: "En el grupo de Thomas, luego de realizar la autoevaluaci\xF3n grupal,
      se dieron cuenta que era importante realizar un plan de mejora. \xBFQu\xE9
      afirmaci\xF3n sustenta la idea de Thomas?"
    imageCode: 
    answers:
    - text: Proponer un plan de mejora ayuda a evidenciar el trabajo realizado en
        el grupo.
      isCorrect: 0
    - text: Realizar un plan de mejora permite evidenciar solo las debilidades de
        cada integrante.
      isCorrect: 0
    - text: Brindar puntos de mejora permite afianzar habilidades cooperativas para
        futuros emprendimientos.
      isCorrect: 1
  - quizType: 0
    title: Estrategias para trabajar en nuestro club de emprendedores
    text: Las ___________ que se proponga el grupo de clase, deben ser alcanzadas
      en un periodo determinado.
    imageCode: 
    answers:
    - text: asignaciones
      isCorrect: 0
    - text: metas
      isCorrect: 1
    - text: indicaciones
      isCorrect: 0
  - quizType: 0
    title: Estrategias para trabajar en nuestro club de emprendedores
    text: 'Para corroborar los resultados obtenidos se debe realizar un:'
    imageCode: 
    answers:
    - text: "Bolet\xEDn de autoevaluaci\xF3n grupal "
      isCorrect: 1
    - text: "Instrumento de autoevaluaci\xF3n"
      isCorrect: 0
    - text: "Cuadro de coevaluaci\xF3n"
      isCorrect: 0
  - quizType: 2
    title: Estrategias para trabajar en nuestro club de emprendedores
    text: 
    imageCode: 
    answers:
    - text: "Para evaluar los resultados obtenidos por el grupo de clase, se utiliza
        el bolet\xEDn de autoevaluaci\xF3n grupal"
      isCorrect: 1
    - text: "Despu\xE9s de la evaluaci\xF3n, el grupo debe proponer puntos de mejora."
      isCorrect: 1
    - text: "Uno de los criterios del bolet\xEDn de autoevaluaci\xF3n es no tomar
        en cuenta los roles cooperativos de cada integrante."
      isCorrect: 0
