%YAML 1.1
%TAG !u! tag:unity3d.com,2011:
--- !u!114 &11400000
MonoBehaviour:
  m_ObjectHideFlags: 0
  m_CorrespondingSourceObject: {fileID: 0}
  m_PrefabInstance: {fileID: 0}
  m_PrefabAsset: {fileID: 0}
  m_GameObject: {fileID: 0}
  m_Enabled: 1
  m_EditorHideFlags: 0
  m_Script: {fileID: 11500000, guid: 4189e3028d1f4f648962fd11688eee3d, type: 3}
  m_Name: data
  m_EditorClassIdentifier: 
  questions:
  - quizType: 0
    title: Soy capaz de lograr metas
    text: "Tener confianza en uno mismo ayuda a alcanzar las metas que nos hemos
      trazado. \xBFEsto es verdadero o falso?"
    imageCode: 
    answers:
    - text: Verdadero
      isCorrect: 1
    - text: Falso
      isCorrect: 0
  - quizType: 1
    title: Soy capaz de lograr metas
    text: "Mariana estudia alem\xE1n y aunque se esfuerza no logra dominarlo. \xBFQu\xE9
      consejos le dar\xEDas a ella?"
    imageCode: 
    answers:
    - text: Que no se desamine por las dificultades.
      isCorrect: 1
    - text: Que tenga confianza en ella misma.
      isCorrect: 1
    - text: Que acepte las limitaciones que tiene.
      isCorrect: 0
  - quizType: 0
    title: Soy capaz de lograr metas
    text: "Elisa se ha propuesto consumir productos nutritivos y saludables. Cuando
      sus amigas le ofrecen golosinas, ellas las rechaza. \xBFQu\xE9 muestra esto?"
    imageCode: 
    answers:
    - text: "Elisa est\xE1 siendo muy descort\xE9s con sus amigas."
      isCorrect: 0
    - text: Elisa es perseverante con la meta que se ha trazado.
      isCorrect: 1
    - text: Elisa tiene habilidades por mejorar.
      isCorrect: 0
  - quizType: 0
    title: Soy capaz de lograr metas
    text: "Para alcanzar nuestras metas debemos poner en pr\xE1ctica nuestras habilidades.
      \xBFEste enunciado es verdadero o falso?"
    imageCode: 
    answers:
    - text: Verdadero
      isCorrect: 1
    - text: Falso
      isCorrect: 0
  - quizType: 1
    title: Soy capaz de lograr metas
    text: "Si se nos presentan dificultades para alcanzar la meta que nos hemos propuesto,
      \xBFqu\xE9 debemos hacer?"
    imageCode: 
    answers:
    - text: "Decirles a nuestros padres para que nos digan qu\xE9 debemos hacer."
      isCorrect: 0
    - text: Tratar de resolverlas utilizando algunas estrategias.
      isCorrect: 1
    - text: "Pedir ayuda a otras personas para luego decidir qu\xE9 hacer."
      isCorrect: 1
  - quizType: 1
    title: Soy capaz de lograr metas
    text: "Luc\xEDa se ha propuesto mejorar sus calificaciones; sin embargo, en vez
      de estudiar prefiere chatear con sus amigas. \xBFQu\xE9 demuestra esto?"
    imageCode: 
    answers:
    - text: "Luc\xEDa no prioriza las cosas importantes que debe hacer. "
      isCorrect: 1
    - text: "Luc\xEDa tiene una meta, pero no hace nada para alcanzarla."
      isCorrect: 1
    - text: "Luc\xEDa est\xE1 desarrollando la paciencia para alcanzar su meta."
      isCorrect: 0
  - quizType: 0
    title: Soy capaz de lograr metas
    text: "Como a Elisa es buena dibujando con l\xE1piz, tambi\xE9n quiere hacerlo
      digitalmente. \xBFQu\xE9 demuestra esto?"
    imageCode: 
    answers:
    - text: "Ella est\xE1 aprovechando sus habilidades para lograr una meta."
      isCorrect: 1
    - text: "Ella est\xE1 identificando sus limitaciones para alcanzar una meta."
      isCorrect: 0
    - text: Ella no tiene habilidades por eso las quiere desarrollar.
      isCorrect: 0
  - quizType: 1
    title: Soy capaz de lograr metas
    text: "\xBFCu\xE1l o cu\xE1les de las siguientes afirmaciones se refieren a la
      ser perseverantes cuando nos proponemos una meta?"
    imageCode: 
    answers:
    - text: Buscamos en la internet la forma de hacer el menor esfuerzo posible.
      isCorrect: 0
    - text: Cuando surgen dificultades buscamos la forma de superarlas.
      isCorrect: 1
    - text: De ser necesario, modificamos las acciones para alcanzar nuestra meta.
      isCorrect: 1
  - quizType: 0
    title: Soy capaz de lograr metas
    text: "Mariana ensaya todas las tardes para el concurso de talento, incluso hay
      d\xEDas en los que deja de jugar con sus amigas. \xBFQu\xE9 demuestra esta
      situaci\xF3n?"
    imageCode: 
    answers:
    - text: Perseverancia y disciplina.
      isCorrect: 1
    - text: Flexibilidad y constancia.
      isCorrect: 0
    - text: Terquedad y paciencia.
      isCorrect: 0
  - quizType: 0
    title: Soy capaz de lograr metas
    text: "Elisa quiere aprender franc\xE9s, pero ella no llega a tiempo o no asiste
      a sus clases. \xBFQu\xE9 demuestra esto?"
    imageCode: 
    answers:
    - text: Ella no es perseverante con la meta que se ha propuesto.
      isCorrect: 1
    - text: Ella no considera que el tiempo es importante.
      isCorrect: 0
    - text: Ella no considera que pueda alcanzar esta meta.
      isCorrect: 0
