%YAML 1.1
%TAG !u! tag:unity3d.com,2011:
--- !u!114 &11400000
MonoBehaviour:
  m_ObjectHideFlags: 0
  m_CorrespondingSourceObject: {fileID: 0}
  m_PrefabInstance: {fileID: 0}
  m_PrefabAsset: {fileID: 0}
  m_GameObject: {fileID: 0}
  m_Enabled: 1
  m_EditorHideFlags: 0
  m_Script: {fileID: 11500000, guid: 4189e3028d1f4f648962fd11688eee3d, type: 3}
  m_Name: data
  m_EditorClassIdentifier: 
  questions:
  - quizType: 1
    title: Nos protegemos de las estafas
    text: "Tarcila ha visto por internet que una empresa le ofrece pasajes a\xE9reos
      muy por debajo del precio del mercado. \xBFQu\xE9 deber\xEDa hacer?"
    imageCode: 
    answers:
    - text: "Verificar si la empresa que encontr\xF3 en internet es formal."
      isCorrect: 1
    - text: "Preguntarse por qu\xE9 esta empresa le ofrece los pasajes tan baratos."
      isCorrect: 1
    - text: Aprovechar y comprar los pasajes inmediatamente.
      isCorrect: 0
  - quizType: 0
    title: Nos protegemos de las estafas
    text: "Las estafas son delitos que solo realizan las empresas con la intenci\xF3n
      de apropiarse del dinero de sus clientes. \xBFEsto es verdadero o falso? "
    imageCode: 
    answers:
    - text: Verdadero
      isCorrect: 0
    - text: Falso
      isCorrect: 1
  - quizType: 1
    title: Nos protegemos de las estafas
    text: "Para atenderse en la cl\xEDnica, Gerardo se hace pasar por su hermano
      para aprovechar el seguro m\xE9dico que tiene. \xBFQu\xE9 est\xE1 haciendo
      Gerardo?"
    imageCode: 
    answers:
    - text: "Est\xE1 cometiendo un delito porque est\xE1 obteniendo un servicio sin
        realmente pagarlo."
      isCorrect: 1
    - text: "Est\xE1 aprovechando el seguro m\xE9dico de su hermano porque \xE9l
        nunca lo utiliza."
      isCorrect: 0
    - text: "Est\xE1 actuando de manera deshonesta porque \xE9l no tiene seguro m\xE9dico."
      isCorrect: 1
  - quizType: 0
    title: Nos protegemos de las estafas
    text: "Los vecinos de Miguel han adulterado su medidor de luz con la finalidad
      de pagar menos. \xBFQu\xE9 est\xE1n haciendo?"
    imageCode: 
    answers:
    - text: "Est\xE1n tratando de pagar lo que ellos consideran justo por un servicio
        p\xFAblico."
      isCorrect: 0
    - text: "Est\xE1n cometiendo una estafa a la compa\xF1\xEDa que les brinda un
        servicio p\xFAblico."
      isCorrect: 1
    - text: "Est\xE1n priorizando otras necesidades m\xE1s inmediatas que el pagar
        por el servicio p\xFAblico."
      isCorrect: 0
  - quizType: 1
    title: Nos protegemos de las estafas
    text: "Tarcila va a comprar una refrigeradora. \xBFQu\xE9 acciones debe considerar
      para no ser v\xEDctima de una estafa?"
    imageCode: 
    answers:
    - text: "No dejarse sorprender por las empresas que le dicen que le cobraran
        m\xE1s barato."
      isCorrect: 1
    - text: "Verificar que la tienda donde va a comprar es confiable y que le garantizar\xE1
        un buen producto."
      isCorrect: 1
    - text: "Buscar las empresas que le dar\xE1n un s\xFAper descuento y regalos
        por su compra."
      isCorrect: 0
  - quizType: 0
    title: Nos protegemos de las estafas
    text: "Las estafas solo se producen cuando las personas adquieren un servicio
      o producto de forma presencial. \xBFEsto es verdadero o falso?"
    imageCode: 
    answers:
    - text: Verdadero
      isCorrect: 0
    - text: Falso
      isCorrect: 1
  - quizType: 1
    title: Nos protegemos de las estafas
    text: "El padre de Miguel est\xE1 muy contento porque lo llamaron de Canal 3
      para decirle que gan\xF3 un carro. \xBFQu\xE9 deber\xEDa decirle Miguel?"
    imageCode: 
    answers:
    - text: "Que averig\xFCe a qui\xE9n pertenece el n\xFAmero de donde lo llamaron."
      isCorrect: 1
    - text: "Que averig\xFCe directamente en el canal 3 si est\xE1n regalando el
        carro."
      isCorrect: 1
    - text: "Que averig\xFCe donde pueden ir a recoger su premio para acompa\xF1arlo."
      isCorrect: 0
  - quizType: 1
    title: Nos protegemos de las estafas
    text: "A la mam\xE1 de Miguel la llamaron para pedirle sus datos personales de
      su tarjeta de cr\xE9dito. \xBFQu\xE9 deber\xEDa hacer ella?"
    imageCode: 
    answers:
    - text: Brindar los datos que le solicitan.
      isCorrect: 0
    - text: Desconfiar y colgar la llamada.
      isCorrect: 1
    - text: "Llamar al banco para solicitar informaci\xF3n."
      isCorrect: 1
  - quizType: 0
    title: Nos protegemos de las estafas
    text: "Las estafas m\xE1s comunes en la actualidad se realizan v\xEDa telef\xF3nica
      y por internet. \xBFEsto es verdadero o falso?"
    imageCode: 
    answers:
    - text: Verdadero
      isCorrect: 1
    - text: Falso
      isCorrect: 0
  - quizType: 1
    title: Nos protegemos de las estafas
    text: "El pap\xE1 de Miguel recibe mensajes en su celular sobre compras que no
      est\xE1 realizando con su tarjeta de cr\xE9dito. \xBFQu\xE9 deber\xEDa hacer
      en ese momento?"
    imageCode: 
    answers:
    - text: "Llamar al banco y bloquear inmediatamente su tarjeta de cr\xE9dito."
      isCorrect: 1
    - text: "Acercarse a la polic\xEDa a realizar la denuncia respectiva."
      isCorrect: 1
    - text: "Solicitar al banco en ese momento que le venda alg\xFAn seguro contra
        robos."
      isCorrect: 0
