%YAML 1.1
%TAG !u! tag:unity3d.com,2011:
--- !u!114 &11400000
MonoBehaviour:
  m_ObjectHideFlags: 0
  m_CorrespondingSourceObject: {fileID: 0}
  m_PrefabInstance: {fileID: 0}
  m_PrefabAsset: {fileID: 0}
  m_GameObject: {fileID: 0}
  m_Enabled: 1
  m_EditorHideFlags: 0
  m_Script: {fileID: 11500000, guid: 4189e3028d1f4f648962fd11688eee3d, type: 3}
  m_Name: data
  m_EditorClassIdentifier: 
  questions:
  - quizType: 0
    title: "Reconocer la publicidad enga\xF1osa"
    text: "La publicidad difunde informaci\xF3n de un producto o servicio con la
      finalidad de que las personas lo adquieran. \xBFEs verdadero o falso?"
    imageCode: 
    answers:
    - text: Verdadero
      isCorrect: 1
    - text: Falso
      isCorrect: 0
  - quizType: 1
    title: "Reconocer la publicidad enga\xF1osa"
    text: "Blanca va a la bodega a comprar arroz para el almuerzo, pero al llegar
      y ver la publicidad de otro producto tambi\xE9n lo compra. \xBFQu\xE9 ha sucedido?"
    imageCode: 
    answers:
    - text: "Blanca se est\xE1 dejando influenciar por la publicidad "
      isCorrect: 1
    - text: "Blanca est\xE1 comprando un producto que no necesita."
      isCorrect: 1
    - text: "Blanca est\xE1 siendo una consumidora responsable."
      isCorrect: 0
  - quizType: 0
    title: "Reconocer la publicidad enga\xF1osa"
    text: "Aunque tiene muchos lapiceros, Joaqu\xEDn le pide a su padre le compr\xE9
      aquellos que vio publicidad en la televisi\xF3n. \xBFQu\xE9 ha generado la
      publicidad?"
    imageCode: 
    answers:
    - text: "Que Joaqu\xEDn tenga el deseo de tener m\xE1s lapiceros que no necesita."
      isCorrect: 1
    - text: "Que Joaqu\xEDn tenga la necesidad de contar con nuevos lapiceros."
      isCorrect: 0
    - text: "Que Joaqu\xEDn tenga la seguridad de expresar sus emociones a sus padres."
      isCorrect: 0
  - quizType: 0
    title: "Reconocer la publicidad enga\xF1osa"
    text: "Una publicidad enga\xF1osa suele ofrecer un producto o servicio que no
      coinciden con lo que en realidad brinda. \xBFEsto es verdadero o falso? "
    imageCode: 
    answers:
    - text: Verdadero
      isCorrect: 1
    - text: Falso
      isCorrect: 0
  - quizType: 0
    title: "Reconocer la publicidad enga\xF1osa"
    text: "Blanca vio en un afiche por internet que dec\xEDa \u201Czapatilla 100
      % de cuero\u201D, pero al comprarla y recibirla no lo era. \xBFQu\xE9 ha ocurrido?"
    imageCode: 
    answers:
    - text: "Blanca fue v\xEDctima de una publicidad enga\xF1osa."
      isCorrect: 1
    - text: Blanca fue una consumidora que no sabe sus responsabilidades.
      isCorrect: 0
    - text: "Blanca fue una proveedora estafada por una publicidad enga\xF1osa."
      isCorrect: 0
  - quizType: 1
    title: "Reconocer la publicidad enga\xF1osa"
    text: "Al pap\xE1 de Joaqu\xEDn le ofrecieron una tarjeta de cr\xE9dito, pero
      no le dijeron que deb\xEDa pagar una membres\xEDa anual. \xBFQu\xE9 pas\xF3?"
    imageCode: 
    answers:
    - text: "El proveedor no brind\xF3 informaci\xF3n precisa sobre el producto que
        ofreci\xF3."
      isCorrect: 1
    - text: "El proveedor cumpli\xF3 con brinda la informaci\xF3n necesaria sobre
        el servicio."
      isCorrect: 1
    - text: "El consumidor no prest\xF3 atenci\xF3n a las caracter\xEDsticas del
        servicio que le ofrecieron."
      isCorrect: 0
  - quizType: 0
    title: "Reconocer la publicidad enga\xF1osa"
    text: "La publicidad enga\xF1osa solo utiliza el internet para captar o potenciales
      v\xEDctimas. \xBFEsto es verdadero o falso?"
    imageCode: 
    answers:
    - text: Verdadero
      isCorrect: 0
    - text: Falso
      isCorrect: 1
  - quizType: 0
    title: "Reconocer la publicidad enga\xF1osa"
    text: "Si vas por la calle y miras un afiche publicitario que dice \u201CZapatilla
      Pita, te har\xE1 correr m\xE1s r\xE1pido\u201D. \xBFQu\xE9 deber\xEDa hacer?"
    imageCode: 
    answers:
    - text: "Analizar si es verdadera la informaci\xF3n que ofrece."
      isCorrect: 1
    - text: "Investigar que tan cierto es que te hace correr m\xE1s r\xE1pido."
      isCorrect: 0
    - text: Dejar de ver publicidad cuando vas por la calle.
      isCorrect: 0
  - quizType: 0
    title: "Reconocer la publicidad enga\xF1osa"
    text: "Joaqu\xEDn ve un letrero \u201Coferta: 2 x 1\u201D, pero cuando va a pagar
      a caja le cobran el precio por cada producto. \xBFEsta es una publicidad enga\xF1osa? "
    imageCode: 
    answers:
    - text: "S\xED, porque la publicidad no mostraba el precio real del producto."
      isCorrect: 1
    - text: "No, porque la publicidad enga\xF1osa solo se presenta a trav\xE9s de
        afiches televisivos."
      isCorrect: 0
    - text: "S\xED, porque toda publicidad que vemos en las tiendas es enga\xF1osa.  "
      isCorrect: 0
  - quizType: 0
    title: "Reconocer la publicidad enga\xF1osa"
    text: "Las consumidoras y las consumidoras est\xE1n obligados a saber reconocer
      la publicidad enga\xF1osa y no dejarse sorprender. \xBFEsto es verdadero o
      falso?"
    imageCode: 
    answers:
    - text: Verdadero
      isCorrect: 1
    - text: Falso
      isCorrect: 0
