%YAML 1.1
%TAG !u! tag:unity3d.com,2011:
--- !u!114 &11400000
MonoBehaviour:
  m_ObjectHideFlags: 0
  m_CorrespondingSourceObject: {fileID: 0}
  m_PrefabInstance: {fileID: 0}
  m_PrefabAsset: {fileID: 0}
  m_GameObject: {fileID: 0}
  m_Enabled: 1
  m_EditorHideFlags: 0
  m_Script: {fileID: 11500000, guid: 4189e3028d1f4f648962fd11688eee3d, type: 3}
  m_Name: data
  m_EditorClassIdentifier: 
  questions:
  - quizType: 2
    title: Evaluamos nuestro proyecto y su impacto
    text: "En la etapa de evaluaci\xF3n de un emprendimiento:"
    imageCode: 
    answers:
    - text: Se valora su impacto en la comunidad, grupo o mercado objetivo.
      isCorrect: 1
    - text: "Se omite la evaluaci\xF3n de la eficacia del producto en los consumidores."
      isCorrect: 0
    - text: "Se mide el grado de satisfacci\xF3n de los clientes."
      isCorrect: 1
  - quizType: 0
    title: Evaluamos nuestro proyecto y su impacto
    text: "La evaluaci\xF3n de logros de los objetivos y metas planteadas se hace:"
    imageCode: 
    answers:
    - text: "Mediante la medici\xF3n de indicadores."
      isCorrect: 1
    - text: "Con una encuesta entre los miembros del equipo.\t"
      isCorrect: 0
    - text: "Pidi\xE9ndole opini\xF3n a los consumidores."
      isCorrect: 0
  - quizType: 0
    title: Evaluamos nuestro proyecto y su impacto
    text: 'Un indicador es:'
    imageCode: 
    answers:
    - text: "Una persona que se\xF1ala los aciertos y errores."
      isCorrect: 0
    - text: "Un conjunto de criterios para valorar ciertas caracter\xEDsticas."
      isCorrect: 1
    - text: "Una se\xF1al de alerta cuando la evaluaci\xF3n no es positiva."
      isCorrect: 0
  - quizType: 0
    title: Evaluamos nuestro proyecto y su impacto
    text: "\xBFQu\xE9 pueden medir los indicadores de un emprendimiento?"
    imageCode: 
    answers:
    - text: Idea, propuesta de valor y prototipo.
      isCorrect: 0
    - text: "La planificaci\xF3n y los beneficios que genera."
      isCorrect: 0
    - text: Las otras dos opciones son correctas.
      isCorrect: 1
  - quizType: 0
    title: Evaluamos nuestro proyecto y su impacto
    text: "\xBFCu\xE1ntos indicadores se recomienda utilizar?\r"
    imageCode: 
    answers:
    - text: "Depender\xE1 de lo que queramos medir."
      isCorrect: 0
    - text: Por lo menos dos de cada aspecto a evaluar.
      isCorrect: 1
    - text: Tantos como aspectos positivos tengamos.
      isCorrect: 0
  - quizType: 0
    title: Evaluamos nuestro proyecto y su impacto
    text: "De la siguiente lista de indicadores, se\xF1ala el que NO sirve para medir
      el impacto de nuestro producto en el medio ambiente:"
    imageCode: 
    answers:
    - text: El emprendimiento utiliza recursos naturales renovables.
      isCorrect: 0
    - text: El emprendimiento genera desperdicios que contaminan el medio ambiente.
      isCorrect: 0
    - text: El emprendimiento se ofrece en empaques modernos y llamativos.
      isCorrect: 1
  - quizType: 0
    title: Evaluamos nuestro proyecto y su impacto
    text: "Para evaluar el impacto de nuestro prototipo, \xBFqu\xE9 indicador podemos
      usar?"
    imageCode: 
    answers:
    - text: "El prototipo f\xEDsico cumple con las expectativas de los consumidores."
      isCorrect: 1
    - text: "El prototipo f\xEDsico es muy parecido al producto que queremos ofrecer."
      isCorrect: 0
    - text: "El prototipo f\xEDsico tiene un costo de elaboraci\xF3n apropiado."
      isCorrect: 0
  - quizType: 0
    title: Evaluamos nuestro proyecto y su impacto
    text: "Si queremos determinar el beneficio que nuestro producto/servicio genera
      en la comunidad, \xBFqu\xE9 indicador propondremos?"
    imageCode: 
    answers:
    - text: "El emprendimiento genera ganancias respecto a la inversi\xF3n."
      isCorrect: 0
    - text: El emprendimiento requiere emplear a personas de la tercera edad.
      isCorrect: 1
    - text: "El equipo del emprendimiento est\xE1 conformado por personas capacitadas."
      isCorrect: 0
  - quizType: 0
    title: Evaluamos nuestro proyecto y su impacto
    text: "\xBFQu\xE9 es una acci\xF3n correctiva?"
    imageCode: 
    answers:
    - text: "Es una llamada de atenci\xF3n por no haber logrado los objetivos."
      isCorrect: 0
    - text: "Es un proceso de mejora que se implementa ante una evaluaci\xF3n negativa."
      isCorrect: 1
    - text: Es una oportunidad para hacer cambios en el equipo.
      isCorrect: 0
  - quizType: 0
    title: Evaluamos nuestro proyecto y su impacto
    text: "Para compartir el resultado final de la evaluaci\xF3n del emprendimiento:"
    imageCode: 
    answers:
    - text: El equipo se debe reunir para intercambiar comentarios y conclusiones.
      isCorrect: 1
    - text: El equipo debe celebrar por los buenos resultados obtenidos.
      isCorrect: 0
    - text: El equipo debe oculta los resultados que sugieran mejoras.
      isCorrect: 0
