%YAML 1.1
%TAG !u! tag:unity3d.com,2011:
--- !u!114 &11400000
MonoBehaviour:
  m_ObjectHideFlags: 0
  m_CorrespondingSourceObject: {fileID: 0}
  m_PrefabInstance: {fileID: 0}
  m_PrefabAsset: {fileID: 0}
  m_GameObject: {fileID: 0}
  m_Enabled: 1
  m_EditorHideFlags: 0
  m_Script: {fileID: 11500000, guid: 4189e3028d1f4f648962fd11688eee3d, type: 3}
  m_Name: data
  m_EditorClassIdentifier: 
  questions:
  - quizType: 1
    title: Nos conocemos y respetamos
    text: 'El autoconocimiento es conocer nuestras:'
    imageCode: 
    answers:
    - text: "Caracter\xEDsticas f\xEDsicas para as\xED lograr nuestras metas"
      isCorrect: 1
    - text: "Caracter\xEDsticas emocionales con el fin de lograr nuestros objetivos"
      isCorrect: 0
    - text: "Fortalezas y debilidades para as\xED lograr nuestras metas"
      isCorrect: 1
  - quizType: 0
    title: Nos conocemos y respetamos
    text: "La _____________ es la valoraci\xF3n positiva o negativa de nosotros mismos,
      a partir de nuestros rasgos f\xEDsicos, de nuestra forma de ser y de nuestras
      capacidades."
    imageCode: 
    answers:
    - text: "Autoevaluaci\xF3n"
      isCorrect: 0
    - text: "Autoaceptaci\xF3n"
      isCorrect: 0
    - text: Autoestima
      isCorrect: 1
  - quizType: 0
    title: Nos conocemos y respetamos
    text: 'Para poder mejorar nuestra autoestima necesitamos desarrollar las siguientes
      habilidades:'
    imageCode: 
    answers:
    - text: "Autoconocimiento, autoconcepto, autoevaluaci\xF3n, autoaceptaci\xF3n
        y autorrespeto."
      isCorrect: 1
    - text: "Autoconocimiento, autoconcepto, autoaceptaci\xF3n y autorrespeto."
      isCorrect: 0
    - text: Autoestima y autoconcepto.
      isCorrect: 0
  - quizType: 0
    title: Nos conocemos y respetamos
    text: "Jos\xE9 le muestra a su padre un objeto que elabor\xF3 y su padre le menciona
      que ha heredado el arte de su madre. \xBFPor qu\xE9 crees que su pap\xE1 le
      menciona esto?"
    imageCode: 
    answers:
    - text: "Porque ha utilizado los mismos dise\xF1os para elaborar el objeto."
      isCorrect: 0
    - text: "Porque tiene la habilidad para elaborar el objeto como su mam\xE1."
      isCorrect: 1
    - text: Porque ha empleado los mismos materiales para elaborar el objeto.
      isCorrect: 0
  - quizType: 0
    title: Nos conocemos y respetamos
    text: "A Mariano le gusta jugar f\xFAtbol y cumple con todas sus actividades
      del colegio. Sin embargo, siempre llega tarde. \xBFCu\xE1les crees que son
      sus fortalezas y debilidades?"
    imageCode: 
    answers:
    - text: Su fortaleza es ser responsable con sus tareas y su debilidad es ser
        impuntual
      isCorrect: 1
    - text: "Su fortaleza es jugar al f\xFAtbol y su debilidad es ser impuntual"
      isCorrect: 0
    - text: Su fortaleza es ser sociable y su debilidad es llegar tarde a donde lo
        invitan.
      isCorrect: 0
  - quizType: 0
    title: Nos conocemos y respetamos
    text: 'Cuando hablamos de fortalezas nos referimos a:'
    imageCode: 
    answers:
    - text: Defectos que podemos mejorar
      isCorrect: 0
    - text: Cualidades
      isCorrect: 1
    - text: Emociones
      isCorrect: 0
  - quizType: 0
    title: Nos conocemos y respetamos
    text: "Cuando hablamos de debilidades nos referimos a:\r"
    imageCode: 
    answers:
    - text: Defectos que podemos mejorar
      isCorrect: 1
    - text: Cualidades
      isCorrect: 0
    - text: Objetivos
      isCorrect: 0
  - quizType: 0
    title: Nos conocemos y respetamos
    text: La ___________  permite aceptarme tal y como soy.
    imageCode: 
    answers:
    - text: "Autovaloraci\xF3n"
      isCorrect: 0
    - text: "Autoaceptaci\xF3n"
      isCorrect: 1
    - text: "Autoevaluaci\xF3n"
      isCorrect: 0
  - quizType: 0
    title: Nos conocemos y respetamos
    text: "Mar\xEDa le muestra a su madre un peque\xF1o tejido que elabor\xF3. Su
      madre le menciona que su abuela ten\xEDa esa habilidad. \xBFPor qu\xE9 crees
      que su mam\xE1 mencion\xF3 ello?"
    imageCode: 
    answers:
    - text: "Porque quer\xEDa recalcar que ha heredado esa habilidad de su abuela."
      isCorrect: 1
    - text: "Porque ha utilizado los mismos dise\xF1os que su abuela."
      isCorrect: 0
    - text: Porque desea que siga realizando esos tejidos.
      isCorrect: 0
  - quizType: 0
    title: Nos conocemos y respetamos
    text: "A Jhericko le gusta jugar b\xE1squet y ayudar con la limpieza de la casa.
      Sin embargo, se le hace dif\xEDcil regular sus emociones. De acuerdo con este
      caso, es necesario trabajar su:"
    imageCode: 
    answers:
    - text: Autoconocimiento
      isCorrect: 1
    - text: Autorespeto
      isCorrect: 0
    - text: "Autoevaluaci\xF3n"
      isCorrect: 0
