%YAML 1.1
%TAG !u! tag:unity3d.com,2011:
--- !u!114 &11400000
MonoBehaviour:
  m_ObjectHideFlags: 0
  m_CorrespondingSourceObject: {fileID: 0}
  m_PrefabInstance: {fileID: 0}
  m_PrefabAsset: {fileID: 0}
  m_GameObject: {fileID: 0}
  m_Enabled: 1
  m_EditorHideFlags: 0
  m_Script: {fileID: 11500000, guid: 4189e3028d1f4f648962fd11688eee3d, type: 3}
  m_Name: data
  m_EditorClassIdentifier: 
  questions:
  - quizType: 1
    title: La defensa del consumidor
    text: "Marco ha comprado una calculadora por internet, al llegar el producto
      observa que no funciona bien. \xBFQu\xE9 podr\xEDa hacer \xE9l?"
    imageCode: 
    answers:
    - text: Puede hacer un reclamo directo al proveedor.
      isCorrect: 1
    - text: Puede registrar su reclamo en el Libro de Reclamaciones.
      isCorrect: 1
    - text: 'Puede interponer su reclamo ante Sunat. '
      isCorrect: 0
  - quizType: 0
    title: La defensa del consumidor
    text: "El Libro de Reclamaciones es una herramienta \xFAtil para la protecci\xF3n
      de los derechos de las consumidoras y los consumidores. \xBFEsto es verdadero
      o falso?"
    imageCode: 
    answers:
    - text: 'Verdadero '
      isCorrect: 1
    - text: 'Falso '
      isCorrect: 0
  - quizType: 0
    title: La defensa del consumidor
    text: "Luzmila observa en uno de los productos que va a comprar que se ha alterado
      la fecha de vencimiento. \xBFQu\xE9 deber\xEDa hacer inmediatamente ella?\r"
    imageCode: 
    answers:
    - text: Solicitar el Libro de Reclamaciones e interponer una queja.
      isCorrect: 0
    - text: Solicitar el Libro de Reclamaciones e interponer un reclamo.
      isCorrect: 1
    - text: Solicitar ante Indecopi su reclamo.
      isCorrect: 0
  - quizType: 0
    title: La defensa del consumidor
    text: "La mam\xE1 de Luzmila fue al banco, pero el vigilante no la dej\xF3 entrar
      porque era su hora de almuerzo. \xBFQu\xE9 sucedi\xF3?"
    imageCode: 
    answers:
    - text: "Le est\xE1n ofreciendo un mal servicio de atenci\xF3n."
      isCorrect: 1
    - text: "Le est\xE1n ofreciendo un mal producto."
      isCorrect: 0
    - text: No hay problema alguno.
      isCorrect: 0
  - quizType: 0
    title: La defensa del consumidor
    text: "El pap\xE1 de Luzmila compr\xF3 una batidora para su emprendimiento, pero
      al llegar a casa no funcion\xF3. \xBFQu\xE9 tipo de problema se presenta?"
    imageCode: 
    answers:
    - text: Hay un problema con el producto que le vendieron.
      isCorrect: 1
    - text: Hay un problema con el servicio que le ofrecen.
      isCorrect: 0
    - text: "Hay un problema con el servicio p\xFAblico que le vendieron."
      isCorrect: 0
  - quizType: 0
    title: La defensa del consumidor
    text: "Solo las instituciones privadas deben contar con un Libro de Reclamaciones.
      \xBFEsto es verdadero o falso?"
    imageCode: 
    answers:
    - text: Verdadero
      isCorrect: 0
    - text: Falso
      isCorrect: 1
  - quizType: 0
    title: La defensa del consumidor
    text: "Marco est\xE1 esperando su pedido por m\xE1s de media hora. Al preguntar
      al mozo, este le dice que puede retirarse si desea. \xBFQu\xE9 deber\xEDa hacer
      Marco?"
    imageCode: 
    answers:
    - text: Pedir el Libro de Reclamaciones e interponer un reclamo.
      isCorrect: 0
    - text: Pedir el Libro de Reclamaciones e interponer una queja.
      isCorrect: 1
    - text: "Pedir al gerente informaci\xF3n del producto o servicio que brindan."
      isCorrect: 0
  - quizType: 0
    title: La defensa del consumidor
    text: "Luzmila no est\xE1 satisfecha con la respuesta que le dio la tienda donde
      compr\xF3 su computadora ante su reclamo. \xBFQu\xE9 deber\xEDan hacer?"
    imageCode: 
    answers:
    - text: Interponer un nuevo reclamo ante Indecopi.
      isCorrect: 1
    - text: Realizar un reclamo directo al proveedor.
      isCorrect: 0
    - text: Volver a registrar su reclamo en el Libro de Reclamaciones.
      isCorrect: 0
  - quizType: 0
    title: La defensa del consumidor
    text: "Un reclamo se presenta cuando el problema se relaciona con el producto
      que adquirimos o el servicio que brinda el proveedor. \xBFEsto es verdadero
      o falso?"
    imageCode: 
    answers:
    - text: Verdadero
      isCorrect: 1
    - text: Falso
      isCorrect: 0
  - quizType: 0
    title: La defensa del consumidor
    text: "\xBFC\xF3mo se denomina la m\xE1xima autoridad que vela por los derechos
      que tienen las consumidoras y consumidores?"
    imageCode: 
    answers:
    - text: Indecopi
      isCorrect: 1
    - text: Sunat
      isCorrect: 0
    - text: Poder Judicial
      isCorrect: 0
