%YAML 1.1
%TAG !u! tag:unity3d.com,2011:
--- !u!114 &11400000
MonoBehaviour:
  m_ObjectHideFlags: 0
  m_CorrespondingSourceObject: {fileID: 0}
  m_PrefabInstance: {fileID: 0}
  m_PrefabAsset: {fileID: 0}
  m_GameObject: {fileID: 0}
  m_Enabled: 1
  m_EditorHideFlags: 0
  m_Script: {fileID: 11500000, guid: 4189e3028d1f4f648962fd11688eee3d, type: 3}
  m_Name: data
  m_EditorClassIdentifier: 
  questions:
  - quizType: 0
    title: Reconocemos nuestras necesidades
    text: "Marca la alternativa correcta. \xBFQu\xE9 producto es necesario?\r\n"
    imageCode: 
    answers:
    - text: Una bolsa de chifles para comer.
      isCorrect: 0
    - text: Un uniforme para ir al colegio.
      isCorrect: 1
    - text: Un robot a control remoto para jugar.
      isCorrect: 0
  - quizType: 0
    title: Reconocemos nuestras necesidades
    text: "La hermana de Arturo ha perdido la vincha que usa para ir al colegio.
      Como la necesita para tener un peinado ordenado, ella\u2026"
    imageCode: 
    answers:
    - text: ha comprado otra con su propina.
      isCorrect: 1
    - text: se ha puesto una cinta en el cabello.
      isCorrect: 0
    - text: ha decidido no usar otra vincha.
      isCorrect: 0
  - quizType: 1
    title: Reconocemos nuestras necesidades
    text: "Marca una o m\xE1s alternativas. \xBFQu\xE9 producto es un gusto?\r"
    imageCode: 
    answers:
    - text: Un helado de fresa
      isCorrect: 1
    - text: Una casaca para abrigarse en invierno
      isCorrect: 0
    - text: "Un videojuego en l\xEDnea"
      isCorrect: 1
  - quizType: 0
    title: Reconocemos nuestras necesidades
    text: "Arturo y su hermana le han pedido a su mam\xE1 que compre pizza en lugar
      de cenar las lentejitas con huevo del almuerzo. \xC9l y ella no est\xE1n diferenciando\u2026
      \r"
    imageCode: 
    answers:
    - text: lo que les gusta y lo que no les gusta.
      isCorrect: 0
    - text: un gusto de una necesidad.
      isCorrect: 1
    - text: "que a\xFAn queda comida del almuerzo."
      isCorrect: 0
  - quizType: 1
    title: Reconocemos nuestras necesidades
    text: "Marca una o m\xE1s alternativas. Tener un buen h\xE1bito del ahorro significa\u2026"
    imageCode: 
    answers:
    - text: "gastar dinero solo cuando encuentres qu\xE9 te gustar\xEDa comprar."
      isCorrect: 0
    - text: "juntar dinero para gastarlo seg\xFAn una meta trazada."
      isCorrect: 1
    - text: "cuidar lo que tenemos para no gastarlo r\xE1pido o volver a comprarlo."
      isCorrect: 1
  - quizType: 0
    title: Reconocemos nuestras necesidades
    text: "La mam\xE1 de Arturo quiere ahorrar para un viaje familiar. Por eso les
      ha dicho a sus hijos que, para usar con responsabilidad el agua y la luz, pueden\u2026"
    imageCode: 
    answers:
    - text: "apagar la televisi\xF3n si no est\xE1n viendo."
      isCorrect: 0
    - text: "no jugar con el agua mientras riegan el jard\xEDn."
      isCorrect: 0
    - text: Todas las anteriores
      isCorrect: 1
  - quizType: 0
    title: Reconocemos nuestras necesidades
    text: 'Marca la alternativa incorrecta sobre el buen cuidado de los recursos
      en la escuela. '
    imageCode: 
    answers:
    - text: "Cerrar el ca\xF1o del ba\xF1o al terminar de usarlo."
      isCorrect: 0
    - text: Garabatear las carpetas por aburrimiento.
      isCorrect: 1
    - text: "No usar plum\xF3n indeleble para escribir en la pizarra. "
      isCorrect: 0
  - quizType: 0
    title: Reconocemos nuestras necesidades
    text: "La maestra Cecilia ha visto que los libros de la biblioteca escolar est\xE1n
      bien maltratados. Por eso, le ha pedido a sus estudiantes que\u2026 "
    imageCode: 
    answers:
    - text: compren nuevos libros para reemplazarlos.
      isCorrect: 0
    - text: reciclen sus hojas en blanco para hacer sus tareas.
      isCorrect: 0
    - text: al leerlos los traten con mucho cuidado.
      isCorrect: 1
  - quizType: 0
    title: Reconocemos nuestras necesidades
    text: "Si queremos reutilizar algunos recursos en casa podemos\u2026"
    imageCode: 
    answers:
    - text: usar el agua donde se lava el arroz para regar las plantas.
      isCorrect: 0
    - text: "cortar la base de una botella de pl\xE1stico y usarla como maceta."
      isCorrect: 0
    - text: Todas las anteriores.
      isCorrect: 1
  - quizType: 0
    title: Reconocemos nuestras necesidades
    text: "Renzo siempre est\xE1 pidiendo que le compren libros para colorear. Su
      hermana mayor, que ya termin\xF3 la escuela, le ha dado sus cuadernos antiguos
      para que \xE9l\u2026\r"
    imageCode: 
    answers:
    - text: los venda y compre sus libros para colorear.
      isCorrect: 0
    - text: pinte en sus hojas en blanco.
      isCorrect: 1
    - text: copie sus dibujos en un cuaderno nuevo.
      isCorrect: 0
