%YAML 1.1
%TAG !u! tag:unity3d.com,2011:
--- !u!114 &11400000
MonoBehaviour:
  m_ObjectHideFlags: 0
  m_CorrespondingSourceObject: {fileID: 0}
  m_PrefabInstance: {fileID: 0}
  m_PrefabAsset: {fileID: 0}
  m_GameObject: {fileID: 0}
  m_Enabled: 1
  m_EditorHideFlags: 0
  m_Script: {fileID: 11500000, guid: 4189e3028d1f4f648962fd11688eee3d, type: 3}
  m_Name: data
  m_EditorClassIdentifier: 
  questions:
  - quizType: 0
    title: Las ocupaciones
    text: "Marca la alternativa correcta. \xBFQu\xE9 actividad realizan las y los
      adultos para ganar dinero?"
    imageCode: 
    answers:
    - text: Comprar
      isCorrect: 0
    - text: Trabajar
      isCorrect: 1
    - text: Ir al banco
      isCorrect: 0
  - quizType: 0
    title: Las ocupaciones
    text: "Es importante que las personas mayores tengan una ocupaci\xF3n porque\u2026"
    imageCode: 
    answers:
    - text: "as\xED se mantienen ocupados en otras actividades."
      isCorrect: 0
    - text: con el dinero que obtienen cubren sus propias necesidades.
      isCorrect: 0
    - text: con el pago recibido cubren sus necesidades y las de sus familias.
      isCorrect: 1
  - quizType: 0
    title: Las ocupaciones
    text: "En casa de Carlos se han acabado algunas cosas necesarias. Con parte de
      su salario como odont\xF3loga, su t\xEDa Sara ha ido a comprar\u2026"
    imageCode: 
    answers:
    - text: "carteras, pa\xF1uelos y ganchos."
      isCorrect: 0
    - text: frutas, verduras y huevos.
      isCorrect: 1
    - text: "l\xE1mparas, alfombras y cortinas."
      isCorrect: 0
  - quizType: 0
    title: Las ocupaciones
    text: Marca la alternativa incorrecta acerca de los recursos necesarios que nos
      da nuestra familia.
    imageCode: 
    answers:
    - text: "alimentaci\xF3n y vestimenta."
      isCorrect: 0
    - text: juguetes nuevos y golosinas.
      isCorrect: 1
    - text: "\xFAtiles escolares y de aseo."
      isCorrect: 0
  - quizType: 0
    title: Las ocupaciones
    text: "Para usar con responsabilidad los recursos familiares podemos\u2026"
    imageCode: 
    answers:
    - text: 'Utilizarlos hasta que se acaben por completo. '
      isCorrect: 1
    - text: Desecharlos cuando se gasten un poco.
      isCorrect: 0
    - text: "Consumirlos o gastarlos seg\xFAn queramos."
      isCorrect: 0
  - quizType: 0
    title: Las ocupaciones
    text: "Carlos not\xF3 que quedaba poca pasta dental en el tubo, por eso la bot\xF3
      al tacho de basura. Con esta acci\xF3n, Carlos demuestra que\u2026"
    imageCode: 
    answers:
    - text: "sabe cu\xE1ndo se ha acabado un recurso de casa."
      isCorrect: 0
    - text: no cuida los recursos que le da su familia.
      isCorrect: 1
    - text: "le gusta ordenar su ba\xF1o. "
      isCorrect: 0
  - quizType: 1
    title: Las ocupaciones
    text: "Marca la alternativa o las alternativas correctas. \xBFDe qu\xE9 manera
      podemos ahorrar?"
    imageCode: 
    answers:
    - text: Si juntamos dinero para cumplir una meta.
      isCorrect: 1
    - text: Si trabajamos al igual que los adultos.
      isCorrect: 0
    - text: 'Si cuidamos los recursos familiares. '
      isCorrect: 1
  - quizType: 0
    title: Las ocupaciones
    text: "A Bea le han pagado cincuenta soles por una mesa de madera que ha hecho.
      Para ahorrar este dinero debe\u2026\r"
    imageCode: 
    answers:
    - text: trazar una meta que la motive a guardarlo.
      isCorrect: 0
    - text: "planificar en qu\xE9 lo gastar\xE1."
      isCorrect: 0
    - text: todas las anteriores.
      isCorrect: 1
  - quizType: 0
    title: Las ocupaciones
    text: "Carlos quiere barrer la sala de su casa, pero su abuelo le ha dicho que
      esa labor se la deje a su hermana Bea. \xBFQu\xE9 demuestra su recomendaci\xF3n? "
    imageCode: 
    answers:
    - text: "Que los ni\xF1os no deben realizar labores dom\xE9sticas."
      isCorrect: 0
    - text: "Que hace una diferencia entre lo que debe hacer un ni\xF1o de una ni\xF1a. "
      isCorrect: 1
    - text: "Que la actividad de barrer es muy sencilla para un ni\xF1o. "
      isCorrect: 0
  - quizType: 0
    title: Las ocupaciones
    text: "Marca la alternativa correcta. \xBFC\xF3mo crees que se deba orientar
      a las ni\xF1as y los ni\xF1os respecto de la ocupaci\xF3n que quieran realizar
      cuando crezcan?"
    imageCode: 
    answers:
    - text: De manera igualitaria.
      isCorrect: 1
    - text: 'De manera estricta para controlar sus decisiones. '
      isCorrect: 0
    - text: "Sugerir trabajos delicados para las ni\xF1as y dif\xEDciles para los
        ni\xF1os."
      isCorrect: 0
