%YAML 1.1
%TAG !u! tag:unity3d.com,2011:
--- !u!114 &11400000
MonoBehaviour:
  m_ObjectHideFlags: 0
  m_CorrespondingSourceObject: {fileID: 0}
  m_PrefabInstance: {fileID: 0}
  m_PrefabAsset: {fileID: 0}
  m_GameObject: {fileID: 0}
  m_Enabled: 1
  m_EditorHideFlags: 0
  m_Script: {fileID: 11500000, guid: 4189e3028d1f4f648962fd11688eee3d, type: 3}
  m_Name: data
  m_EditorClassIdentifier: 
  questions:
  - quizType: 0
    title: "Asumimos una posici\xF3n frente a la informalidad financiera"
    text: 'Para tener seguridad financiera es aconsejable que:'
    imageCode: 
    answers:
    - text: Los gastos superen a los ingresos.
      isCorrect: 0
    - text: Los gastos no superen el 90% de los ingresos.
      isCorrect: 1
    - text: No se ahorre nada.
      isCorrect: 0
  - quizType: 0
    title: "Asumimos una posici\xF3n frente a la informalidad financiera"
    text: "La captaci\xF3n de dinero sin supervisi\xF3n de SBS es la:"
    imageCode: 
    answers:
    - text: "Entrega de dinero del p\xFAblico, por ejemplo, ahorros, juntas, panderos,
        entre otros."
      isCorrect: 0
    - text: "Recaudaci\xF3n de dinero del p\xFAblico, por ejemplo, ahorros, juntas,
        panderos, entre otros"
      isCorrect: 1
    - text: "Repartici\xF3n de dinero del p\xFAblico, por ejemplo, ahorros, juntas,
        panderos, entre otros"
      isCorrect: 0
  - quizType: 0
    title: "Asumimos una posici\xF3n frente a la informalidad financiera"
    text: "La _________ es una estafa que consiste en que las ganancias de los primeros
      inversionistas se deben a los nuevos inversores que caen enga\xF1ados por las
      promesas de obtener grandes beneficios."
    imageCode: 
    answers:
    - text: "Prestaci\xF3n fraudulenta."
      isCorrect: 0
    - text: "Pir\xE1mide financiera."
      isCorrect: 1
    - text: "Captaci\xF3n de dinero."
      isCorrect: 0
  - quizType: 0
    title: "Asumimos una posici\xF3n frente a la informalidad financiera"
    text: "Ana Mar\xEDa, pide un pr\xE9stamo r\xE1pido y barato por v\xEDa telef\xF3nica.
      Ella sufri\xF3 de una estafa de tipo: "
    imageCode: 
    answers:
    - text: "Pr\xE9stamo fraudulento."
      isCorrect: 1
    - text: "Pir\xE1mide financiera."
      isCorrect: 0
    - text: "Captaci\xF3n de dinero."
      isCorrect: 0
  - quizType: 0
    title: "Asumimos una posici\xF3n frente a la informalidad financiera"
    text: 'La informalidad financiera, se puede evitar si:'
    imageCode: 
    answers:
    - text: Uno se deja convencer por conocidos que afirman estar recibiendo grandes
        ganancias.
      isCorrect: 0
    - text: Uno acepta formar parte de un negocio con esquema piramidal.
      isCorrect: 0
    - text: "Uno investiga la entidad que te ofrece el cr\xE9dito."
      isCorrect: 1
  - quizType: 0
    title: "Asumimos una posici\xF3n frente a la informalidad financiera"
    text: " \xBFCu\xE1l de las siguientes afirmaciones no es correcta? "
    imageCode: 
    answers:
    - text: "Las entidades deben publicar en un folleto las tarifas m\xE1ximas de
        comisiones."
      isCorrect: 0
    - text: Las comisiones deben estar registradas en la SBS.
      isCorrect: 0
    - text: Los bancos pueden cambiar las comisiones sin avisar al cliente.
      isCorrect: 1
  - quizType: 0
    title: "Asumimos una posici\xF3n frente a la informalidad financiera"
    text: 'Adriano ha sufrido una estafa financiera, ella lo puede denunciar en:'
    imageCode: 
    answers:
    - text: "Polic\xEDa Nacional del Per\xFA (PNP), Ministerio P\xFAblico y la Superintendenc\xEDa
        de Banca, Seguros y AFP."
      isCorrect: 1
    - text: "Polic\xEDa Nacional de Panam\xE1 (PNP), Ministerio de la Mujer y la
        Superintendcia de Banca,Seguros y AFP."
      isCorrect: 0
    - text: "Polic\xEDa Nacional del Per\xFA (PNP), Ministerio de transportes y la
        Superintendcia de Banca,Seguros y AFP."
      isCorrect: 0
  - quizType: 0
    title: "Asumimos una posici\xF3n frente a la informalidad financiera"
    text: "La relaci\xF3n de personas y empresas que otorgan pr\xE9stamos, y que
      se encuentran registradas en la SBS, esta afirmaci\xF3n es verdadera o falsa."
    imageCode: 
    answers:
    - text: Verdadero.
      isCorrect: 1
    - text: Falso.
      isCorrect: 0
  - quizType: 0
    title: "Asumimos una posici\xF3n frente a la informalidad financiera"
    text: "Mart\xEDn recibi\xF3 un correo con el fin de conseguir su informaci\xF3n
      personal para suplantar la identidad del usuario, se conoce como: "
    imageCode: 
    answers:
    - text: Pharming.
      isCorrect: 0
    - text: Phishing.
      isCorrect: 1
    - text: Spyware.
      isCorrect: 0
  - quizType: 2
    title: "Asumimos una posici\xF3n frente a la informalidad financiera"
    text: 'Colocar V si es Verdadero y F si es falso en las siguientes afirmaciones
      sobre la informalidad financiera:'
    imageCode: 
    answers:
    - text: "Captar o recibir en forma habitual dinero de terceros, directa o indirectamente,
        en dep\xF3sito, mutuo o cualquier otra forma, y colocar tales recursos en
        forma de cr\xE9ditos, inversi\xF3n o de habilitaci\xF3n de fondos, bajo cualquier
        modalidad contractual."
      isCorrect: 1
    - text: "Otorgar por cuenta propia coberturas de seguro, as\xED como intermediar
        en la contrataci\xF3n de seguros, y otras actividades complementarias a esta."
      isCorrect: 1
    - text: Rechazar formar parte de un negocio con esquema piramidal.
      isCorrect: 0
