%YAML 1.1
%TAG !u! tag:unity3d.com,2011:
--- !u!687078895 &4343727234628468602
SpriteAtlas:
  m_ObjectHideFlags: 0
  m_CorrespondingSourceObject: {fileID: 0}
  m_PrefabInstance: {fileID: 0}
  m_PrefabAsset: {fileID: 0}
  m_Name: PopupCanvas
  m_EditorData:
    serializedVersion: 2
    textureSettings:
      serializedVersion: 2
      anisoLevel: 1
      compressionQuality: 50
      maxTextureSize: 2048
      textureCompression: 0
      filterMode: 1
      generateMipMaps: 0
      readable: 0
      crunchedCompression: 0
      sRGB: 1
    platformSettings:
    - serializedVersion: 3
      m_BuildTarget: DefaultTexturePlatform
      m_MaxTextureSize: 4096
      m_ResizeAlgorithm: 0
      m_TextureFormat: -1
      m_TextureCompression: 1
      m_CompressionQuality: 100
      m_CrunchedCompression: 1
      m_AllowsAlphaSplitting: 0
      m_Overridden: 0
      m_AndroidETC2FallbackOverride: 0
      m_ForceMaximumCompressionQuality_BC6H_BC7: 0
    packingSettings:
      serializedVersion: 2
      padding: 4
      blockOffset: 1
      allowAlphaSplitting: 0
      enableRotation: 0
      enableTightPacking: 0
    secondaryTextureSettings: {}
    variantMultiplier: 1
    packables:
    - {fileID: 2800000, guid: bcf4a560bd6b754469149306a7388fba, type: 3}
    - {fileID: 2800000, guid: 100885d7c9723b54894549ba519c8873, type: 3}
    - {fileID: 2800000, guid: 2a7390a79a1041046a5a03c3af80aa43, type: 3}
    - {fileID: 2800000, guid: 0aea15efa1f7a384097d71355f21a85b, type: 3}
    - {fileID: 2800000, guid: 908b8d4b7f07fec41978b7baa9b78777, type: 3}
    - {fileID: 2800000, guid: 95e31dda95acf3241a41990e4f299a85, type: 3}
    - {fileID: 2800000, guid: 7babadf86e979ab45aa7f61551b268e9, type: 3}
    - {fileID: 2800000, guid: ba590506724340f4dae0deb7e1872ebc, type: 3}
    - {fileID: 2800000, guid: 8129354f8bb351a4ca62041cda1688bd, type: 3}
    - {fileID: 2800000, guid: 6c0be6edf727dfd4e82748f9ffa33505, type: 3}
    - {fileID: 2800000, guid: 14aa9d8dfd5d90e4da050d6ba6858f51, type: 3}
    - {fileID: 2800000, guid: ff6d7d384ceb6414d9bf7b218cda076b, type: 3}
    - {fileID: 2800000, guid: ea59cc72acc22884197517a49bc39055, type: 3}
    - {fileID: 2800000, guid: 423f97dbd57ef59418c2e3f6a898e3e8, type: 3}
    - {fileID: 2800000, guid: f2896197121d25c4c99a192934a99a22, type: 3}
    - {fileID: 2800000, guid: b2cc6b64c1413d1468f38d46cdd2d821, type: 3}
    - {fileID: 2800000, guid: a5b4f12d56135244588cfd5c7ed1de72, type: 3}
    - {fileID: 2800000, guid: f63c4198add23c146b2fb6930263f054, type: 3}
    - {fileID: 2800000, guid: 94b2576bf91774640977410e5ee5d75a, type: 3}
    bindAsDefault: 1
    isAtlasV2: 0
    cachedData: {fileID: 0}
  m_MasterAtlas: {fileID: 0}
  m_PackedSprites:
  - {fileID: 21300000, guid: bcf4a560bd6b754469149306a7388fba, type: 3}
  - {fileID: 21300000, guid: ea59cc72acc22884197517a49bc39055, type: 3}
  - {fileID: 21300000, guid: b2cc6b64c1413d1468f38d46cdd2d821, type: 3}
  - {fileID: 21300000, guid: ba590506724340f4dae0deb7e1872ebc, type: 3}
  - {fileID: 21300000, guid: f2896197121d25c4c99a192934a99a22, type: 3}
  - {fileID: 21300000, guid: 2a7390a79a1041046a5a03c3af80aa43, type: 3}
  - {fileID: 21300000, guid: 100885d7c9723b54894549ba519c8873, type: 3}
  - {fileID: 21300000, guid: ff6d7d384ceb6414d9bf7b218cda076b, type: 3}
  - {fileID: 21300000, guid: f63c4198add23c146b2fb6930263f054, type: 3}
  - {fileID: 21300000, guid: 7babadf86e979ab45aa7f61551b268e9, type: 3}
  - {fileID: 21300000, guid: 95e31dda95acf3241a41990e4f299a85, type: 3}
  - {fileID: 21300000, guid: 908b8d4b7f07fec41978b7baa9b78777, type: 3}
  - {fileID: 21300000, guid: 94b2576bf91774640977410e5ee5d75a, type: 3}
  - {fileID: 21300000, guid: 423f97dbd57ef59418c2e3f6a898e3e8, type: 3}
  - {fileID: 21300000, guid: a5b4f12d56135244588cfd5c7ed1de72, type: 3}
  - {fileID: 21300000, guid: 14aa9d8dfd5d90e4da050d6ba6858f51, type: 3}
  - {fileID: 21300000, guid: 6c0be6edf727dfd4e82748f9ffa33505, type: 3}
  - {fileID: 21300000, guid: 8129354f8bb351a4ca62041cda1688bd, type: 3}
  - {fileID: 21300000, guid: 0aea15efa1f7a384097d71355f21a85b, type: 3}
  m_PackedSpriteNamesToIndex:
  - Counter
  - ui_avatar_-11
  - InicioBoton1
  - Coin
  - Prototipo_-14
  - Lock
  - Pizarra
  - Like
  - InstruccionesIMG (2)
  - star (2)
  - boton1 (2)
  - boton3 (2)
  - botonNivel
  - Check
  - InicioBoton2
  - AnswerA
  - BigQuestion
  - Pause
  - boton2 (2)
  m_RenderDataMap: {}
  m_Tag: PopupCanvas
  m_IsVariant: 0
