%YAML 1.1
%TAG !u! tag:unity3d.com,2011:
--- !u!114 &11400000
MonoBehaviour:
  m_ObjectHideFlags: 0
  m_CorrespondingSourceObject: {fileID: 0}
  m_PrefabInstance: {fileID: 0}
  m_PrefabAsset: {fileID: 0}
  m_GameObject: {fileID: 0}
  m_Enabled: 1
  m_EditorHideFlags: 0
  m_Script: {fileID: 11500000, guid: 4189e3028d1f4f648962fd11688eee3d, type: 3}
  m_Name: data
  m_EditorClassIdentifier: 
  questions:
  - quizType: 0
    title: Somos perseverantes
    text: "\xBFQu\xE9 es la perseverancia?"
    imageCode: 
    answers:
    - text: 'Es un valor que poseen todas las personas y que nos ayudan a alcanzar
        nuestras metas. '
      isCorrect: 0
    - text: Es una cualidad que consiste en esforzarnos por alcanzar nuestras metas.
      isCorrect: 1
    - text: Es una habilidad que nos permite lograr las metas sin mayor esfuerzo.
      isCorrect: 0
  - quizType: 0
    title: Somos perseverantes
    text: "En el recreo, mientras todos juegan, Cecilia y Arturo repasan la clase
      pues quieren mejorar sus calificaciones. \xBFQu\xE9 cualidades muestran ellos?"
    imageCode: 
    answers:
    - text: Constancia y perseverancia
      isCorrect: 1
    - text: Perseverancia y generosidad
      isCorrect: 0
    - text: "Entusiasmo y dedicaci\xF3n"
      isCorrect: 0
  - quizType: 0
    title: Somos perseverantes
    text: "Arturo quiso aprender a cocinar. Al principio le fue dif\xEDcil, pero
      sigui\xF3 intentando hasta que lo logro. \xBFQu\xE9 muestra esta situaci\xF3n?"
    imageCode: 
    answers:
    - text: "Que Arturo se esforz\xF3 en conseguir la meta que se propuso."
      isCorrect: 1
    - text: "Que Arturo siempre est\xE1 dispuesto a ayudar a sus padres."
      isCorrect: 0
    - text: "Que Arturo est\xE1 empe\xF1ado en aprender las tareas del hogar."
      isCorrect: 0
  - quizType: 1
    title: Somos perseverantes
    text: "Cuando nos proponemos una meta, \xBFqu\xE9 debemos hacer para conseguirlo?"
    imageCode: 
    answers:
    - text: Intentarlo dos o tres veces y no frustrarnos si no lo logramos.
      isCorrect: 0
    - text: No desanimarnos si surgen dificultades en el camino.
      isCorrect: 1
    - text: Esforzarnos para realizar lo que nos hemos propuesto.
      isCorrect: 1
  - quizType: 0
    title: Somos perseverantes
    text: "La mam\xE1 de Nelly le dice que puede practicar b\xE1squet si mantiene
      sus buenas calificaciones. \xBFQu\xE9 debe hacer Nelly?"
    imageCode: 
    answers:
    - text: Esforzarse en plantear acciones para conseguir su meta.
      isCorrect: 0
    - text: Organizar sus tiempos para hacer ambas actividades.
      isCorrect: 1
    - text: Aprovechar sus horas libres para practicar deporte.
      isCorrect: 0
  - quizType: 1
    title: Somos perseverantes
    text: "Si nuestras compa\xF1eras y compa\xF1eros se desaniman al realizar algo
      porque les resulta dif\xEDcil, \xBFqu\xE9 debemos hacer?"
    imageCode: 
    answers:
    - text: "Dejarlos que ellos encuentren la soluci\xF3n."
      isCorrect: 0
    - text: "Animarlos a seguir intent\xE1ndolo."
      isCorrect: 1
    - text: "Brindarles consejos de c\xF3mo podr\xEDan hacerlo."
      isCorrect: 1
  - quizType: 1
    title: Somos perseverantes
    text: "Arturo tiene dificultades para aprender la tabla de multiplicar. \xBFQu\xE9
      deber\xEDa hacer \xE9l?"
    imageCode: 
    answers:
    - text: Exigir a sus padres que le compren una calculadora.
      isCorrect: 0
    - text: Pedir a sus amigas y amigos que lo ayuden a practicar.
      isCorrect: 1
    - text: "Dedicar su tiempo libre a repasar la tabla de multiplicaci\xF3n."
      isCorrect: 1
  - quizType: 0
    title: Somos perseverantes
    text: "Ana recitar\xE1 un poema en clase. Aunque ya lo aprendi\xF3, sigue practicando
      porque piensa que lo puede hacer mejor. \xBFQu\xE9 cualidad tiene Ana?"
    imageCode: 
    answers:
    - text: "Perseverancia y dedicaci\xF3n"
      isCorrect: 1
    - text: "Paciencia y satisfacci\xF3n"
      isCorrect: 0
    - text: "Perfecci\xF3n y honestidad"
      isCorrect: 0
  - quizType: 0
    title: Somos perseverantes
    text: "Arturo se ha propuesto aprender a tocar guitarra, pero al tomar clases
      vio que no era muy sencillo. \xBFQu\xE9 le recomendar\xEDas?"
    imageCode: 
    answers:
    - text: Que sea responsable en lo que hace.
      isCorrect: 0
    - text: Que organice su mejor su tiempo.
      isCorrect: 0
    - text: Que no se deje vencer por las dificultades.
      isCorrect: 1
  - quizType: 1
    title: Somos perseverantes
    text: "Si al leer un texto te resulta dif\xEDcil comprenderlo, \xBFqu\xE9 deber\xEDas
      hacer?"
    imageCode: 
    answers:
    - text: Volver a leer el texto hasta que lo comprenda.
      isCorrect: 1
    - text: "Pedir a alg\xFAn familiar que me ayude."
      isCorrect: 1
    - text: Buscar en internet el resumen del texto.
      isCorrect: 0
