%YAML 1.1
%TAG !u! tag:unity3d.com,2011:
--- !u!114 &11400000
MonoBehaviour:
  m_ObjectHideFlags: 0
  m_CorrespondingSourceObject: {fileID: 0}
  m_PrefabInstance: {fileID: 0}
  m_PrefabAsset: {fileID: 0}
  m_GameObject: {fileID: 0}
  m_Enabled: 1
  m_EditorHideFlags: 0
  m_Script: {fileID: 11500000, guid: 4189e3028d1f4f648962fd11688eee3d, type: 3}
  m_Name: data
  m_EditorClassIdentifier: 
  questions:
  - quizType: 0
    title: Conformamos nuestro Club de Emprendedores
    text: "El___________es una organizaci\xF3n estudiantil en la que, a trav\xE9s
      de un proyecto de emprendimiento, se asumen responsabilidades, se ejercen derechos
      y se trabaja en equipo, para beneficio de todo el colegio."
    imageCode: 
    answers:
    - text: "Club de energ\xE9ticos."
      isCorrect: 0
    - text: Club de emprendedores.
      isCorrect: 1
    - text: Club de embutidos.
      isCorrect: 0
  - quizType: 0
    title: Conformamos nuestro Club de Emprendedores
    text: "Mariana est\xE1 postulando para un cargo el cual implica organizar y participar
      de reuniones para formar parte del Club de Emprendedores. \xBFQu\xE9 tipo de
      cargo desea postular Mariana?"
    imageCode: 
    answers:
    - text: Presidente.
      isCorrect: 0
    - text: Secretario.
      isCorrect: 1
    - text: Tesorero.
      isCorrect: 0
  - quizType: 0
    title: Conformamos nuestro Club de Emprendedores
    text: "Mart\xEDn postula a uno de los cargos en donde rinde cuentas de las actividades
      realizadas \xBFQu\xE9 tipo de cargo postula Martin?"
    imageCode: 
    answers:
    - text: Presidente.
      isCorrect: 0
    - text: Secretario.
      isCorrect: 0
    - text: Tesorero.
      isCorrect: 1
  - quizType: 0
    title: Conformamos nuestro Club de Emprendedores
    text: El ___________ planifica, organiza y lidera las reuniones cada mes para
      cumplir las metas y acuerdo establecidos
    imageCode: 
    answers:
    - text: Secretario.
      isCorrect: 0
    - text: Presidente.
      isCorrect: 1
    - text: Tesorero.
      isCorrect: 0
  - quizType: 0
    title: Conformamos nuestro Club de Emprendedores
    text: La ______________ es uno de los aspectos importantes para el Club de Emprendedores.
    imageCode: 
    answers:
    - text: "Participaci\xF3n especial y solidaria."
      isCorrect: 0
    - text: "Participaci\xF3n equitativa y solidaria."
      isCorrect: 1
    - text: "Participaci\xF3n emotiva y solidaria."
      isCorrect: 0
  - quizType: 0
    title: Conformamos nuestro Club de Emprendedores
    text: "Jos\xE9 al postularse como presidente se comprometi\xF3 a cumplir con
      las metas para emprender con compa\xF1eros. Esta promesa forma parte de los:"
    imageCode: 
    answers:
    - text: Valores que todos los representantes deben de tener para formar parte
        del club de emprendedores.
      isCorrect: 1
    - text: Acuerdos que todos los representantes deben de tener para formar parte
        del club de emprendedores.
      isCorrect: 0
    - text: Habilidades que todos los representantes deben de tener para formar parte
        del club de emprendedores.
      isCorrect: 0
  - quizType: 0
    title: Conformamos nuestro Club de Emprendedores
    text: "El ___________________ implica convertir una idea nueva en una innovaci\xF3n
      exitosa utilizando habilidades, visi\xF3n, creatividad, persistencia y exposici\xF3n
      al riesgo."
    imageCode: 
    answers:
    - text: Emprendimiento.
      isCorrect: 1
    - text: Empoderamiento.
      isCorrect: 0
    - text: Empresa.
      isCorrect: 0
  - quizType: 2
    title: Conformamos nuestro Club de Emprendedores
    text: 'Coloca V o F, sobre las siguientes afirmaciones '
    imageCode: 
    answers:
    - text: Los emprendedores crean empleos.
      isCorrect: 1
    - text: Los emprendedores toman decisiones para lograr sus metas.
      isCorrect: 1
    - text: "Los emprendedores no piden opiniones de los dem\xE1s."
      isCorrect: 0
  - quizType: 0
    title: Conformamos nuestro Club de Emprendedores
    text: "Pedro y sus compa\xF1eros decidieron abrir una tienda de casas para perros
      y gatos, ya que aprendieron a realizar eso en Carpinter\xEDa. Antes de emprender
      necesitan realizar un:"
    imageCode: 
    answers:
    - text: Impuesto.
      isCorrect: 0
    - text: Presupuesto.
      isCorrect: 1
    - text: "Evaluaci\xF3n."
      isCorrect: 0
  - quizType: 0
    title: Conformamos nuestro Club de Emprendedores
    text: 'Uno de los valores que deben tener los representantes del Club de Emprendedores
      es:'
    imageCode: 
    answers:
    - text: "Poca autonom\xEDa para tomar decisiones."
      isCorrect: 0
    - text: Liderazgo para dirigir y hacer cumplir acuerdos.
      isCorrect: 1
    - text: "Falta de respeto por las ideas de los dem\xE1s."
      isCorrect: 0
