%YAML 1.1
%TAG !u! tag:unity3d.com,2011:
--- !u!114 &11400000
MonoBehaviour:
  m_ObjectHideFlags: 0
  m_CorrespondingSourceObject: {fileID: 0}
  m_PrefabInstance: {fileID: 0}
  m_PrefabAsset: {fileID: 0}
  m_GameObject: {fileID: 0}
  m_Enabled: 1
  m_EditorHideFlags: 0
  m_Script: {fileID: 11500000, guid: 4189e3028d1f4f648962fd11688eee3d, type: 3}
  m_Name: data
  m_EditorClassIdentifier: 
  questions:
  - quizType: 0
    title: Aprendemos a identificar nuestras emociones
    text: "Las ________________ son aquellas reacciones que tienen las personas frente
      a determinadas situaciones y que pueden guiar su ___________________ frente
      a alg\xFAn hecho o suceso."
    imageCode: 
    answers:
    - text: conductas - vida
      isCorrect: 0
    - text: "acciones \u2013 camino"
      isCorrect: 0
    - text: emociones - comportamiento
      isCorrect: 1
  - quizType: 0
    title: Aprendemos a identificar nuestras emociones
    text: "\xBFCu\xE1l de estas afirmaciones sobre las emociones es falsa?"
    imageCode: 
    answers:
    - text: "Reconocer nuestras emociones no nos ayudar\xE1 a relacionarnos con los
        dem\xE1s."
      isCorrect: 1
    - text: 'Es importante aprender a regular nuestras emociones para no perjudicar
        a nuestro entorno y a nosotros mismos. '
      isCorrect: 0
    - text: "Las emociones b\xE1sicas son: alegr\xEDa, tristeza, miedo, enojo, sorpresa
        y asco."
      isCorrect: 0
  - quizType: 2
    title: Aprendemos a identificar nuestras emociones
    text: "El primer d\xEDa de clases, Enrique lleg\xF3 de mala gana, pues \xE9l
      a\xF1oraba con alegr\xEDa los tres meses de vacaciones en el campo. De pronto,
      uno de sus profesores del a\xF1o pasado le dijo lo apenado que se sent\xEDa
      de ya no ser su maestro, y entonces Enrique se puso triste.\r"
    imageCode: 
    answers:
    - text: "En la breve historia se distinguen tres emociones que experimenta Enrique:
        enojo, alegr\xEDa y tristeza."
      isCorrect: 1
    - text: "La situaci\xF3n que le generaba alegr\xEDa a Enrique eran sus recuerdos
        en el campo, durante los tres meses de vacaciones."
      isCorrect: 1
    - text: "La reacci\xF3n que manifest\xF3 Enrique al escuchar a su antiguo profesor
        fue de enojo."
      isCorrect: 0
  - quizType: 0
    title: Aprendemos a identificar nuestras emociones
    text: "Cuando era peque\xF1a recib\xED de regalo un perrito y eso me dio mucha
      _________. Recuerdo que mi pap\xE1 me dec\xEDa que tenga mucho cuidado al momento
      de sacarlo a dar sus paseos, pero un d\xEDa se me escap\xF3 y aunque lo buscamos
      todo el d\xEDa no lo pudimos encontrar, eso me hizo poner muy ________. Sin
      embargo, para mi ______________, mi perrito regres\xF3 a casa."
    imageCode: 
    answers:
    - text: "sorpresa \u2013 enojada - tristeza"
      isCorrect: 0
    - text: "alegr\xEDa \u2013 triste \u2013 sorpresa"
      isCorrect: 1
    - text: "tristeza -enojada - alegr\xEDa"
      isCorrect: 0
  - quizType: 0
    title: Aprendemos a identificar nuestras emociones
    text: "Cuando Ana piensa: \u201CMejor trabajo sola porque nadie me escucha\u201D,
      \xBFqu\xE9 emoci\xF3n crees que manifiesta?"
    imageCode: 
    answers:
    - text: Tristeza
      isCorrect: 1
    - text: "Alegr\xEDa"
      isCorrect: 0
    - text: Sorpresa
      isCorrect: 0
  - quizType: 0
    title: Aprendemos a identificar nuestras emociones
    text: "Cuando era muy peque\xF1o, recuerdo que me enoj\xE9 mucho con mi mam\xE1
      porque no me compr\xF3 un juguete, as\xED que me alej\xE9 de ella y me extravi\xE9
      en el centro comercial. Cuando pas\xF3 eso sent\xED mucho miedo. Felizmente
      mi mam\xE1 logr\xF3 encontrarme.\r\nEn la situaci\xF3n descrita, \xBFcu\xE1l
      fue la causa y las consecuencias de no manejar correctamente sus emociones?"
    imageCode: 
    answers:
    - text: "Causa: se extravi\xF3 y tuvo mucho miedo \u2013 Consecuencias: se enoj\xF3
        porque su mam\xE1 no le compr\xF3 un juguete."
      isCorrect: 0
    - text: "Causa: se enoj\xF3 porque su mam\xE1 no le compr\xF3 un juguete \u2013
        Consecuencias: por alejarse de su mam\xE1 se extravi\xF3 y tuvo mucho miedo."
      isCorrect: 1
    - text: "Causa: se alegr\xF3 cuando su mam\xE1 lo encontr\xF3 \u2013 Consecuencias:
        por alejarse de su mam\xE1 se perdi\xF3 y tuvo mucho miedo."
      isCorrect: 0
  - quizType: 0
    title: Aprendemos a identificar nuestras emociones
    text: "Cuando te enojas con tu mam\xE1, esa reacci\xF3n es _____________, que
      puede afectar tu _________________, porque puedes decidir dejar de hablarle
      o no salir de tu habitaci\xF3n."
    imageCode: 
    answers:
    - text: "una emoci\xF3n - comportamiento"
      isCorrect: 1
    - text: un sentimiento - vida
      isCorrect: 0
    - text: un sentimiento - conducta
      isCorrect: 0
  - quizType: 0
    title: Aprendemos a identificar nuestras emociones
    text: "Cuando una madre abraza, y te dice que ama a su hijo. \xBFQu\xE9 se puede
      afirmar sobre la mam\xE1?"
    imageCode: 
    answers:
    - text: Expresa sus emociones.
      isCorrect: 0
    - text: No expresa ni emociones ni sentimientos.
      isCorrect: 0
    - text: Expresa sus sentimientos.
      isCorrect: 1
  - quizType: 0
    title: Aprendemos a identificar nuestras emociones
    text: "Jos\xE9 estaba a punto de patear un gol y de pronto sinti\xF3 que lo empujaron,
      entonces perdi\xF3 el equilibrio y cay\xF3. Muy molesto se par\xF3 y empez\xF3
      a gritar al chico que lo empuj\xF3. \xBFQu\xE9 estrategia de autorregulaci\xF3n
      emocional deber\xEDa escoger Jos\xE9?"
    imageCode: 
    answers:
    - text: "Inspira contando hasta cuatro mentalmente, sost\xE9n el aire y exhala
        lentamente."
      isCorrect: 1
    - text: "Pintar, escribir, dibujar, bailar, cantar o tocar alg\xFAn instrumento."
      isCorrect: 0
    - text: "Realizar una actividad f\xEDsica ayudar\xE1 a fortalecer la paciencia
        y la capacidad para el manejo de la frustraci\xF3n."
      isCorrect: 0
  - quizType: 0
    title: Aprendemos a identificar nuestras emociones
    text: "Sof\xEDa suele ponerse triste, pues extra\xF1a a su abuelita, ella hizo
      un viaje por mucho tiempo. Pero algo que la ayuda a regular esa emoci\xF3n
      y a sentirse alegre es tocar el caj\xF3n\r\nTocar un instrumento musical es
      una estrategia que ayuda a regular las emociones. Este enunciado es:"
    imageCode: 
    answers:
    - text: Verdadero
      isCorrect: 1
    - text: Falso
      isCorrect: 0
