%YAML 1.1
%TAG !u! tag:unity3d.com,2011:
--- !u!114 &11400000
MonoBehaviour:
  m_ObjectHideFlags: 0
  m_CorrespondingSourceObject: {fileID: 0}
  m_PrefabInstance: {fileID: 0}
  m_PrefabAsset: {fileID: 0}
  m_GameObject: {fileID: 0}
  m_Enabled: 1
  m_EditorHideFlags: 0
  m_Script: {fileID: 11500000, guid: 4927878a7a3f7184c9053bb1da53d7e6, type: 3}
  m_Name: 2
  m_EditorClassIdentifier: 
  edas:
  - name: Nos conocemos y convivimos mejor
    sprite: {fileID: 21300000, guid: 254369803ab51114d909b1190eb63ea3, type: 3}
    adas:
    - name: Somos valiosos
      sprite: {fileID: 21300000, guid: 183cd1b328af7494d85ba0fc8d8d4163, type: 3}
      game: 1
    - name: "\xBFC\xF3mo actuamos?"
      sprite: {fileID: 21300000, guid: 288db2db328efbc41826696402343089, type: 3}
      game: 0
    - name: "Ni\xF1as y ni\xF1os nos respetamos"
      sprite: {fileID: 21300000, guid: d282c2369fbfe3242a4bb48b25d6bb77, type: 3}
      game: 2
  - name: Podemos ser mejores
    sprite: {fileID: 21300000, guid: 3c3bb414cb30d5c49be4a6217e4c29b3, type: 3}
    adas:
    - name: "\xBFQui\xE9nes queremos ser?"
      sprite: {fileID: 21300000, guid: 4c45d4ae42d837e41b5d0e1e88865037, type: 3}
      game: 1
    - name: Nos motivamos para cumplir nuestras metas
      sprite: {fileID: 21300000, guid: 966212084f08694409d92f71a54279ac, type: 3}
      game: 4
    - name: Aprendemos a planificar
      sprite: {fileID: 21300000, guid: fa66ceceffb270e4cb281ef0fa9c591c, type: 3}
      game: 3
  - name: Consumamos con responsabilidad
    sprite: {fileID: 21300000, guid: f1b07f5019500464ab178852d99827a1, type: 3}
    adas:
    - name: Nuestros derechos y deberes
      sprite: {fileID: 21300000, guid: c52ed9e7adcd77448ad6c877fece77b7, type: 3}
      game: 4
    - name: Nos cuidamos al consumir
      sprite: {fileID: 21300000, guid: 9e4beb090de1ae041b1bdaa4849a3893, type: 3}
      game: 3
    - name: Sabemos lo que compramos
      sprite: {fileID: 21300000, guid: 8566b7a51beb99a4182adbe670e798bf, type: 3}
      game: 4
  - name: "\xA1S\xED podemos ahorrar!"
    sprite: {fileID: 21300000, guid: 5e8878b552500fa46b9f28e6105df0ee, type: 3}
    adas:
    - name: El trabajo nos dignifica
      sprite: {fileID: 21300000, guid: 742222d36729e70499d86d2a583cfc5b, type: 3}
      game: 1
    - name: Aprendemos a ahorrar
      sprite: {fileID: 21300000, guid: 4ed08d06078bb7a459bacedf6730518f, type: 3}
      game: 3
    - name: Ahorramos en casa y en el colegio
      sprite: {fileID: 21300000, guid: 961270a2b4a2e4849ad2b55821a7296c, type: 3}
      game: 2
  - name: Aprendemos a ahorrar
    sprite: {fileID: 21300000, guid: 6662bdcf1a4d2b44ab44033177e60c89, type: 3}
    adas:
    - name: Afrontamos riesgos
      sprite: {fileID: 21300000, guid: ff41179de1dd4b840a1c38cb4dc367e1, type: 3}
      game: 4
    - name: Vivimos seguros
      sprite: {fileID: 21300000, guid: 70c46c35ce6b5154aa220f2f2f42a269, type: 3}
      game: 3
    - name: Planificamos para el futuro
      sprite: {fileID: 21300000, guid: dda3b5b7b7b9c924cad2f14bc00c7be2, type: 3}
      game: 1
