%YAML 1.1
%TAG !u! tag:unity3d.com,2011:
--- !u!114 &11400000
MonoBehaviour:
  m_ObjectHideFlags: 0
  m_CorrespondingSourceObject: {fileID: 0}
  m_PrefabInstance: {fileID: 0}
  m_PrefabAsset: {fileID: 0}
  m_GameObject: {fileID: 0}
  m_Enabled: 1
  m_EditorHideFlags: 0
  m_Script: {fileID: 11500000, guid: 4927878a7a3f7184c9053bb1da53d7e6, type: 3}
  m_Name: 5
  m_EditorClassIdentifier: 
  edas:
  - name: Nuestras familias nos ayudan a ser mejores
    sprite: {fileID: 21300000, guid: c80cbab6d5146e8438bd2f2825c96c90, type: 3}
    adas:
    - name: "Cumplimos con nuestro pa\xEDs"
      sprite: {fileID: 21300000, guid: 7c8da99e0f30e744f878ab365d64bcee, type: 3}
      game: 1
    - name: "Nuestras emociones y las de los dem\xE1s"
      sprite: {fileID: 21300000, guid: 82211628f3cbd7344961d644ae533f5f, type: 3}
      game: 0
    - name: "Actuamos de manera \xE9tica"
      sprite: {fileID: 21300000, guid: 69db225a43d35c2469e3bbd656d72c5a, type: 3}
      game: 4
  - name: Nos trazamos metas para el futuro
    sprite: {fileID: 21300000, guid: 9f00e57f3a4876446abc198d31c7fbd7, type: 3}
    adas:
    - name: Nuestro proyecto de vida
      sprite: {fileID: 21300000, guid: c5e74a10674b48149a401af927f781f7, type: 3}
      game: 2
    - name: "Establecemos metas para nuestra instituci\xF3n educativa"
      sprite: {fileID: 21300000, guid: be69c60c695d8f243b4840162c7209a1, type: 3}
      game: 1
    - name: Evaluamos el impacto de nuestras metas
      sprite: {fileID: 21300000, guid: 7ceb8149f831c444fa2ebfbc51b94398, type: 3}
      game: 3
  - name: Podemos ser mejores consumidores
    sprite: {fileID: 21300000, guid: 4091d8e18cdd7de4896db9c1295db332, type: 3}
    adas:
    - name: Conocemos las entidades que protegen a consumidoras y consumidoresr
      sprite: {fileID: 21300000, guid: ef457696683c52d4981bf47f78d5b094, type: 3}
      game: 1
    - name: "Reconocemos la publicidad enga\xF1osa"
      sprite: {fileID: 21300000, guid: 215211d95c4d7b646b2962854ab5b846, type: 3}
      game: 4
    - name: "\xBFC\xF3mo consumimos?"
      sprite: {fileID: 21300000, guid: d91cba694a79b6c428366a5577e5f5a0, type: 3}
      game: 3
  - name: Manejamos el dinero con inteligencia
    sprite: {fileID: 21300000, guid: 2c9245d9ebf0a194dbe78558e4b8e2cd, type: 3}
    adas:
    - name: "Conocemos el cr\xE9dito"
      sprite: {fileID: 21300000, guid: 8e7b3fbb2e3744f41888a90c0a79a53d, type: 3}
      game: 2
    - name: Comprendemos las ventajas del ahorro
      sprite: {fileID: 21300000, guid: f3cad2c25cd12c349a3dfb021d0c2d87, type: 3}
      game: 4
    - name: Elaboramos un plan de ahorro
      sprite: {fileID: 21300000, guid: a12270602da704c4996d6d63b5d64109, type: 3}
      game: 0
  - name: "Cumplimos con nuestro pa\xEDs"
    sprite: {fileID: 21300000, guid: 1ad2a67304b43fa4e85ef8918693b5a8, type: 3}
    adas:
    - name: "\xBFQu\xE9 son el sector p\xFAblico y el privado?"
      sprite: {fileID: 21300000, guid: d8bff87a60ab51d4c8e89e8f3e20ae29, type: 3}
      game: 4
    - name: "\xBFQu\xE9 significa ser formal?"
      sprite: {fileID: 21300000, guid: d3b79d2e80da847489a794a4597418f2, type: 3}
      game: 3
    - name: Nos protegemos de las estafas en internet
      sprite: {fileID: 21300000, guid: 86167b350909a7240af57fd075a80dc8, type: 3}
      game: 4
