%YAML 1.1
%TAG !u! tag:unity3d.com,2011:
--- !u!114 &11400000
MonoBehaviour:
  m_ObjectHideFlags: 0
  m_CorrespondingSourceObject: {fileID: 0}
  m_PrefabInstance: {fileID: 0}
  m_PrefabAsset: {fileID: 0}
  m_GameObject: {fileID: 0}
  m_Enabled: 1
  m_EditorHideFlags: 0
  m_Script: {fileID: 11500000, guid: 4927878a7a3f7184c9053bb1da53d7e6, type: 3}
  m_Name: 6
  m_EditorClassIdentifier: 
  edas:
  - name: Desarrollamos nuestras habilidades para la vida y el emprendimiento
    sprite: {fileID: 21300000, guid: 5f9a021de3d32f94cba6f10b943c4715, type: 3}
    adas:
    - name: Nos queremos, aceptamos y valoramos
      sprite: {fileID: 21300000, guid: 2b0a21ff99b06fd4eaff2b49346864bc, type: 3}
      game: 1
    - name: Aprendemos a identificar nuestras emociones
      sprite: {fileID: 21300000, guid: 9d8eb5b1407ff38429ed9f3987f5aedd, type: 3}
      game: 0
    - name: Aprendemos a escuchar y comunicarnos
      sprite: {fileID: 21300000, guid: 71b27c9586a84804badd8efdb35e07c9, type: 3}
      game: 4
    - name: Identificamos y manejamos los conflictos
      sprite: {fileID: 21300000, guid: 069e4c6b47f805849a8dac1d402aa49d, type: 3}
      game: 2
    - name: Aprendemos a plantear nuestras metas
      sprite: {fileID: 21300000, guid: 7371f74a1c813604b8bd13cc1bb49699, type: 3}
      game: 1
  - name: Ejercemos nuestros derechos y deberes como consumidoras y consumidores
    sprite: {fileID: 21300000, guid: b73d92accd1ad404c9ea22ff3b29ab8c, type: 3}
    adas:
    - name: "Conocemos a los agentes econ\xF3micos"
      sprite: {fileID: 21300000, guid: 8a095861bb27af144b55bfff2cbe07ee, type: 3}
      game: 2
    - name: Tomamos decisiones frente a la escasez de recursos
      sprite: {fileID: 21300000, guid: a385c8b8531756f4fb5253df7487573e, type: 3}
      game: 1
    - name: Tomamos decisiones como consumidoras y consumidores responsables
      sprite: {fileID: 21300000, guid: afeb1590bbe4cd442a0b1a1b8f321c67, type: 3}
      game: 4
    - name: Defendemos los derechos de la consumidora y el consumidor
      sprite: {fileID: 21300000, guid: 8f0426dca5a348142ba7ff4365d4ce90, type: 3}
      game: 3
    - name: Somos personas diversas, pero con los mismos derechos
      sprite: {fileID: 21300000, guid: 4188fae740829124ebdacb4311fc5109, type: 3}
      game: 4
  - name: Aprendemos a tomar decisiones financieras
    sprite: {fileID: 21300000, guid: 60ba52c3145b2d4409c96afc6ca738f5, type: 3}
    adas:
    - name: Tenemos necesidades y las satisfacemos
      sprite: {fileID: 21300000, guid: 916a55cff259f3c43806f269851dae81, type: 3}
      game: 1
    - name: Somos parte del sistema financiero
      sprite: {fileID: 21300000, guid: 5e712202da061804d9d5f4b256a7e116, type: 3}
      game: 2
    - name: "\xBFQu\xE9 hacemos con el dinero?"
      sprite: {fileID: 21300000, guid: 26333c978d23f0241845aad624453f50, type: 3}
      game: 1
    - name: Usamos responsablemente los productos y servicios financieros
      sprite: {fileID: 21300000, guid: b08d8ea41f11cfe4b9fbfe3d38770a1f, type: 3}
      game: 0
    - name: Conformamos nuestro Club de Emprendedores
      sprite: {fileID: 21300000, guid: e9a22665422177f48b7d53acfaab4859, type: 3}
      game: 4
  - name: Organizamos y planificamos nuestros recursos financieros
    sprite: {fileID: 21300000, guid: ef75c88485f177147917c17c02a37ae8, type: 3}
    adas:
    - name: Aprendemos a planificar en la vida diaria
      sprite: {fileID: 21300000, guid: 6b968266a7fd7b04c80dd3e884913a0a, type: 3}
      game: 2
    - name: Planificamos para lograr metas a corto plazo
      sprite: {fileID: 21300000, guid: fdc81f4c0f06a1d4e846489ec39afb9d, type: 3}
      game: 3
    - name: Elaboramos un presupuesto personal
      sprite: {fileID: 21300000, guid: 14c69de4425728a47988345c3b7c4981, type: 3}
      game: 2
    - name: Elaboramos un presupuesto familiar
      sprite: {fileID: 21300000, guid: 3425a78923ae5fa42a7438e6605a2441, type: 3}
      game: 1
    - name: Estrategias de trabajo en equipo para el Club de Emprendedores
      sprite: {fileID: 21300000, guid: d3da16e0c3461404b8b15053df6130b2, type: 3}
      game: 3
  - name: Desarrollamos iniciativas de emprendimiento
    sprite: {fileID: 21300000, guid: f8986ecc3004dd74f97e8289b17da2d8, type: 3}
    adas:
    - name: Identificamos necesidades e ideas emprendedoras
      sprite: {fileID: 21300000, guid: 93cd92a8f5223fa4195a11ec2d0d71e8, type: 3}
      game: 4
    - name: Elaboramos una propuesta de valor
      sprite: {fileID: 21300000, guid: 942630b042544904ea151f750fabe05a, type: 3}
      game: 4
    - name: Elaboramos y validamos el prototipo
      sprite: {fileID: 21300000, guid: b573dcb77e6f6514a963a96909d3b2d0, type: 3}
      game: 3
    - name: Planificamos e implementamos nuestro emprendimiento
      sprite: {fileID: 21300000, guid: 7f2d4d3fb2499384ead04d3dd802d2b5, type: 3}
      game: 2
    - name: Evaluamos nuestro proyecto y su impacto
      sprite: {fileID: 21300000, guid: 4e37beb6ce24f5547a8ed395737c85fd, type: 3}
      game: 4
