%YAML 1.1
%TAG !u! tag:unity3d.com,2011:
--- !u!114 &11400000
MonoBehaviour:
  m_ObjectHideFlags: 0
  m_CorrespondingSourceObject: {fileID: 0}
  m_PrefabInstance: {fileID: 0}
  m_PrefabAsset: {fileID: 0}
  m_GameObject: {fileID: 0}
  m_Enabled: 1
  m_EditorHideFlags: 0
  m_Script: {fileID: 11500000, guid: 4927878a7a3f7184c9053bb1da53d7e6, type: 3}
  m_Name: 8
  m_EditorClassIdentifier: 
  edas:
  - name: Nos valoramos y trazamos nuestras metas
    sprite: {fileID: 21300000, guid: 9861c4f95c96e4540a00159088553291, type: 3}
    adas:
    - name: Nos conocemos y respetamos
      sprite: {fileID: 21300000, guid: 06f8ec17c3663e845a20b3b2f8061673, type: 3}
      game: 1
    - name: "Manejamos las emociones con empat\xEDa y asertividad"
      sprite: {fileID: 21300000, guid: 95f4470a8660e6a44816560f3503e7dd, type: 3}
      game: 0
    - name: Nos adaptamos a los cambios y somos tolerantes
      sprite: {fileID: 21300000, guid: 3aa8827027905304faa0b9a78709e408, type: 3}
      game: 2
    - name: Analizamos conflictos y buscamos soluciones
      sprite: {fileID: 21300000, guid: 60a5b913c4c06594a9987fcbafc67b37, type: 3}
      game: 1
    - name: Preparamos nuestro plan de vida
      sprite: {fileID: 21300000, guid: 2e33bd21b47dac54aad1d69db8e6bcbb, type: 3}
      game: 4
  - name: Nos informamos acerca de la cadena productiva
    sprite: {fileID: 21300000, guid: 93f6a5ce13a02874d8638161cad5e2e9, type: 3}
    adas:
    - name: "Conocemos los procesos econ\xF3micos y los factores de producci\xF3n"
      sprite: {fileID: 21300000, guid: 019db798c627f9c4bae3a8bde2ce276d, type: 3}
      game: 2
    - name: Formulamos presupuestos para invertir
      sprite: {fileID: 21300000, guid: a96a1ee10a254f647a30c0a987b1270d, type: 3}
      game: 1
    - name: Conocemos los derechos de autor
      sprite: {fileID: 21300000, guid: 1304c47086f048c4f9479cfb0384bc68, type: 3}
      game: 3
    - name: 'Ejercemos nuestros derechos: el libro de reclamaciones'
      sprite: {fileID: 21300000, guid: c163ce18478015547a043ede6a7e5b57, type: 3}
      game: 1
    - name: "Prevenci\xF3n de la violencia econ\xF3mica"
      sprite: {fileID: 21300000, guid: 3b0f77598f8e2e242999d742afae0544, type: 3}
      game: 4
  - name: Conocemos el sistema financiero y tomamos decisiones
    sprite: {fileID: 21300000, guid: b25ff435b02d7f44e867750a91086161, type: 3}
    adas:
    - name: "Diferenciamos ahorro, gasto e inversi\xF3n"
      sprite: {fileID: 21300000, guid: 0922e08524719624580f060bfed93006, type: 3}
      game: 0
    - name: "Nos informamos acerca del cr\xE9dito y sus requisitos"
      sprite: {fileID: 21300000, guid: 3ec475b5f5fc20a41b40ed4863151b31, type: 3}
      game: 1
    - name: Conocemos la SBS y los riesgos financieros
      sprite: {fileID: 21300000, guid: 4563c3ff6450dd140a434bb175ca9bd6, type: 3}
      game: 3
    - name: "Asumimos una posici\xF3n frente a la informalidad financiera"
      sprite: {fileID: 21300000, guid: aa10d71f71a4f7e469e702b35e879817, type: 3}
      game: 4
    - name: Conformamos nuestro Club de Emprendedores y asumimos responsabilidades
      sprite: {fileID: 21300000, guid: c0faf8ed8787903469066c60b855328c, type: 3}
      game: 4
  - name: Nos preparamos para lograr nuestras metas en equipo
    sprite: {fileID: 21300000, guid: 7910a0a8a76faaa4aa6ca375abe9ed34, type: 3}
    adas:
    - name: Reconocemos la importancia de los objetivos SMART
      sprite: {fileID: 21300000, guid: 8517f348eb1a43c4abfd60c3221e456a, type: 3}
      game: 3
    - name: Planificamos metas de largo plazo
      sprite: {fileID: 21300000, guid: c7a4603aaa4700c4ba6b692648652b0b, type: 3}
      game: 4
    - name: Elaboramos un presupuesto personal
      sprite: {fileID: 21300000, guid: 6f8af08114793e649937756f00b72395, type: 3}
      game: 2
    - name: Elaboramos un presupuesto colectivo
      sprite: {fileID: 21300000, guid: 512a7ba85bf535146882ca7eddf30544, type: 3}
      game: 1
    - name: "C\xF3mo trabajar cooperativamente en el Club de Emprendedores"
      sprite: {fileID: 21300000, guid: 777e7e0e3269744478407807ff475267, type: 3}
      game: 3
  - name: Trabajamos cooperativamente en nuestro proyecto de emprendimiento
    sprite: {fileID: 21300000, guid: 184b3594ed9ffb24a934457ae676767a, type: 3}
    adas:
    - name: "Recogemos informaci\xF3n del mapa de empat\xEDa, design thinking y entrevistas"
      sprite: {fileID: 21300000, guid: e1e80254aae9a9841b2a6bf20a094e94, type: 3}
      game: 2
    - name: Creamos una propuesta de valor
      sprite: {fileID: 21300000, guid: c8c6ca0f1ef51a040a07d8e7df4c288f, type: 3}
      game: 0
    - name: Elaboramos y validamos nuestro prototipo
      sprite: {fileID: 21300000, guid: b1b85b3372427d845b6d04f1c6d1d55e, type: 3}
      game: 3
    - name: Planificamos nuestro emprendimiento
      sprite: {fileID: 21300000, guid: 95c86899923de664f8b4eec0ac198b6b, type: 3}
      game: 2
    - name: Realizamos nuestro proyecto y evaluamos su impacto
      sprite: {fileID: 21300000, guid: 0095f93339e4d2b409e111f097ae3490, type: 3}
      game: 4
