%YAML 1.1
%TAG !u! tag:unity3d.com,2011:
--- !u!114 &11400000
MonoBehaviour:
  m_ObjectHideFlags: 0
  m_CorrespondingSourceObject: {fileID: 0}
  m_PrefabInstance: {fileID: 0}
  m_PrefabAsset: {fileID: 0}
  m_GameObject: {fileID: 0}
  m_Enabled: 1
  m_EditorHideFlags: 0
  m_Script: {fileID: 11500000, guid: 4189e3028d1f4f648962fd11688eee3d, type: 3}
  m_Name: data
  m_EditorClassIdentifier: 
  questions:
  - quizType: 1
    title: 
    text: "En diciembre, la t\xEDa de Sa\xFAl elabora el presupuesto de su negocio
      para el siguiente a\xF1o. \xBFQu\xE9 se puede afirmar sobre ella?"
    imageCode: 
    answers:
    - text: No se preocupa por cuidar su dinero.
      isCorrect: 0
    - text: Es una mujer que controla sus gastos.
      isCorrect: 1
    - text: Se preocupa por no hacer gastos innecesarios.
      isCorrect: 1
  - quizType: 0
    title: 
    text: "La madre y el padre de Sa\xFAl elaboran juntos la lista de sus gastos.
      \xBFCu\xE1l de estos gastos pertenecen al rubro de manutenci\xF3n?"
    imageCode: 
    answers:
    - text: 'Verduras y frutas '
      isCorrect: 1
    - text: Pasajes para el trabajo
      isCorrect: 0
    - text: Recibo de luz
      isCorrect: 0
  - quizType: 0
    title: 
    text: "El padre de Sa\xFAl utiliz\xF3 un ingreso adicional para comprar una televisi\xF3n
      nueva porque la anterior era muy peque\xF1a. \xBFQu\xE9 tipo de gasto realiz\xF3?"
    imageCode: 
    answers:
    - text: Gasto necesario
      isCorrect: 0
    - text: Gasto importante, pero no indispensable
      isCorrect: 0
    - text: Gasto no necesario
      isCorrect: 1
  - quizType: 0
    title: 
    text: "La madre de Sa\xFAl ir\xE1 al oftalm\xF3logo para realizarse una nueva
      medida de su vida. \xBFQu\xE9 tipo de gasto realizar\xE1?"
    imageCode: 
    answers:
    - text: Gasto necesario
      isCorrect: 1
    - text: Gasto importante, pero no indispensable
      isCorrect: 0
    - text: Gasto no necesario
      isCorrect: 0
  - quizType: 0
    title: 
    text: "El t\xEDo de Sa\xFAl invierte sus ganancias extras en viajes para sus
      vacaciones. De este modo, puede descansar y se siente mejor. \xBFQu\xE9 tipo
      de gasto realiza?"
    imageCode: 
    answers:
    - text: Gasto necesario
      isCorrect: 0
    - text: Gasto importante, pero no indispensable
      isCorrect: 1
    - text: Gasto no necesario
      isCorrect: 0
  - quizType: 1
    title: 
    text: "La prima de Sa\xFAl, que ya trabaja, empezar\xE1 a estudiar en un instituto.
      \xBFQu\xE9 podr\xEDas recomendarle para que cumpla con su meta?"
    imageCode: 
    answers:
    - text: Evitar los gastos innecesarios
      isCorrect: 1
    - text: Hacer una lista detallada de sus ingresos y gastos
      isCorrect: 1
    - text: No preocuparse por nada y solo estudiar
      isCorrect: 0
  - quizType: 0
    title: 
    text: "Durante el mes, la mam\xE1 de Sa\xFAl gast\xF3 en taxis varios d\xEDas,
      pues se qued\xF3 dormida o no calcul\xF3 su tiempo adecuadamente. \xBFQu\xE9
      tipo de gasto es?"
    imageCode: 
    answers:
    - text: Gasto necesario
      isCorrect: 0
    - text: Gasto importante, pero no indispensable
      isCorrect: 0
    - text: Gasto no necesario
      isCorrect: 1
  - quizType: 0
    title: 
    text: "Sa\xFAl quiere saber qu\xE9 gastos se pueden evitar en su casa para ahorrar.
      Ay\xFAdalo a escoger los adecuados."
    imageCode: 
    answers:
    - text: Alimentos
      isCorrect: 0
    - text: Pelota nueva
      isCorrect: 1
    - text: Recibo de luz
      isCorrect: 0
  - quizType: 0
    title: 
    text: "\xBFCu\xE1l de estas afirmaciones sobre el uso de los ingresos es incorrecta?"
    imageCode: 
    answers:
    - text: "Los ingresos deben usarse adecuadamente para cubrir nuestras necesidades
        b\xE1sicas."
      isCorrect: 0
    - text: "Cada quien decide c\xF3mo gastar sus ingresos, aunque no pueda cubrir
        sus necesidades. "
      isCorrect: 1
    - text: "Si s\xE9 c\xF3mo usar mis ingresos, puedo ahorrar para metas o situaciones
        de emergencia. "
      isCorrect: 0
  - quizType: 0
    title: 
    text: "\u201CSi no me queda un sol a fin de mes no me afecta, pues siempre puedo
      pedir prestado\u201D, dijo un vecino de Sa\xFAl. \xBFCrees que tiene raz\xF3n?"
    imageCode: 
    answers:
    - text: "S\xED, porque, con el pr\xE9stamo, solucionas tus problemas de dinero."
      isCorrect: 0
    - text: "No, porque esto soluciona moment\xE1neamente el problema y genera m\xE1s
        deudas."
      isCorrect: 1
