%YAML 1.1
%TAG !u! tag:unity3d.com,2011:
--- !u!114 &11400000
MonoBehaviour:
  m_ObjectHideFlags: 0
  m_CorrespondingSourceObject: {fileID: 0}
  m_PrefabInstance: {fileID: 0}
  m_PrefabAsset: {fileID: 0}
  m_GameObject: {fileID: 0}
  m_Enabled: 1
  m_EditorHideFlags: 0
  m_Script: {fileID: 11500000, guid: 4189e3028d1f4f648962fd11688eee3d, type: 3}
  m_Name: data
  m_EditorClassIdentifier: 
  questions:
  - quizType: 0
    title: El rol del estado en la economia
    text: "La funci\xF3n del Estado en la econom\xEDa solo es recaudar impuestos.
      \xBFEsto es verdadero o falso?"
    imageCode: 
    answers:
    - text: Verdadero
      isCorrect: 0
    - text: Falso
      isCorrect: 1
  - quizType: 1
    title: El rol del estado en la economia
    text: "Durante la pandemia, el Estado otorg\xF3 bonos a las familias y a las
      empresas. \xBFPor qu\xE9 lo hizo?"
    imageCode: 
    answers:
    - text: "Para asegurar que los agentes econ\xF3micos puedan ahorrar."
      isCorrect: 0
    - text: Para asegurar que las familias cubran sus necesidades inmediatas.
      isCorrect: 1
    - text: Para asegurar que las empresas sigan operando durante la pandemia.
      isCorrect: 1
  - quizType: 0
    title: El rol del estado en la economia
    text: "La tienda de los abuelos de Miguel vende productos adulterados, por eso
      han sido sancionados. \xBFQu\xE9 muestra esta acci\xF3n?"
    imageCode: 
    answers:
    - text: "Que el Estado est\xE1 vulnerando los derechos de los abuelos de Miguel."
      isCorrect: 0
    - text: "Que el Estado est\xE1 resguardando que se cumpla con el pago de tributos."
      isCorrect: 0
    - text: "Que el Estado est\xE1 resguardando que las empresas ofrezcan un servicio
        adecuado."
      isCorrect: 1
  - quizType: 0
    title: El rol del estado en la economia
    text: "La mam\xE1 de Miguel pag\xF3 el recibo de internet, pero le cortaron el
      servicio. Llam\xF3 a la empresa, pero no le dan una soluci\xF3n. \xBFQu\xE9
      deber\xEDa hacer?"
    imageCode: 
    answers:
    - text: Realizar un reclamo ante Osiptel.
      isCorrect: 1
    - text: Realizar un reclamo ante Osinergmin.
      isCorrect: 0
    - text: Realizar un reclamo ante Ositran.
      isCorrect: 0
  - quizType: 0
    title: El rol del estado en la economia
    text: "\xBFQu\xE9 son las entidades reguladoras?"
    imageCode: 
    answers:
    - text: Son las empresas estatales que ofrecen bienes y servicios a los ciudadanos.
      isCorrect: 0
    - text: Son instituciones encargadas de velar por tus derechos al acceder a un
        servicio.
      isCorrect: 1
    - text: Son las instituciones encargadas de velar tus responsabilidades al adquirir
        un bien.
      isCorrect: 0
  - quizType: 1
    title: El rol del estado en la economia
    text: "\xBFCu\xE1l o cu\xE1les de las siguientes instituciones son entes reguladores?"
    imageCode: 
    answers:
    - text: "Organismo Supervisor de Inversi\xF3n Privada en Telecomunicaciones (Osiptel)."
      isCorrect: 1
    - text: "Organismo Supervisor de la Inversi\xF3n en Infraestructura de Transporte
        de Uso P\xFAblico (Ositran)."
      isCorrect: 1
    - text: "Superintendencia Nacional de Registros P\xFAblicos (Sunarp)."
      isCorrect: 0
  - quizType: 1
    title: El rol del estado en la economia
    text: "El Estado establece que los trabajadores independientes deben emitir recibos
      por honorarios. \xBFQu\xE9 involucra esto?"
    imageCode: 
    answers:
    - text: "Que el Estado est\xE1 regulando que las actividades econ\xF3micas se
        realicen de acuerdo con las leyes establecidas."
      isCorrect: 1
    - text: "Que el Estado est\xE1 garantizando que las consumidoras y los consumidores
        puedan tener libertad al adquirir un bien o servicio."
      isCorrect: 0
    - text: "Que el Estado est\xE1 promoviendo que las empresas y las personas act\xFAen
        responsablemente con las actividades econ\xF3micas que realizan."
      isCorrect: 1
  - quizType: 0
    title: El rol del estado en la economia
    text: "Al regresar a su colegio Miguel vio que llegaron carpetas nuevas y que
      se entregaron textos escolares a las y los estudiantes. \xBFQui\xE9n lo ha
      hecho y por qu\xE9?"
    imageCode: 
    answers:
    - text: "El Estado porque una de sus funciones es brindar bienes p\xFAblicos."
      isCorrect: 1
    - text: "Las empresas porque as\xED garantizan el desarrollo de la regi\xF3n."
      isCorrect: 0
    - text: Las familias porque son las responsables del bienestar de sus hijos.
      isCorrect: 0
  - quizType: 0
    title: El rol del estado en la economia
    text: "El Estado garantiza que las familias y empresas tengan la libertad de
      producir y comprar libremente en el mercado. \xBFEsto es verdadero o falso?"
    imageCode: 
    answers:
    - text: Verdadero
      isCorrect: 1
    - text: Falso
      isCorrect: 0
  - quizType: 0
    title: El rol del estado en la economia
    text: "El Estado ha establecido que los productos procesados deben tener unas
      etiquetas conocidas como \u201Coct\xF3gonos\u201D. \xBFQu\xE9 est\xE1 haciendo
      el Estado?"
    imageCode: 
    answers:
    - text: "Est\xE1 estableciendo normas para regular los insumos de los productos
        que consumimos."
      isCorrect: 1
    - text: "Una funci\xF3n que realiza brindando bienes y servicios para el bienestar
        de la poblaci\xF3n."
      isCorrect: 0
    - text: "Est\xE1 generando el desarrollo econ\xF3mico en todas las regiones del
        Per\xFA."
      isCorrect: 0
