%YAML 1.1
%TAG !u! tag:unity3d.com,2011:
--- !u!114 &11400000
MonoBehaviour:
  m_ObjectHideFlags: 0
  m_CorrespondingSourceObject: {fileID: 0}
  m_PrefabInstance: {fileID: 0}
  m_PrefabAsset: {fileID: 0}
  m_GameObject: {fileID: 0}
  m_Enabled: 1
  m_EditorHideFlags: 0
  m_Script: {fileID: 11500000, guid: 4189e3028d1f4f648962fd11688eee3d, type: 3}
  m_Name: data
  m_EditorClassIdentifier: 
  questions:
  - quizType: 0
    title: Nos regulamos y motivamos
    text: 'Las emociones son:'
    imageCode: 
    answers:
    - text: "respuestas o reacciones fisiol\xF3gicas ante ciertas situaciones."
      isCorrect: 0
    - text: "respuestas o reacciones fisiol\xF3gicas ante est\xEDmulos que aparecen
        en nuestro entorno y en nosotros mismos."
      isCorrect: 1
    - text: respuestas o reacciones que aparecen en el entorno de otras personas.
      isCorrect: 0
  - quizType: 0
    title: Nos regulamos y motivamos
    text: "Los sentimientos es la uni\xF3n de:"
    imageCode: 
    answers:
    - text: "emoci\xF3n + pensamiento"
      isCorrect: 1
    - text: "emoci\xF3n + sentimiento"
      isCorrect: 0
    - text: "emoci\xF3n + solidaridad"
      isCorrect: 0
  - quizType: 0
    title: Nos regulamos y motivamos
    text: "Mariana tiene mucho miedo de viajar en avi\xF3n, ya que uno de sus familiares
      tuvo un accidente. El miedo es un:"
    imageCode: 
    answers:
    - text: sentimiento
      isCorrect: 1
    - text: accionar
      isCorrect: 0
    - text: pensamiento
      isCorrect: 0
  - quizType: 0
    title: Nos regulamos y motivamos
    text: "Mar\xEDa tiene una peque\xF1a ONG que ayuda a las personas de edad avanzada.
      Un d\xEDa lleg\xF3 una persona al albergue con un problema de c\xE1ncer terminal.
      Ella se sinti\xF3 muy triste. La tristeza es:"
    imageCode: 
    answers:
    - text: sentimiento
      isCorrect: 0
    - text: "emoci\xF3n"
      isCorrect: 1
    - text: pensamiento
      isCorrect: 0
  - quizType: 0
    title: Nos regulamos y motivamos
    text: Nuestras emociones y sentimientos nos hacen decir o actuar impulsivamente;
      por ello, debemos aprender a _______________.
    imageCode: 
    answers:
    - text: regularlos y manejarlos
      isCorrect: 1
    - text: escuchar los pensamientos
      isCorrect: 0
    - text: seguir sin pensar nuestras acciones.
      isCorrect: 0
  - quizType: 0
    title: Nos regulamos y motivamos
    text: "Alessio no tiene un muy buen d\xEDa y es consciente de ello. Ese d\xEDa
      un amigo le dice una broma, e internamente le hace enfadar. Sin embargo, \xE9l
      decide no presentar una reacci\xF3n de ira y opta por decirle a su amigo que
      hoy no se encuentra muy bien. Esta actitud de Alessio es parte de:"
    imageCode: 
    answers:
    - text: "autorregulaci\xF3n emocional"
      isCorrect: 1
    - text: "autorregulaci\xF3n de aprendizaje"
      isCorrect: 0
    - text: "autorregulaci\xF3n de conducta"
      isCorrect: 0
  - quizType: 0
    title: Nos regulamos y motivamos
    text: "Se entiende como _______________ a un elemento b\xE1sico que es el conocimiento
      sobre nuestra propia persona, caracter\xEDsticas, puntos fuertes y d\xE9biles."
    imageCode: 
    answers:
    - text: autoconocimiento
      isCorrect: 1
    - text: "autorregulaci\xF3n"
      isCorrect: 0
    - text: autoridad
      isCorrect: 0
  - quizType: 0
    title: Nos regulamos y motivamos
    text: "Mariano est\xE1 muy enojado porque tuvo que cambiar de horario de trabajo
      con otro compa\xF1ero porque \xE9l hab\xEDa pedido permiso para viajar. Para
      autorregular esta emoci\xF3n necesita:"
    imageCode: 
    answers:
    - text: "expresar a tiempo c\xF3mo nos hace sentir dicha emoci\xF3n."
      isCorrect: 1
    - text: actuar impulsivamente.
      isCorrect: 0
    - text: actuar de acuerdo con lo que hemos pensado.
      isCorrect: 0
  - quizType: 2
    title: Nos regulamos y motivamos
    text: 
    imageCode: 
    answers:
    - text: "respiraci\xF3n pausada consiste en respirar y calmarnos"
      isCorrect: 0
    - text: distanciamiento temporal consiste en tomarnos un tiempo para pensar lo
        ocurrido en un lugar alejado de donde se produjo.
      isCorrect: 1
    - text: "reestructuraci\xF3n cognitiva consiste en reemplazar los pensamientos
        negativos por los positivos. As\xED miramos los acontecimientos desde otro
        punto de vista."
      isCorrect: 1
  - quizType: 0
    title: Nos regulamos y motivamos
    text: "Consiste en poner atenci\xF3n al aire que ingresa y sale de nuestro cuerpo,
      con lo que se busca disminuir la intensidad de las emociones y calmarnos."
    imageCode: 
    answers:
    - text: "regulaci\xF3n pausada"
      isCorrect: 1
    - text: distanciamiento temporal
      isCorrect: 0
    - text: "reestructuraci\xF3n cognitiva"
      isCorrect: 0
