%YAML 1.1
%TAG !u! tag:unity3d.com,2011:
--- !u!114 &11400000
MonoBehaviour:
  m_ObjectHideFlags: 0
  m_CorrespondingSourceObject: {fileID: 0}
  m_PrefabInstance: {fileID: 0}
  m_PrefabAsset: {fileID: 0}
  m_GameObject: {fileID: 0}
  m_Enabled: 1
  m_EditorHideFlags: 0
  m_Script: {fileID: 11500000, guid: 4189e3028d1f4f648962fd11688eee3d, type: 3}
  m_Name: data
  m_EditorClassIdentifier: 
  questions:
  - quizType: 0
    title: "Tomamos posici\xF3n frente a los riesgos de la informalidad financiera"
    text: "\xBFLos pr\xE9stamos informales son un riesgo para las personas?"
    imageCode: 
    answers:
    - text: No, muchas personas los utilizan sin dificultades.
      isCorrect: 0
    - text: No, son seguros, y casi siempre se hacen en una red social.
      isCorrect: 0
    - text: "S\xED, pueden hacerle perder su patrimonio a las personas."
      isCorrect: 1
  - quizType: 0
    title: "Tomamos posici\xF3n frente a los riesgos de la informalidad financiera"
    text: "\xBFPorqu\xE9 la informalidad financiera no es recomendable?"
    imageCode: 
    answers:
    - text: Porque realizan actividades no autorizadas por la SBS.
      isCorrect: 1
    - text: Porque los bancos y financieras autorizadas no quieren competencia
      isCorrect: 0
    - text: "Porque la SBS no quiere que la gente de bajos recursos acceda a sus
        pr\xE9stamos."
      isCorrect: 0
  - quizType: 0
    title: "Tomamos posici\xF3n frente a los riesgos de la informalidad financiera"
    text: 'La informalidad financiera:'
    imageCode: 
    answers:
    - text: "Permite disponer de dinero de forma r\xE1pida y segura."
      isCorrect: 0
    - text: "Atenta contra la seguridad y bienestar econ\xF3mico de las personas."
      isCorrect: 1
    - text: "Genera grandes ganancias a trav\xE9s de sus inversiones."
      isCorrect: 0
  - quizType: 0
    title: "Tomamos posici\xF3n frente a los riesgos de la informalidad financiera"
    text: 'Son actividades financieras informales comunes:'
    imageCode: 
    answers:
    - text: "Las pir\xE1mides financieras y los corredores de inversiones no autorizados."
      isCorrect: 1
    - text: "Los pr\xE9stamos de las cooperativas y financieras supervisadas."
      isCorrect: 0
    - text: "Las inversiones a trav\xE9s de Sociedades Agentes de Bolsa (SAB)."
      isCorrect: 0
  - quizType: 0
    title: "Tomamos posici\xF3n frente a los riesgos de la informalidad financiera"
    text: "En una pir\xE1mide financiera es habitual:"
    imageCode: 
    answers:
    - text: Que todos los participantes ganen mucho dinero.
      isCorrect: 0
    - text: Que el estafador fugue con el dinero captado.
      isCorrect: 1
    - text: Que no haya muchos participantes.
      isCorrect: 0
  - quizType: 0
    title: "Tomamos posici\xF3n frente a los riesgos de la informalidad financiera"
    text: "Responde V (verdadero) o F (falso): Un esquema Ponzi es una operaci\xF3n
      informal que le paga intereses a quien invierte con su propio dinero invertido
      o con el dinero de nuevos inversionistas."
    imageCode: 
    answers:
    - text: V
      isCorrect: 1
    - text: F
      isCorrect: 0
  - quizType: 0
    title: "Tomamos posici\xF3n frente a los riesgos de la informalidad financiera"
    text: "\xBFPor qu\xE9 las personas realizan actividades financieras informales?"
    imageCode: 
    answers:
    - text: Porque los bancos y financieras supervisadas no los atienden.
      isCorrect: 0
    - text: Porque al hacerse por internet no tienen que ir a ninguna oficina.
      isCorrect: 0
    - text: "Porque se exigen menos requisitos y no hay supervisi\xF3n ni control."
      isCorrect: 1
  - quizType: 0
    title: "Tomamos posici\xF3n frente a los riesgos de la informalidad financiera"
    text: "Una caracter\xEDstica de las actividades financieras informales es:"
    imageCode: 
    answers:
    - text: "Los intereses para pr\xE9stamos son menores que en los bancos."
      isCorrect: 0
    - text: "Que las operaciones se hacen por correo electr\xF3nico o una red social."
      isCorrect: 1
    - text: "Sus empleados son f\xE1ciles de ubicar"
      isCorrect: 0
  - quizType: 0
    title: "Tomamos posici\xF3n frente a los riesgos de la informalidad financiera"
    text: "Una recomendaci\xF3n de la SBS para cuidarnos de la informalidad financiera
      es:"
    imageCode: 
    answers:
    - text: Verificar que la entidad financiera sea supervisada por la SBS.
      isCorrect: 1
    - text: "Buscar a otras personas para que tambi\xE9n hagan operariones con ellos."
      isCorrect: 0
    - text: Comprobar que las ganancias sean altas y que se paguen en corto tiempo.
      isCorrect: 0
  - quizType: 0
    title: "Tomamos posici\xF3n frente a los riesgos de la informalidad financiera"
    text: 'La promesa de grandes ganancias en poco tiempo es:'
    imageCode: 
    answers:
    - text: "Interesante, ahora que la situaci\xF3n econ\xF3mica es complicada."
      isCorrect: 0
    - text: "Atractivo, pues si la inversi\xF3n es peque\xF1a, vale la pena."
      isCorrect: 0
    - text: "Arriesgado, ning\xFAn negocio es extremadamente rentable para pagar
        tanto."
      isCorrect: 1
