%YAML 1.1
%TAG !u! tag:unity3d.com,2011:
--- !u!114 &11400000
MonoBehaviour:
  m_ObjectHideFlags: 0
  m_CorrespondingSourceObject: {fileID: 0}
  m_PrefabInstance: {fileID: 0}
  m_PrefabAsset: {fileID: 0}
  m_GameObject: {fileID: 0}
  m_Enabled: 1
  m_EditorHideFlags: 0
  m_Script: {fileID: 11500000, guid: 4189e3028d1f4f648962fd11688eee3d, type: 3}
  m_Name: data
  m_EditorClassIdentifier: 
  questions:
  - quizType: 0
    title: Todas y todos tenemos fortalezas
    text: "\xBFCu\xE1l de las siguientes alternativas describe correctamente las
      habilidades?"
    imageCode: 
    answers:
    - text: Son las actividades en las que destacamos por las capacidades que tenemos.
      isCorrect: 1
    - text: "Son las caracter\xEDsticas en nuestra forma de ser y que se consideran
        positivas."
      isCorrect: 0
    - text: "Son nuestras caracter\xEDsticas f\xEDsicas que se ven a simple vista."
      isCorrect: 0
  - quizType: 0
    title: Todas y todos tenemos fortalezas
    text: "A Sergio le gusta cantar y a Bertha pintar.  \xBFPor qu\xE9 les gustan
      cosas diferentes a Sergio y Bertha?"
    imageCode: 
    answers:
    - text: Porque cada persona tiene habilidades diferentes.
      isCorrect: 1
    - text: "Porque las ni\xF1as pintan y los ni\xF1os cantan."
      isCorrect: 0
    - text: Porque Sergio y Bertha van a colegios diferentes.
      isCorrect: 0
  - quizType: 0
    title: Todas y todos tenemos fortalezas
    text: "A Mario le gusta leer, por eso sus padres le obsequiaron un libro. \xBFQu\xE9
      habilidad tiene Mario?"
    imageCode: 
    answers:
    - text: El afecto
      isCorrect: 0
    - text: La lectura
      isCorrect: 1
    - text: El estudio
      isCorrect: 0
  - quizType: 0
    title: Todas y todos tenemos fortalezas
    text: "\xBFC\xF3mo se denominan aquellas caracter\xEDsticas de son parte de tu
      forma de ser que se consideran positivas?"
    imageCode: 
    answers:
    - text: 'Cualidades '
      isCorrect: 1
    - text: Habilidades
      isCorrect: 0
    - text: "Caracter\xEDsticas f\xEDsicas"
      isCorrect: 0
  - quizType: 0
    title: Todas y todos tenemos fortalezas
    text: "Mar\xEDa, al ver a su amiga Sof\xEDa triste, se acerca a preguntarle porque
      est\xE1 as\xED, y luego de escucharla, le da un abrazo. \xBFQu\xE9 cualidades
      tiene Mar\xEDa?"
    imageCode: 
    answers:
    - text: Ella es curiosa
      isCorrect: 0
    - text: "Ella es emp\xE1tica"
      isCorrect: 1
    - text: Ella es indiscreta
      isCorrect: 0
  - quizType: 0
    title: Todas y todos tenemos fortalezas
    text: "Al salir del colegio, Tito espera a Joe, su compa\xF1ero que tiene discapacidad
      visual, para ayudarlo a cruzar la pista. \xBFQu\xE9 cualidad posee Tito?"
    imageCode: 
    answers:
    - text: Tito es creativo
      isCorrect: 0
    - text: Tito es estudioso
      isCorrect: 0
    - text: Tito es solidario
      isCorrect: 1
  - quizType: 0
    title: Todas y todos tenemos fortalezas
    text: "Jorge describe a Julia de la siguiente forma: Ella tiene los ojos negros,
      el cabello lacio y es la m\xE1s alta del sal\xF3n. \xBFQu\xE9 est\xE1 destacando
      Jorge sobre Julia?"
    imageCode: 
    answers:
    - text: Sus cualidades
      isCorrect: 0
    - text: Sus habilidades
      isCorrect: 0
    - text: "Sus caracter\xEDsticas f\xEDsicas"
      isCorrect: 1
  - quizType: 0
    title: Todas y todos tenemos fortalezas
    text: "\xBFCu\xE1l de las siguientes afirmaciones es correcta?"
    imageCode: 
    answers:
    - text: Todas las personas somos iguales porque tenemos las mismas cualidades
        y habilidades.
      isCorrect: 0
    - text: Cada persona tiene habilidades y cualidades que la diferencian y la hacen
        especial.
      isCorrect: 1
    - text: 'Algunas personas tienen cualidades diferentes, pero habilidades comunes
        al resto. '
      isCorrect: 0
  - quizType: 0
    title: Todas y todos tenemos fortalezas
    text: "Tania quiere aprender a tocar guitarra, por eso est\xE1 buscando tutoriales
      en Internet. \xBFQu\xE9 meta se ha propuesto Tania?"
    imageCode: 
    answers:
    - text: Aprender a tocar guitarra
      isCorrect: 1
    - text: "Escuchar m\xFAsica"
      isCorrect: 0
    - text: Ver tutoriales
      isCorrect: 0
  - quizType: 0
    title: Todas y todos tenemos fortalezas
    text: "Fernando es responsable con sus estudios y respetuoso con sus compa\xF1eros
      y compa\xF1eras. \xBFQu\xE9 fortalezas posee Fernando?"
    imageCode: 
    answers:
    - text: Ser responsable y respetuoso
      isCorrect: 1
    - text: Ser popular y colaborador
      isCorrect: 0
    - text: Ser ansioso y tolerante
      isCorrect: 0
