%YAML 1.1
%TAG !u! tag:unity3d.com,2011:
--- !u!114 &11400000
MonoBehaviour:
  m_ObjectHideFlags: 0
  m_CorrespondingSourceObject: {fileID: 0}
  m_PrefabInstance: {fileID: 0}
  m_PrefabAsset: {fileID: 0}
  m_GameObject: {fileID: 0}
  m_Enabled: 1
  m_EditorHideFlags: 0
  m_Script: {fileID: 11500000, guid: 4189e3028d1f4f648962fd11688eee3d, type: 3}
  m_Name: data
  m_EditorClassIdentifier: 
  questions:
  - quizType: 0
    title: "Rechazamos la informalidad y la ilegalidad al tomar decisiones econ\xF3micas"
    text: "Por encargo de su profesora, Luis, Laura y Eduardo est\xE1n debatiendo
      sobre el derecho de autor y la pirater\xEDa. \xBFPor qu\xE9 es importante este
      debate?"
    imageCode: 
    answers:
    - text: Porque los libros piratas son mas baratos y conviene comprarlos.
      isCorrect: 0
    - text: "Porque la pirater\xEDa es un delito y hay que saber m\xE1s de ella para
        combatirla."
      isCorrect: 1
    - text: Porque no respetar el derecho de autor solo afecta a algunos.
      isCorrect: 0
  - quizType: 0
    title: "Rechazamos la informalidad y la ilegalidad al tomar decisiones econ\xF3micas"
    text: "\xBFPor qu\xE9 debemos rechazar la informalidad y la ilegalidad como consumidores?"
    imageCode: 
    answers:
    - text: 'Porque afectamos los derechos de otros. '
      isCorrect: 0
    - text: Porque existe un riesgo al consumir bienes o servicios informales o ilegales.
      isCorrect: 0
    - text: Ambas opciones son correctas.
      isCorrect: 1
  - quizType: 0
    title: "Rechazamos la informalidad y la ilegalidad al tomar decisiones econ\xF3micas"
    text: "\xBFQu\xE9 tipo de actividad econ\xF3mica es aquella que no cumple con
      algunas normas del Estado, como el comercio ambulatorio, la construcci\xF3n
      sin licencia o el transporte sin ruta autorizada?"
    imageCode: 
    answers:
    - text: Formal.
      isCorrect: 0
    - text: Informal.
      isCorrect: 1
    - text: Ilegal.
      isCorrect: 0
  - quizType: 0
    title: "Rechazamos la informalidad y la ilegalidad al tomar decisiones econ\xF3micas"
    text: "La falsificaci\xF3n o adulteraci\xF3n de medicinas es una actividad:"
    imageCode: 
    answers:
    - text: Formal.
      isCorrect: 0
    - text: Informal.
      isCorrect: 0
    - text: Ilegal.
      isCorrect: 1
  - quizType: 0
    title: "Rechazamos la informalidad y la ilegalidad al tomar decisiones econ\xF3micas"
    text: 'Registrar una empresa o incluir trabajadores en planilla son actividades:'
    imageCode: 
    answers:
    - text: Formales.
      isCorrect: 1
    - text: Informales.
      isCorrect: 0
    - text: Ilegales.
      isCorrect: 0
  - quizType: 0
    title: "Rechazamos la informalidad y la ilegalidad al tomar decisiones econ\xF3micas"
    text: La propiedad intelectual incluye a.
    imageCode: 
    answers:
    - text: Todos los descubrimientos del ser humano.
      isCorrect: 0
    - text: Todas las creaciones del intelecto humano.
      isCorrect: 1
    - text: Todos los productos usados por el hombre.
      isCorrect: 0
  - quizType: 0
    title: "Rechazamos la informalidad y la ilegalidad al tomar decisiones econ\xF3micas"
    text: "El delito de pirater\xEDa contra los derechos de autor ocurre cuando:"
    imageCode: 
    answers:
    - text: "Alguien reproduce sin autorizaci\xF3n un contenido publicado por el
        autor o su editor."
      isCorrect: 1
    - text: "Alguien se roba ejemplares de una librer\xEDa y los vende sin entregar
        factura o boleta. "
      isCorrect: 0
    - text: Alguien consigue un contenido de Internet y lo usa para hacer un trabajo
        del colegio.
      isCorrect: 0
  - quizType: 0
    title: "Rechazamos la informalidad y la ilegalidad al tomar decisiones econ\xF3micas"
    text: El delito de plagio contra los derechos de autor es, principalmente.
    imageCode: 
    answers:
    - text: Esconder una obra que nos sirve para que nadie la pueda usar.
      isCorrect: 0
    - text: Sacar las respuestas de un examen y usarlas sin que nadie nos vea.
      isCorrect: 0
    - text: Copiar los contenidos de otras personas y hacerlos pasar como propios.
      isCorrect: 1
  - quizType: 0
    title: "Rechazamos la informalidad y la ilegalidad al tomar decisiones econ\xF3micas"
    text: "La venta de una prenda de vestir en lugares no autorizados, de calidad
      cuestionable, a precios inferiores y sin garant\xEDas es:"
    imageCode: 
    answers:
    - text: 'Un delito contra la propiedad Industrial '
      isCorrect: 1
    - text: 'Una facilidad para comprar lo que queramos. '
      isCorrect: 0
    - text: Una libertad para consumir lo que podamos pagar.
      isCorrect: 0
  - quizType: 0
    title: "Rechazamos la informalidad y la ilegalidad al tomar decisiones econ\xF3micas"
    text: 'Un delito contra los derechos de propiedad industrial puede ser:

'
    imageCode: 
    answers:
    - text: "Vender productos cuya fecha de vencimiento est\xE1 muy pr\xF3xima."
      isCorrect: 0
    - text: "Utilizar los servicios de un taxi que no est\xE1 registrado en una aplicaci\xF3n
        de tel\xE9fono."
      isCorrect: 0
    - text: Colocar etiquetas de una marca reconocida al vender un producto hecho
        en nuestra casa.
      isCorrect: 1
