%YAML 1.1
%TAG !u! tag:unity3d.com,2011:
--- !u!114 &11400000
MonoBehaviour:
  m_ObjectHideFlags: 0
  m_CorrespondingSourceObject: {fileID: 0}
  m_PrefabInstance: {fileID: 0}
  m_PrefabAsset: {fileID: 0}
  m_GameObject: {fileID: 0}
  m_Enabled: 1
  m_EditorHideFlags: 0
  m_Script: {fileID: 11500000, guid: 4189e3028d1f4f648962fd11688eee3d, type: 3}
  m_Name: data
  m_EditorClassIdentifier: 
  questions:
  - quizType: 0
    title: Las ventajas del ahorro formal
    text: "Yolanda guarda dos soles a la semana con la finalidad de tener el dinero
      suficiente para comprase un cancionero. \xBFQu\xE9 est\xE1 haciendo Yolanda?"
    imageCode: 
    answers:
    - text: "Est\xE1 pensando en un proyecto de vida."
      isCorrect: 0
    - text: "Est\xE1 ahorrando para alcanzar un objetivo."
      isCorrect: 1
    - text: "Est\xE1 utilizando sus habilidades y cualidades."
      isCorrect: 0
  - quizType: 0
    title: Las ventajas del ahorro formal
    text: "El ahorro no solo involucra guardar un porcentaje de nuestros ingresos
      sino tambi\xE9n reducir gastos. \xBFEsto es verdadero o falso?"
    imageCode: 
    answers:
    - text: Verdadero
      isCorrect: 1
    - text: Falso
      isCorrect: 0
  - quizType: 0
    title: Las ventajas del ahorro formal
    text: "Antes de comprar unas zapatillas, Luis va a tres tiendas a preguntar el
      precio. \xBFEsta acci\xF3n es una forma de ahorrar?"
    imageCode: 
    answers:
    - text: "S\xED, porque est\xE1 comparando el precio antes de adquirir un producto."
      isCorrect: 1
    - text: "No, porque solo est\xE1 interesado en comprarse las zapatillas en cualquier
        lado."
      isCorrect: 0
    - text: "Esta acci\xF3n no muestra una intenci\xF3n de ahorro."
      isCorrect: 0
  - quizType: 1
    title: Las ventajas del ahorro formal
    text: "\xBFCu\xE1l o cu\xE1les de las siguientes acciones pueden ayudarte a ahorrar
      tus ingresos personales?"
    imageCode: 
    answers:
    - text: "Antes de comprar algo analiz\xF3 si verdaderamente es una necesidad
        o un deseo."
      isCorrect: 1
    - text: Cada vez que salgo al recreo voy a la tienda escolar a comprar todo lo
        que quiero.
      isCorrect: 0
    - text: "Suelo hacer un presupuesto para saber cu\xE1nto dinero tengo y en qu\xE9
        puedo gastarlo."
      isCorrect: 1
  - quizType: 1
    title: Las ventajas del ahorro formal
    text: "Luis siempre que tiene dinero va a la tienda y compra aquello que le gusta
      sin pensar si es verdad lo necesita. \xBFQu\xE9 muestra esta acci\xF3n?"
    imageCode: 
    answers:
    - text: Luis no es un consumidor responsable.
      isCorrect: 1
    - text: Luis no se ha fijado una meta de ahorro.
      isCorrect: 1
    - text: Luis no es un comprador responsable.
      isCorrect: 0
  - quizType: 1
    title: Las ventajas del ahorro formal
    text: "\xBFCu\xE1l o cu\xE1les de las siguientes acciones nos ayudan a ahorrar
      los gastos por servicios p\xFAblicos en el hogar?"
    imageCode: 
    answers:
    - text: "Aprovecho la luz del d\xEDa para hacer mis tareas en vez de la luz el\xE9ctrica."
      isCorrect: 1
    - text: "Compruebo que todos los ca\xF1os est\xE9n cerrados antes de irme a dormir."
      isCorrect: 1
    - text: "Riego las plantas de mi casa dos veces al d\xEDa."
      isCorrect: 0
  - quizType: 0
    title: Las ventajas del ahorro formal
    text: "\xBFEn qu\xE9 se diferencia un ahorro formal de uno informal?"
    imageCode: 
    answers:
    - text: "El ahorro formal se hace dentro del sistema financiero y el informal
        fuera de \xE9l."
      isCorrect: 1
    - text: "En ahorro formal se hace fuera del sistema financiero y el informal
        dentro de \xE9l."
      isCorrect: 0
    - text: En la cantidad de dinero que se ahorra en el sistema financiero.
      isCorrect: 0
  - quizType: 0
    title: Las ventajas del ahorro formal
    text: "La mam\xE1 de Yolanda y Luis guarda bajo su colch\xF3n un porcentaje de
      su dinero. \xBFQu\xE9 tipo de ahorro est\xE1 realizando?\r"
    imageCode: 
    answers:
    - text: Ahorro formal
      isCorrect: 0
    - text: Ahorro informal
      isCorrect: 1
    - text: "No est\xE1 ahorrando"
      isCorrect: 0
  - quizType: 0
    title: Las ventajas del ahorro formal
    text: "El pap\xE1 de Yolanda y Luis tiene un ahorro formal porque guarda una
      parte de su dinero en el banco. \xBFEsto es verdadero o falso?"
    imageCode: 
    answers:
    - text: Verdadero
      isCorrect: 1
    - text: Falso
      isCorrect: 0
  - quizType: 1
    title: Las ventajas del ahorro formal
    text: "\xBFQu\xE9 consejos le dar\xEDas a una persona para convencerlo que deje
      de ahorrar informalmente?"
    imageCode: 
    answers:
    - text: Ahorrar en una entidad financiera te da mayor seguridad.
      isCorrect: 1
    - text: Ahorrar en una entidad financiera te da un respaldo ante eventualidades.
      isCorrect: 1
    - text: "Ahorrar en una entidad financiera te permite usar los cajeros autom\xE1ticos."
      isCorrect: 0
