%YAML 1.1
%TAG !u! tag:unity3d.com,2011:
--- !u!114 &11400000
MonoBehaviour:
  m_ObjectHideFlags: 0
  m_CorrespondingSourceObject: {fileID: 0}
  m_PrefabInstance: {fileID: 0}
  m_PrefabAsset: {fileID: 0}
  m_GameObject: {fileID: 0}
  m_Enabled: 1
  m_EditorHideFlags: 0
  m_Script: {fileID: 11500000, guid: 4189e3028d1f4f648962fd11688eee3d, type: 3}
  m_Name: data
  m_EditorClassIdentifier: 
  questions:
  - quizType: 0
    title: "Resolvemos los conflictos con la conciliaci\xF3n y el arbitraje"
    text: "______________ son situaciones entre dos o m\xE1s personas de un grupo,
      ocasionado por un choque de intereses, valores o ideas."
    imageCode: 
    answers:
    - text: estrategias
      isCorrect: 0
    - text: conflictos
      isCorrect: 1
    - text: dificultades
      isCorrect: 0
  - quizType: 0
    title: "Resolvemos los conflictos con la conciliaci\xF3n y el arbitraje"
    text: "De las siguientes afirmaciones, cu\xE1l no podr\xEDa considerarse un aporte
      de los conflictos:"
    imageCode: 
    answers:
    - text: "nos permiten identificar las dificultades en la toma de decisiones para
        as\xED mejorarla"
      isCorrect: 0
    - text: "nos permiten conocernos como equipo y entender a las y los dem\xE1s."
      isCorrect: 1
    - text: nos permite conocer nuestras opciones para tomar decisiones.
      isCorrect: 0
  - quizType: 0
    title: "Resolvemos los conflictos con la conciliaci\xF3n y el arbitraje"
    text: 'Los conflictos perjudican:'
    imageCode: 
    answers:
    - text: relaciones interpersonales.
      isCorrect: 0
    - text: concretar resultados.
      isCorrect: 0
    - text: ambas respuestas son correctas.
      isCorrect: 1
  - quizType: 0
    title: "Resolvemos los conflictos con la conciliaci\xF3n y el arbitraje"
    text: 'Los conflictos intrapersonales surgen:'
    imageCode: 
    answers:
    - text: como consecuencia de insatisfacciones y contradicciones en las mismas
        personas
      isCorrect: 1
    - text: como consecuencia de satisfacciones y adicciones en las mismas personas
      isCorrect: 0
    - text: como consecuencia de insatisfacciones y contradicciones en las diferentes
        personas
      isCorrect: 0
  - quizType: 0
    title: "Resolvemos los conflictos con la conciliaci\xF3n y el arbitraje"
    text: "En el sal\xF3n de Jos\xE9 se evidencia problemas entre compa\xF1eros por
      diferencia de inter\xE9s. Este tipo de conflicto es:"
    imageCode: 
    answers:
    - text: intrapersonal
      isCorrect: 0
    - text: interpersonal
      isCorrect: 1
    - text: organizacional
      isCorrect: 0
  - quizType: 0
    title: "Resolvemos los conflictos con la conciliaci\xF3n y el arbitraje"
    text: Cuando se habla del conflicto _____________ se relaciona a los problemas
      vinculados con el trabajo, y las relaciones entre grupos e individuos en un
      mismo ambiente laboral.
    imageCode: 
    answers:
    - text: organizacional
      isCorrect: 1
    - text: interpersonal
      isCorrect: 0
    - text: intrapersonal
      isCorrect: 0
  - quizType: 0
    title: "Resolvemos los conflictos con la conciliaci\xF3n y el arbitraje"
    text: 'Las fases de los conflictos son:'
    imageCode: 
    answers:
    - text: la incomodidad, la escalada y la crisis abierta.
      isCorrect: 1
    - text: "la relaci\xF3n, la crisis abierta y la impulsividad."
      isCorrect: 0
    - text: la escucha activa,la escalada, la impulsividad.
      isCorrect: 0
  - quizType: 0
    title: "Resolvemos los conflictos con la conciliaci\xF3n y el arbitraje"
    text: La ____________ se refiere al inicio del conflicto y son respuesta a un
      problema.
    imageCode: 
    answers:
    - text: "tensi\xF3n"
      isCorrect: 1
    - text: escalada
      isCorrect: 0
    - text: crisis abierta
      isCorrect: 0
  - quizType: 0
    title: "Resolvemos los conflictos con la conciliaci\xF3n y el arbitraje"
    text: 'La escalada se refiere al desarrollo de un conflicto que se hace:'
    imageCode: 
    answers:
    - text: cada vez menos grave
      isCorrect: 0
    - text: "cada vez m\xE1s grave"
      isCorrect: 1
    - text: cada vez manejable
      isCorrect: 0
  - quizType: 0
    title: "Resolvemos los conflictos con la conciliaci\xF3n y el arbitraje"
    text: Dos de los mecanismos para resolver los conflictos son la _________________.
    imageCode: 
    answers:
    - text: "conciliaci\xF3n"
      isCorrect: 0
    - text: "conciliaci\xF3n y el arbitraje"
      isCorrect: 1
    - text: "conciliaci\xF3n y el \xE1rbitro"
      isCorrect: 0
