%YAML 1.1
%TAG !u! tag:unity3d.com,2011:
--- !u!687078895 &4343727234628468602
SpriteAtlas:
  m_ObjectHideFlags: 0
  m_CorrespondingSourceObject: {fileID: 0}
  m_PrefabInstance: {fileID: 0}
  m_PrefabAsset: {fileID: 0}
  m_Name: BG Game
  m_EditorData:
    serializedVersion: 2
    textureSettings:
      serializedVersion: 2
      anisoLevel: 1
      compressionQuality: 50
      maxTextureSize: 2048
      textureCompression: 0
      filterMode: 1
      generateMipMaps: 0
      readable: 0
      crunchedCompression: 0
      sRGB: 1
    platformSettings:
    - serializedVersion: 3
      m_BuildTarget: DefaultTexturePlatform
      m_MaxTextureSize: 4096
      m_ResizeAlgorithm: 0
      m_TextureFormat: -1
      m_TextureCompression: 1
      m_CompressionQuality: 50
      m_CrunchedCompression: 0
      m_AllowsAlphaSplitting: 0
      m_Overridden: 0
      m_AndroidETC2FallbackOverride: 0
      m_ForceMaximumCompressionQuality_BC6H_BC7: 0
    packingSettings:
      serializedVersion: 2
      padding: 4
      blockOffset: 1
      allowAlphaSplitting: 0
      enableRotation: 0
      enableTightPacking: 0
    secondaryTextureSettings: {}
    variantMultiplier: 1
    packables:
    - {fileID: 2800000, guid: 2a647e4c33f002d499f7234596e92f13, type: 3}
    - {fileID: 2800000, guid: 601a3dda307d2cc4f97bc351ec6ac457, type: 3}
    bindAsDefault: 1
    isAtlasV2: 0
    cachedData: {fileID: 0}
  m_MasterAtlas: {fileID: 0}
  m_PackedSprites:
  - {fileID: 21300000, guid: 601a3dda307d2cc4f97bc351ec6ac457, type: 3}
  - {fileID: 21300000, guid: 2a647e4c33f002d499f7234596e92f13, type: 3}
  m_PackedSpriteNamesToIndex:
  - BasketballBG2
  - BasketballBG1
  m_RenderDataMap: {}
  m_Tag: BG Game
  m_IsVariant: 0
