%YAML 1.1
%TAG !u! tag:unity3d.com,2011:
--- !u!687078895 &4343727234628468602
SpriteAtlas:
  m_ObjectHideFlags: 0
  m_CorrespondingSourceObject: {fileID: 0}
  m_PrefabInstance: {fileID: 0}
  m_PrefabAsset: {fileID: 0}
  m_Name: GameCanvas
  m_EditorData:
    serializedVersion: 2
    textureSettings:
      serializedVersion: 2
      anisoLevel: 1
      compressionQuality: 50
      maxTextureSize: 2048
      textureCompression: 0
      filterMode: 1
      generateMipMaps: 0
      readable: 0
      crunchedCompression: 0
      sRGB: 1
    platformSettings:
    - serializedVersion: 3
      m_BuildTarget: DefaultTexturePlatform
      m_MaxTextureSize: 1024
      m_ResizeAlgorithm: 0
      m_TextureFormat: -1
      m_TextureCompression: 1
      m_CompressionQuality: 50
      m_CrunchedCompression: 0
      m_AllowsAlphaSplitting: 0
      m_Overridden: 0
      m_AndroidETC2FallbackOverride: 0
      m_ForceMaximumCompressionQuality_BC6H_BC7: 0
    packingSettings:
      serializedVersion: 2
      padding: 4
      blockOffset: 1
      allowAlphaSplitting: 0
      enableRotation: 0
      enableTightPacking: 0
    secondaryTextureSettings: {}
    variantMultiplier: 1
    packables:
    - {fileID: 2800000, guid: bcdbe8c1f4fa7a5499f9a721230e619c, type: 3}
    - {fileID: 2800000, guid: 0b1fe75a3e85ee641a8fe9a1a12933d4, type: 3}
    - {fileID: 2800000, guid: 0cf0032a943058748858404c22d59136, type: 3}
    - {fileID: 2800000, guid: 214c3e066462f03478e89be286c92ef0, type: 3}
    - {fileID: 2800000, guid: e562b0761f96d5549999e7c8508921cd, type: 3}
    - {fileID: 2800000, guid: f8ef48bcad49f7945a6c2bc50bfaee71, type: 3}
    bindAsDefault: 1
    isAtlasV2: 0
    cachedData: {fileID: 0}
  m_MasterAtlas: {fileID: 0}
  m_PackedSprites:
  - {fileID: 21300000, guid: bcdbe8c1f4fa7a5499f9a721230e619c, type: 3}
  - {fileID: 21300000, guid: 214c3e066462f03478e89be286c92ef0, type: 3}
  - {fileID: 21300000, guid: e562b0761f96d5549999e7c8508921cd, type: 3}
  - {fileID: 21300000, guid: 0cf0032a943058748858404c22d59136, type: 3}
  - {fileID: 21300000, guid: 0b1fe75a3e85ee641a8fe9a1a12933d4, type: 3}
  - {fileID: 21300000, guid: f8ef48bcad49f7945a6c2bc50bfaee71, type: 3}
  m_PackedSpriteNamesToIndex:
  - Basquet_caja (2)
  - Basquet_pelota_ (2)
  - Basquet_tablero (3)
  - Basquet_canastaR (2) (2)
  - Basquet_canastaL (2) (2)
  - Heart
  m_RenderDataMap: {}
  m_Tag: GameCanvas
  m_IsVariant: 0
