%YAML 1.1
%TAG !u! tag:unity3d.com,2011:
--- !u!114 &11400000
MonoBehaviour:
  m_ObjectHideFlags: 0
  m_CorrespondingSourceObject: {fileID: 0}
  m_PrefabInstance: {fileID: 0}
  m_PrefabAsset: {fileID: 0}
  m_GameObject: {fileID: 0}
  m_Enabled: 1
  m_EditorHideFlags: 0
  m_Script: {fileID: 11500000, guid: 4189e3028d1f4f648962fd11688eee3d, type: 3}
  m_Name: data
  m_EditorClassIdentifier: 
  questions:
  - quizType: 0
    title: "Ni\xF1as y ni\xF1os nos respetamos"
    text: "Las ni\xF1as y los ni\xF1os tienen los mismos derechos mientras los adultos
      tienen solo responsabilidades. \xBFEsto es verdadero o falso?"
    imageCode: 
    answers:
    - text: Verdadero
      isCorrect: 0
    - text: Falso
      isCorrect: 1
  - quizType: 0
    title: "Ni\xF1as y ni\xF1os nos respetamos"
    text: "Los padres de Andr\xE9s y Ana les dicen que hoy todos ayudar\xE1n a cocinar.
      \xBFQu\xE9 aprenden Andr\xE9s y Luc\xEDa con esta acci\xF3n?"
    imageCode: 
    answers:
    - text: Que todos los miembros de su hogar tienen las misma responsabilidades.
      isCorrect: 1
    - text: Que todos los miembros de su hogar tienen las mismas oportunidades.
      isCorrect: 0
    - text: Que todos los miembros de su hogar tienen aspectos por mejorar.
      isCorrect: 0
  - quizType: 0
    title: "Ni\xF1as y ni\xF1os nos respetamos"
    text: "\xBFCu\xE1l de las siguientes afirmaciones sobre los derechos es correcta?"
    imageCode: 
    answers:
    - text: "Los ni\xF1os tienen derechos y deberes."
      isCorrect: 0
    - text: "NI\xF1as y ni\xF1os tienen los mismos derechos y deberes."
      isCorrect: 1
    - text: "Las ni\xF1as tienen deberes y los ni\xF1os, derechos."
      isCorrect: 0
  - quizType: 0
    title: "Ni\xF1as y ni\xF1os nos respetamos"
    text: "\xBFSolo las personas que asumen responsabilidades y son respetuosas tenemos
      derechos que pueden exigir?"
    imageCode: 
    answers:
    - text: Verdadero
      isCorrect: 0
    - text: Falso
      isCorrect: 1
  - quizType: 0
    title: "Ni\xF1as y ni\xF1os nos respetamos"
    text: "Ana quiere aprender karate, pero Andr\xE9s la desanima dici\xE9ndole que
      es un deporte solo de hombres. \xBFQu\xE9 le dir\xEDas a Ana?"
    imageCode: 
    answers:
    - text: "Las ni\xF1as y los ni\xF1os pueden practicar todos los deportes."
      isCorrect: 1
    - text: "Solo los ni\xF1os tienen derecho a practicar el deporte que m\xE1s les
        guste."
      isCorrect: 0
    - text: "Las ni\xF1as pueden hacer todo lo que ellas quieran."
      isCorrect: 0
  - quizType: 0
    title: "Ni\xF1as y ni\xF1os nos respetamos"
    text: "Andr\xE9s estaba llorando cuando fue a vacunarse contra el COVID-19 hasta
      que escucho: \u201Clos ni\xF1os no lloran\u201D. \xBFQu\xE9 le dir\xEDas a
      Andr\xE9s?"
    imageCode: 
    answers:
    - text: "Todas las ni\xF1as y los ni\xF1os tienen derecho a sentir y expresar
        sus emociones"
      isCorrect: 1
    - text: "Hay diferentes emociones, algunas solo las expresan los ni\xF1os y otras,
        las ni\xF1as."
      isCorrect: 0
    - text: "Ni\xF1as y ni\xF1os tienen las mismas emociones, pero no los mismo derechos
        para expresarlas."
      isCorrect: 0
  - quizType: 1
    title: "Ni\xF1as y ni\xF1os nos respetamos"
    text: "\xBFCu\xE1les de las siguientes acciones muestra que somos respetuosos
      con nuestros compa\xF1eros y compa\xF1eras en el aula de clase?"
    imageCode: 
    answers:
    - text: "Cuando trabajo en equipo suelo imponer mis ideas y no escucho la opini\xF3n
        de los dem\xE1s."
      isCorrect: 0
    - text: "Guardo silencio cuando mis compa\xF1eras y compa\xF1eros comparten sus
        opiniones."
      isCorrect: 1
    - text: "Antes de salir del sal\xF3n me despido de mis compa\xF1eras y compa\xF1eros"
      isCorrect: 1
  - quizType: 1
    title: "Ni\xF1as y ni\xF1os nos respetamos"
    text: "En el recreo Ana compr\xF3 una galleta y tir\xF3 la envoltura en el piso
      del sal\xF3n. \xBFQu\xE9 acuerdos pueden evitar que esto vuelva a pasar?"
    imageCode: 
    answers:
    - text: "Es responsabilidad de todos mantener el sal\xF3n limpio."
      isCorrect: 1
    - text: Debemos botar los desperdicios en el tacho de basura.
      isCorrect: 1
    - text: Debemos evitar hacer ruido al botar la basura.
      isCorrect: 0
  - quizType: 1
    title: "Ni\xF1as y ni\xF1os nos respetamos"
    text: "Andr\xE9s le dice a Luc\xEDa que solo jugar\xE1 futbol con ella si deja
      que \xE9l gane el partido. \xBFPor qu\xE9 Andr\xE9s est\xE1 actuando as\xED? "
    imageCode: 
    answers:
    - text: Porque no respeta las reglas del juego.
      isCorrect: 1
    - text: "Porque no valora la habilidad de Luc\xEDa."
      isCorrect: 1
    - text: Porque no sabe manejar sus emociones.
      isCorrect: 0
  - quizType: 0
    title: "Ni\xF1as y ni\xF1os nos respetamos"
    text: "Andr\xE9s y Ana quedaron en comprar una torta de chocolate, pero al llegar
      a la pasteler\xEDa Ana compr\xF3 una fresa. \xBFQu\xE9 sucedi\xF3?"
    imageCode: 
    answers:
    - text: "Ana no respet\xF3 el acuerdo que ten\xEDa con Andr\xE9s."
      isCorrect: 1
    - text: "Ana se dej\xF3 llevar por sus emociones."
      isCorrect: 0
    - text: "Ana actu\xED impulsivamente."
      isCorrect: 0
