%YAML 1.1
%TAG !u! tag:unity3d.com,2011:
--- !u!687078895 &4343727234628468602
SpriteAtlas:
  m_ObjectHideFlags: 0
  m_CorrespondingSourceObject: {fileID: 0}
  m_PrefabInstance: {fileID: 0}
  m_PrefabAsset: {fileID: 0}
  m_Name: CanvasItems
  m_EditorData:
    serializedVersion: 2
    textureSettings:
      serializedVersion: 2
      anisoLevel: 1
      compressionQuality: 50
      maxTextureSize: 2048
      textureCompression: 0
      filterMode: 1
      generateMipMaps: 0
      readable: 0
      crunchedCompression: 0
      sRGB: 1
    platformSettings:
    - serializedVersion: 3
      m_BuildTarget: DefaultTexturePlatform
      m_MaxTextureSize: 1024
      m_ResizeAlgorithm: 0
      m_TextureFormat: -1
      m_TextureCompression: 1
      m_CompressionQuality: 50
      m_CrunchedCompression: 0
      m_AllowsAlphaSplitting: 0
      m_Overridden: 0
      m_AndroidETC2FallbackOverride: 0
      m_ForceMaximumCompressionQuality_BC6H_BC7: 0
    packingSettings:
      serializedVersion: 2
      padding: 4
      blockOffset: 1
      allowAlphaSplitting: 0
      enableRotation: 0
      enableTightPacking: 0
    secondaryTextureSettings: {}
    variantMultiplier: 1
    packables:
    - {fileID: 2800000, guid: b6a64f2eafb42a64dbed1c4f15444078, type: 3}
    - {fileID: 2800000, guid: f8ef48bcad49f7945a6c2bc50bfaee71, type: 3}
    - {fileID: 2800000, guid: 68bb7d9796f0c0b40a1f58822ed0b363, type: 3}
    - {fileID: 2800000, guid: 22cf63c1672ee6840940a7361de8357c, type: 3}
    - {fileID: 2800000, guid: 02d9d605f02dbac47a9a19d37f290df4, type: 3}
    bindAsDefault: 1
    isAtlasV2: 0
    cachedData: {fileID: 0}
  m_MasterAtlas: {fileID: 0}
  m_PackedSprites:
  - {fileID: 21300000, guid: 22cf63c1672ee6840940a7361de8357c, type: 3}
  - {fileID: 21300000, guid: 02d9d605f02dbac47a9a19d37f290df4, type: 3}
  - {fileID: 21300000, guid: 68bb7d9796f0c0b40a1f58822ed0b363, type: 3}
  - {fileID: 21300000, guid: f8ef48bcad49f7945a6c2bc50bfaee71, type: 3}
  - {fileID: 21300000, guid: b6a64f2eafb42a64dbed1c4f15444078, type: 3}
  m_PackedSpriteNamesToIndex:
  - reloj
  - alcancia
  - bolsa
  - Heart
  - Diamond_
  m_RenderDataMap: {}
  m_Tag: CanvasItems
  m_IsVariant: 0
