%YAML 1.1
%TAG !u! tag:unity3d.com,2011:
--- !u!114 &11400000
MonoBehaviour:
  m_ObjectHideFlags: 0
  m_CorrespondingSourceObject: {fileID: 0}
  m_PrefabInstance: {fileID: 0}
  m_PrefabAsset: {fileID: 0}
  m_GameObject: {fileID: 0}
  m_Enabled: 1
  m_EditorHideFlags: 0
  m_Script: {fileID: 11500000, guid: 4189e3028d1f4f648962fd11688eee3d, type: 3}
  m_Name: data
  m_EditorClassIdentifier: 
  questions:
  - quizType: 1
    title: Formamos parte de una familia
    text: "Al leer el comentario que su amiga hizo en su cuenta de Facebook, Marisol
      la llama para preguntarle si todo est\xE1 bien. \xBFQu\xE9 cualidad muestra?"
    imageCode: 
    answers:
    - text: "Marisol se preocupa por los dem\xE1s, por eso ella es solidaria."
      isCorrect: 1
    - text: "Marisol siente que su amiga no la est\xE1 pasando bien, por eso es emp\xE1tica."
      isCorrect: 1
    - text: Marisol quiere saber lo que ha ocurrido con su amiga, por eso es perseverante.
      isCorrect: 0
  - quizType: 1
    title: Formamos parte de una familia
    text: "Marisol y su pap\xE1 iban sentados en el bus y cuando subi\xF3 un anciano.
      \xC9l inmediatamente le cedi\xF3 el asiento. \xBFQu\xE9 est\xE1 aprendiendo
      ella?   "
    imageCode: 
    answers:
    - text: "Que los ancianos ya no est\xE1n para aprender sino para ense\xF1ar a
        los adultos."
      isCorrect: 0
    - text: "Que las ni\xF1as y los ni\xF1os deben ser respetuosos con las mayores."
      isCorrect: 1
    - text: "Que los padres ense\xF1an con sus actos a sus hijos c\xF3mo comportarse."
      isCorrect: 1
  - quizType: 1
    title: Formamos parte de una familia
    text: "Mientras el pap\xE1 de Marisol prepara el desayuno, su madre alistas su
      lonchera. \xBFQu\xE9 le est\xE1n ense\xF1ando sus padres con esta acci\xF3n?"
    imageCode: 
    answers:
    - text: Que hombres y mujeres tienen las mismas responsabilidades que cumplir
        en el hogar.
      isCorrect: 1
    - text: Que hombres y mujeres deben hacer solo determinadas tareas en el hogar.
      isCorrect: 0
    - text: "Que los padres ense\xF1an con sus actos a sus hijos como comportarse."
      isCorrect: 1
  - quizType: 0
    title: Formamos parte de una familia
    text: "Las familias son todas iguales, est\xE1n compuestas por los padres y los
      hijos. \xBFEsto es verdadero o falso?"
    imageCode: 
    answers:
    - text: Verdadero
      isCorrect: 0
    - text: Falso
      isCorrect: 1
  - quizType: 1
    title: Formamos parte de una familia
    text: "\xBFCu\xE1l o cu\xE1les son algunas de las caracter\xEDsticas de los integrantes
      de las familias?\r"
    imageCode: 
    answers:
    - text: "Sus integrantes est\xE1n unidos por v\xEDnculos de parentesco."
      isCorrect: 1
    - text: "Sus integrantes desarrollan diversos roles y actividades econ\xF3micas."
      isCorrect: 1
    - text: "Sus integrantes pueden estar unidos por v\xEDnculos afectivos."
      isCorrect: 1
  - quizType: 1
    title: Formamos parte de una familia
    text: "El padre de Pablo le est\xE1 ense\xF1ando a hablar quechua para que pueda
      comunicarse con sus abuelos que son quechua hablantes. \xBFQu\xE9 funci\xF3n
      de la familia est\xE1 cumpliendo? "
    imageCode: 
    answers:
    - text: "Est\xE1 cumpliendo la funci\xF3n formadora, al trasmitirle la cultura
        de su localidad."
      isCorrect: 1
    - text: "Est\xE1 cumpliendo la funci\xF3n sociabilizadora, al fortalecer sus
        relaciones entre su familia."
      isCorrect: 1
    - text: "Est\xE1 cumpliendo la funci\xF3n protectora, al brindarle un conocimiento
        exclusivo de su familia."
      isCorrect: 0
  - quizType: 0
    title: Formamos parte de una familia
    text: "Los padres de Pablo lo llevan a vacunarse contra el COVID-19. \xBFQu\xE9
      funci\xF3n est\xE1n cumpliendo los padres de Marisol?"
    imageCode: 
    answers:
    - text: "La funci\xF3n de cuidar y proteger a los miembros de la familia."
      isCorrect: 1
    - text: "La funci\xF3n formadora de todos los miembros de la familia."
      isCorrect: 0
    - text: "La funci\xF3n sociabilizadora de todos los miembros de la familia."
      isCorrect: 0
  - quizType: 0
    title: Formamos parte de una familia
    text: "Los padres de Marisol tienen un taller mec\xE1nico donde trabajan para
      cubrir los gastos de su hogar. \xBFQu\xE9 muestra esta acci\xF3n?"
    imageCode: 
    answers:
    - text: "Los padres de Marisol se esfuerzan por cubrir las necesidades econ\xF3micas
        de su familia."
      isCorrect: 1
    - text: Los padres de Marisol se han propuesto como meta ahorrar todos sus ingresos.
      isCorrect: 0
    - text: Los padres de Marisol se esfuerzan por brindar la estabilidad emocional
        a su familia.
      isCorrect: 0
  - quizType: 1
    title: Formamos parte de una familia
    text: "Pablo estaba en un restaurante y vio a una familia de origen chino usar
      palitos para comer. \xBFQu\xE9 muestra esta acci\xF3n?"
    imageCode: 
    answers:
    - text: "En las familias las tradiciones y costumbres se transmiten de generaci\xF3n
        en generaci\xF3n."
      isCorrect: 1
    - text: Frecuentemente los miembros menores de las familias aprenden de los mayores.
      isCorrect: 1
    - text: Algunas familias tienen problemas para adaptarse a las normas de la sociedad.
      isCorrect: 0
  - quizType: 0
    title: Formamos parte de una familia
    text: "Nuestras caracter\xEDsticas personales se ven influenciada por nuestro
      entorno familiar. \xBFEsto es verdadero o falso? "
    imageCode: 
    answers:
    - text: 'Verdadero '
      isCorrect: 1
    - text: 'Falso '
      isCorrect: 0
