%YAML 1.1
%TAG !u! tag:unity3d.com,2011:
--- !u!114 &11400000
MonoBehaviour:
  m_ObjectHideFlags: 0
  m_CorrespondingSourceObject: {fileID: 0}
  m_PrefabInstance: {fileID: 0}
  m_PrefabAsset: {fileID: 0}
  m_GameObject: {fileID: 0}
  m_Enabled: 1
  m_EditorHideFlags: 0
  m_Script: {fileID: 11500000, guid: 4189e3028d1f4f648962fd11688eee3d, type: 3}
  m_Name: data
  m_EditorClassIdentifier: 
  questions:
  - quizType: 0
    title: "Comprendemos qu\xE9 es una meta"
    text: "\xBFQu\xE9 es para ti una meta?"
    imageCode: 
    answers:
    - text: Es una cinta al final de una carrera.
      isCorrect: 0
    - text: "Es un l\xEDmite que no podemos cruzar."
      isCorrect: 0
    - text: Es un objetivo que deseamos alcanzar.
      isCorrect: 1
  - quizType: 0
    title: "Comprendemos qu\xE9 es una meta"
    text: "Completa esta meta. Si quiero dibujar muy bien debo\u2026 "
    imageCode: 
    answers:
    - text: Tener colores nuevos.
      isCorrect: 0
    - text: 'Practicar mucho. '
      isCorrect: 1
    - text: "Calcar las im\xE1genes de un libro."
      isCorrect: 0
  - quizType: 0
    title: "Comprendemos qu\xE9 es una meta"
    text: "Marca la alternativa correcta. \xBFQu\xE9 debemos considerar al trazar
      una meta?"
    imageCode: 
    answers:
    - text: Que debe adecuarse a nuestra edad.
      isCorrect: 1
    - text: "Que sea f\xE1cil para poder conseguirla."
      isCorrect: 0
    - text: "Que sea dif\xEDcil para hacerla m\xE1s interesante."
      isCorrect: 0
  - quizType: 0
    title: "Comprendemos qu\xE9 es una meta"
    text: "Iv\xE1n quiere comprar una bicicleta nueva, pero con el dinero de sus
      propinas no le alcanza. \xBFTraz\xF3 correctamente su meta?"
    imageCode: 
    answers:
    - text: "Tal vez, porque pens\xF3 que podr\xEDa reunir el dinero."
      isCorrect: 0
    - text: "S\xED, pero se olvid\xF3 que \xE9l no trabaja."
      isCorrect: 0
    - text: "No, porque un ni\xF1o no posee mucho dinero."
      isCorrect: 1
  - quizType: 1
    title: "Comprendemos qu\xE9 es una meta"
    text: "Marca la alternativa o alternativas incorrectas. Para trazar una meta
      solo debemos\u2026\r\n"
    imageCode: 
    answers:
    - text: "pensar qu\xE9 acciones est\xE1n en nuestras manos para alcanzarla."
      isCorrect: 0
    - text: "pensar en los beneficios que nos dar\xE1. "
      isCorrect: 1
    - text: 'escribir acciones impresionantes para alcanzarla. '
      isCorrect: 1
  - quizType: 0
    title: "Comprendemos qu\xE9 es una meta"
    text: "\xBFExiste una diferencia entre las metas de las ni\xF1as o los ni\xF1os? "
    imageCode: 
    answers:
    - text: "S\xED, porque las ni\xF1as solo hacen cosas delicadas."
      isCorrect: 0
    - text: No, porque ambos tienen derecho de elegir por igual.
      isCorrect: 1
    - text: No, porque ambos siempre eligen lo mismo.
      isCorrect: 0
  - quizType: 0
    title: "Comprendemos qu\xE9 es una meta"
    text: "La meta de Rosa es integrar el equipo mixto de b\xE1squet, pero no la
      aceptan porque quieren m\xE1s ni\xF1os que ni\xF1as. \xBFQu\xE9 puede hacer
      ella?"
    imageCode: 
    answers:
    - text: 'Elegir otro deporte para no discutir con nadie. '
      isCorrect: 0
    - text: "Formar su propio equipo donde solo jueguen ni\xF1as."
      isCorrect: 0
    - text: "Perseverar y demostrar que es \xE1gil para jugar."
      isCorrect: 1
  - quizType: 1
    title: "Comprendemos qu\xE9 es una meta"
    text: "Marca la alternativa o alternativas correctas. Dora se cay\xF3 de la bicicleta,
      pero no ha dejado de practicar para manejarla mejor. \xBFQu\xE9 demuestra su
      acci\xF3n?\r"
    imageCode: 
    answers:
    - text: "Confianza en s\xED misma "
      isCorrect: 1
    - text: Terquedad y estrategia
      isCorrect: 0
    - text: 'Seguridad y perseverancia '
      isCorrect: 1
  - quizType: 0
    title: "Comprendemos qu\xE9 es una meta"
    text: "Jos\xE9 presenta tarde sus tareas porque invierte todo su tiempo libre
      en los videojuegos. Para cambiar esta situaci\xF3n, \xE9l\u2026"
    imageCode: 
    answers:
    - text: "invitar\xE1 a menos amigos y amigas a jugar en l\xEDnea. "
      isCorrect: 0
    - text: "har\xE1 las tareas en el recreo del colegio. "
      isCorrect: 0
    - text: "solo jugar\xE1 con permiso los fines de semana. "
      isCorrect: 1
  - quizType: 0
    title: "Comprendemos qu\xE9 es una meta"
    text: "Rosa adora su plantita de frijol, pero se est\xE1 secando. Para evitarlo,
      ella puede\u2026"
    imageCode: 
    answers:
    - text: acordarse de regarla con agua.
      isCorrect: 1
    - text: 'cortar sus hojas secas. '
      isCorrect: 0
    - text: regalarla a otra persona.
      isCorrect: 0
