%YAML 1.1
%TAG !u! tag:unity3d.com,2011:
--- !u!114 &11400000
MonoBehaviour:
  m_ObjectHideFlags: 0
  m_CorrespondingSourceObject: {fileID: 0}
  m_PrefabInstance: {fileID: 0}
  m_PrefabAsset: {fileID: 0}
  m_GameObject: {fileID: 0}
  m_Enabled: 1
  m_EditorHideFlags: 0
  m_Script: {fileID: 11500000, guid: 4189e3028d1f4f648962fd11688eee3d, type: 3}
  m_Name: data
  m_EditorClassIdentifier: 
  questions:
  - quizType: 1
    title: 
    text: "Es el cumplea\xF1os de Sara y sus amigas no la saludaron. \xBFQu\xE9 emociones
      crees que sinti\xF3?"
    imageCode: 
    answers:
    - text: Tristeza
      isCorrect: 1
    - text: "Alegr\xEDa"
      isCorrect: 0
    - text: Enfado
      isCorrect: 1
  - quizType: 0
    title: 
    text: "La profesora le pidi\xF3 a Pablo su tarea. Pero, cuando este abri\xF3
      la mochila, se dio cuenta de que no la hab\xEDa tra\xEDdo. \xBFQu\xE9 emoci\xF3n
      crees que sinti\xF3?"
    imageCode: 
    answers:
    - text: "Alegr\xEDa"
      isCorrect: 0
    - text: Enfado
      isCorrect: 0
    - text: Tristeza
      isCorrect: 1
  - quizType: 0
    title: 
    text: "\xBFCu\xE1l de estas opciones es una estrategia para controlar tus emociones?"
    imageCode: 
    answers:
    - text: Decir todo lo que pienso
      isCorrect: 0
    - text: Respirar profundamente
      isCorrect: 1
    - text: "Gritar y llorar en p\xFAblico"
      isCorrect: 0
  - quizType: 0
    title: 
    text: "\xBFCu\xE1l de estas afirmaciones sobre las emociones es incorrecta?"
    imageCode: 
    answers:
    - text: No se pueden controlar.
      isCorrect: 1
    - text: Es importante identificarlas.
      isCorrect: 0
    - text: Todos sentimos emociones.
      isCorrect: 0
  - quizType: 0
    title: 
    text: "\xBFCu\xE1l de estas afirmaciones sobre las emociones es correcta?"
    imageCode: 
    answers:
    - text: Existen emociones negativas y positivas.
      isCorrect: 0
    - text: "No puedo sentir dos o m\xE1s emociones al mismo tiempo. "
      isCorrect: 0
    - text: "Controlar mis emociones me permitir\xE1 actuar adecuadamente ante situaciones."
      isCorrect: 1
  - quizType: 0
    title: 
    text: "La profesora pide a Pablo y Mar\xEDa que saquen sus cuadernos. \xC9l no
      tiene el suyo porque se lo prest\xF3 a Mar\xEDa, y ella no lo trajo. \xBFC\xF3mo
      crees que se siente Pablo?"
    imageCode: 
    answers:
    - text: Alegre
      isCorrect: 0
    - text: Triste
      isCorrect: 0
    - text: Enfadado
      isCorrect: 1
  - quizType: 0
    title: 
    text: "Mar\xEDa no trajo el cuaderno que Pablo le prest\xF3, porque alist\xF3
      su mochila a \xFAltima hora. \xBFC\xF3mo crees que se sinti\xF3 Mar\xEDa cuando
      no lo pudo devolver?"
    imageCode: 
    answers:
    - text: Alegre
      isCorrect: 0
    - text: Triste
      isCorrect: 1
    - text: Enfadado
      isCorrect: 0
  - quizType: 1
    title: 
    text: "El padre de Sara le compr\xF3 la mu\xF1eca que quer\xEDa como regalo de
      cumplea\xF1os. \xBFQu\xE9 emociones crees que sinti\xF3?"
    imageCode: 
    answers:
    - text: Alegre
      isCorrect: 1
    - text: Sorpresa
      isCorrect: 1
    - text: Enfado
      isCorrect: 0
  - quizType: 0
    title: 
    text: "Aunque Pablo quer\xEDa gritar porque su mam\xE1 no lo dej\xF3 ver la televisi\xF3n,
      respir\xF3 profundamente y se resign\xF3. \xBFCu\xE1l de estas afirmaciones
      es correcta? "
    imageCode: 
    answers:
    - text: "Gritar tambi\xE9n hubiera ayudado a Pablo."
      isCorrect: 0
    - text: "Respirar profundamente no lo ayud\xF3 en nada."
      isCorrect: 0
    - text: "Respirar profundamente lo ayud\xF3 a controlar sus emociones."
      isCorrect: 1
  - quizType: 0
    title: 
    text: "La abuela de Sara, quien siempre es muy cari\xF1osa con ella, vendr\xE1
      de visita el fin de semana como lo hab\xEDa prometido. \xBFC\xF3mo crees que
      se siente Sara?"
    imageCode: 
    answers:
    - text: Temerosa
      isCorrect: 0
    - text: Alegre
      isCorrect: 1
    - text: Sorprendida
      isCorrect: 0
