%YAML 1.1
%TAG !u! tag:unity3d.com,2011:
--- !u!114 &11400000
MonoBehaviour:
  m_ObjectHideFlags: 0
  m_CorrespondingSourceObject: {fileID: 0}
  m_PrefabInstance: {fileID: 0}
  m_PrefabAsset: {fileID: 0}
  m_GameObject: {fileID: 0}
  m_Enabled: 1
  m_EditorHideFlags: 0
  m_Script: {fileID: 11500000, guid: 4189e3028d1f4f648962fd11688eee3d, type: 3}
  m_Name: data
  m_EditorClassIdentifier: 
  questions:
  - quizType: 0
    title: Comprendo las ventajas del ahorro
    text: "Cada vez que va comprar al supermercado Juliana compra bolsas de tela.
      \xBFQu\xE9 deber\xEDa hacer ella para ahorrar?"
    imageCode: 
    answers:
    - text: "Llevar las bolsas de tela que compr\xF3 anteriormente."
      isCorrect: 1
    - text: Vender las bolsas de tela que tiene para comprar otras.
      isCorrect: 0
    - text: "Comprar bolsas de pl\xE1sticos que son m\xE1s baratas."
      isCorrect: 0
  - quizType: 1
    title: Comprendo las ventajas del ahorro
    text: "\xBFCu\xE1l de las siguientes acciones nos permiten economizar?"
    imageCode: 
    answers:
    - text: "Comprar productos que est\xE1n en oferta, as\xED no lo necesitemos en
        ese momento."
      isCorrect: 0
    - text: "En las ma\xF1anas, aprovechar la luz del d\xEDa antes que la luz el\xE9ctrica."
      isCorrect: 1
    - text: Cerrar la llave de la ducha cuando nos estamos jabonando.
      isCorrect: 1
  - quizType: 0
    title: Comprendo las ventajas del ahorro
    text: "Una forma de ahorro es haciendo un uso responsable de los servicios de
      luz y agua. \xBFEsto es verdadero o falso?"
    imageCode: 
    answers:
    - text: Verdadero
      isCorrect: 1
    - text: Falso
      isCorrect: 0
  - quizType: 1
    title: Comprendo las ventajas del ahorro
    text: "Los padres de Yesenia para pagar su cr\xE9dito y no pagar moras, solicitan
      a otra entidad bancaria otro cr\xE9dito. \xBFEllos est\xE1n economizando?"
    imageCode: 
    answers:
    - text: "No, porque est\xE1n pagando una deuda asumiendo otra deuda."
      isCorrect: 1
    - text: "No, porque no est\xE1n considerar el inter\xE9s de ambos cr\xE9ditos."
      isCorrect: 1
    - text: "S\xED, porque est\xE1n evitando pagar un dinero adicional por el primer
        cr\xE9dito."
      isCorrect: 0
  - quizType: 0
    title: Comprendo las ventajas del ahorro
    text: "Los padres de Mateo destinan el 90 % de sus ingresos a ahorrar. \xBFQu\xE9
      muestra esta acci\xF3n?"
    imageCode: 
    answers:
    - text: "Que los padres de Mateo no est\xE1n distribuyendo sus ingresos de forma
        adecuada."
      isCorrect: 1
    - text: Que los padres de Mateo adecuan su nivel de ingresos a su meta de ahorro.
      isCorrect: 0
    - text: "Que los padres de Mateo hacen un uso responsable de sus ingresos econ\xF3micos."
      isCorrect: 0
  - quizType: 0
    title: Comprendo las ventajas del ahorro
    text: "Yesenia guarda parte de la ganancia que obtuvo por su emprendimiento con
      la finalidad de comprarse una tablets. \xBFQu\xE9 est\xE1 haciendo ella?"
    imageCode: 
    answers:
    - text: "Ella est\xE1 ahorrando"
      isCorrect: 1
    - text: "Ella est\xE1 invirtiendo"
      isCorrect: 0
    - text: "Ella est\xE1 presupuestando"
      isCorrect: 0
  - quizType: 0
    title: Comprendo las ventajas del ahorro
    text: "Todas las personas ahorran bajo una sola finalidad: tener dinero para
      gastarlo en el futuro en lo que deseamos. \xBFEsto es verdadero o falso?"
    imageCode: 
    answers:
    - text: Verdadero
      isCorrect: 0
    - text: 'Falso '
      isCorrect: 1
  - quizType: 1
    title: Comprendo las ventajas del ahorro
    text: "Los padres de Juliana han recibido un dinero por la venta de su carro.
      \xBFQu\xE9 podr\xEDan hacer para usar responsablemente ese dinero?"
    imageCode: 
    answers:
    - text: "Podr\xEDan destinar una parte del dinero guardarlo para imprevistos
        futuros."
      isCorrect: 1
    - text: "Deber\xEDan depositar en el banco una parte para que gane intereses."
      isCorrect: 1
    - text: 'Utilizar todo el dinero en aquello que siempre quisieron tener. '
      isCorrect: 0
  - quizType: 1
    title: Comprendo las ventajas del ahorro
    text: "Mateo quiere ahorrar para comprar un regalo a su pap\xE1. \xBFQu\xE9 acciones
      le podr\xEDan ayudar con su objetivo?"
    imageCode: 
    answers:
    - text: Preparar su lonchera en casa para no gastar en la tienda escolar.
      isCorrect: 1
    - text: Levantarse temprano para ir caminando al colegio.
      isCorrect: 1
    - text: "Mateo deber\xEDa saber que el ahorro solo es un asunto de adultos."
      isCorrect: 0
  - quizType: 0
    title: Comprendo las ventajas del ahorro
    text: "Antes de comprar una buzo, Yesenia compara los precios en varias tiendas.
      \xBFPor qu\xE9 ella hace esto?"
    imageCode: 
    answers:
    - text: "Porque le gusta caminar por el centro comercial y ver que puede m\xE1s
        puede comprar."
      isCorrect: 0
    - text: "Porque est\xE1 buscando comprar un producto a menor precio y as\xED
        poder ahorrar."
      isCorrect: 1
    - text: Porque una forma de ahorrar es investigar nuevas ofertas en el centro
        comercial.
      isCorrect: 0
