%YAML 1.1
%TAG !u! tag:unity3d.com,2011:
--- !u!114 &11400000
MonoBehaviour:
  m_ObjectHideFlags: 0
  m_CorrespondingSourceObject: {fileID: 0}
  m_PrefabInstance: {fileID: 0}
  m_PrefabAsset: {fileID: 0}
  m_GameObject: {fileID: 0}
  m_Enabled: 1
  m_EditorHideFlags: 0
  m_Script: {fileID: 11500000, guid: 4189e3028d1f4f648962fd11688eee3d, type: 3}
  m_Name: data
  m_EditorClassIdentifier: 
  questions:
  - quizType: 0
    title: Evaluamos nuestra idea emprendedora y proyectamos su impacto
    text: Para autoevaluar nuestro emprendimiento, se puede utilizar _____________,
      que es un listado con indicadores con los que se verifica su cumplimiento.
    imageCode: 
    answers:
    - text: una entrevista
      isCorrect: 0
    - text: un checklist
      isCorrect: 1
    - text: una encuesta
      isCorrect: 0
  - quizType: 0
    title: Evaluamos nuestra idea emprendedora y proyectamos su impacto
    text: "\xBFCu\xE1l de estas afirmaciones sobre la encuesta es falsa?"
    imageCode: 
    answers:
    - text: "Es un instrumento \xFAtil para autoevaluar nuestro emprendimiento."
      isCorrect: 0
    - text: "Es \xFAtil para identificar lo que perciben u observan las usuarias
        y los usuarios."
      isCorrect: 0
    - text: "Est\xE1 conformada por preguntas abiertas que deben ser respondidas
        por las y los clientes."
      isCorrect: 1
  - quizType: 0
    title: Evaluamos nuestra idea emprendedora y proyectamos su impacto
    text: "La compa\xF1era de Shanti evaluar\xE1 su emprendimiento de postres. \xBFQu\xE9
      pregunta podr\xEDa formular en la encuesta para sus clientes?"
    imageCode: 
    answers:
    - text: "\xBFCrees que los precios de los postres son adecuados?"
      isCorrect: 0
    - text: "\xBFConsidera que los postres ofrecen alg\xFAn beneficio para usted?"
      isCorrect: 0
    - text: "Las dos alternativas son v\xE1lidas."
      isCorrect: 1
  - quizType: 0
    title: Evaluamos nuestra idea emprendedora y proyectamos su impacto
    text: "En la encuesta del emprendimiento de polos para ni\xF1os de la compa\xF1era
      de Vicky, le dijeron que no beneficiaba al medioambiente. \xBFQu\xE9 no debe
      hacer?"
    imageCode: 
    answers:
    - text: Usar empaques biodegradables
      isCorrect: 0
    - text: "Usar tintes vegetales para las im\xE1genes"
      isCorrect: 0
    - text: Reducir los costos de sus polos
      isCorrect: 1
  - quizType: 0
    title: Evaluamos nuestra idea emprendedora y proyectamos su impacto
    text: "En la encuesta del emprendimiento de postres de la compa\xF1era de Shanti,
      le dijeron que no ayudaba a la salud. \xBFQu\xE9 debe hacer?"
    imageCode: 
    answers:
    - text: "Incrementar el tama\xF1o de sus postres"
      isCorrect: 0
    - text: Reducir los costos de los postres
      isCorrect: 0
    - text: Utilizar ingredientes saludables
      isCorrect: 1
  - quizType: 0
    title: Evaluamos nuestra idea emprendedora y proyectamos su impacto
    text: "En la encuesta del emprendimiento amigurumis del compa\xF1ero de Vicky,
      le dijeron que se demoraban muchos d\xEDas en entregar el producto. \xBFQu\xE9
      debe hacer?"
    imageCode: 
    answers:
    - text: "Dependiendo de los pedidos, se puede contratar a alguien m\xE1s."
      isCorrect: 1
    - text: Se puede incrementar el costo del producto.
      isCorrect: 0
    - text: Se debe cambiar el material que se usa en el producto.
      isCorrect: 0
  - quizType: 0
    title: Evaluamos nuestra idea emprendedora y proyectamos su impacto
    text: "Las encuestas permiten ___________ la percepci\xF3n de las y los clientes,
      por lo que __________ es importante."
    imageCode: 
    answers:
    - text: analizar - la verdad
      isCorrect: 0
    - text: evaluar - el anonimato
      isCorrect: 1
    - text: identificar - la identidad
      isCorrect: 0
  - quizType: 0
    title: Evaluamos nuestra idea emprendedora y proyectamos su impacto
    text: "La compa\xF1era de Shanti ha decidido incluir, entre sus postres, galletas
      a base de quinua. \xBFQu\xE9 se puede afirmar sobre esto?"
    imageCode: 
    answers:
    - text: "Se ofrecer\xE1 un mejor servicio."
      isCorrect: 0
    - text: "Se incrementar\xE1 la calidad del producto."
      isCorrect: 1
    - text: "Mejorar\xE1 la eficiencia de los procesos."
      isCorrect: 0
  - quizType: 0
    title: Evaluamos nuestra idea emprendedora y proyectamos su impacto
    text: "\xBFQu\xE9 criterio puede incluir en su checklist sobre el emprendimiento
      de amigurumi el compa\xF1ero de Vicky?"
    imageCode: 
    answers:
    - text: "Los dise\xF1os para los amigurumis son adecuados para el p\xFAblico
        objetivo."
      isCorrect: 0
    - text: El precio del producto es adecuado para cubrir costos y gastos, y obtener
        una ganancia.
      isCorrect: 0
    - text: Los dos criterios se pueden incluir.
      isCorrect: 1
  - quizType: 0
    title: Evaluamos nuestra idea emprendedora y proyectamos su impacto
    text: "\u201CAutoevaluar nuestra idea emprendedora y su posible impacto es beneficioso\u201D,
      dijo Shanti. \xBFEst\xE1s de acuerdo con \xE9l?"
    imageCode: 
    answers:
    - text: "S\xED, porque permite analizar si su impacto ser\xE1 positivo y negativo:
        si ser\xE1 o no exitoso."
      isCorrect: 1
    - text: "No, porque quita tiempo y lo importante es obtener ganancias r\xE1pidamente."
      isCorrect: 0
