%YAML 1.1
%TAG !u! tag:unity3d.com,2011:
--- !u!114 &11400000
MonoBehaviour:
  m_ObjectHideFlags: 0
  m_CorrespondingSourceObject: {fileID: 0}
  m_PrefabInstance: {fileID: 0}
  m_PrefabAsset: {fileID: 0}
  m_GameObject: {fileID: 0}
  m_Enabled: 1
  m_EditorHideFlags: 0
  m_Script: {fileID: 11500000, guid: 4189e3028d1f4f648962fd11688eee3d, type: 3}
  m_Name: data
  m_EditorClassIdentifier: 
  questions:
  - quizType: 0
    title: 
    text: "Julia quiere comprarse un nuevo juguete. Su madre le dijo que deb\xEDa
      ahorrar. \xBFEs este un buen consejo para que Julia cumpla con su meta personal?"
    imageCode: 
    answers:
    - text: Si
      isCorrect: 1
    - text: No
      isCorrect: 0
  - quizType: 1
    title: 
    text: "\xBFCu\xE1les de las siguientes opciones podr\xEDan ser retos personales
      para Juanito, un ni\xF1o de tu edad?"
    imageCode: 
    answers:
    - text: "Mejorar en matem\xE1ticas"
      isCorrect: 1
    - text: "Realizar m\xE1s ejercicio f\xEDsico"
      isCorrect: 1
    - text: Estudiar una carrera profesional
      isCorrect: 0
  - quizType: 1
    title: 
    text: "Juanito regres\xF3 a clases presenciales, por lo que debe levantarse m\xE1s
      temprano. \xBFQu\xE9 acciones personales podr\xEDa realizar para cumplir con
      este reto?"
    imageCode: 
    answers:
    - text: "Sus padres podr\xEDan despertarlo."
      isCorrect: 0
    - text: "Podr\xEDa acostarse m\xE1s temprano el d\xEDa anterior."
      isCorrect: 1
    - text: "Podr\xEDa utilizar una alarma."
      isCorrect: 1
  - quizType: 0
    title: 
    text: "Julia se inscribi\xF3 en el concurso de dibujo, pero no gan\xF3 y se siente
      triste. \xBFQu\xE9 puede hacer para manejar esta emoci\xF3n?"
    imageCode: 
    answers:
    - text: "Compartir c\xF3mo se siente con un adulto en el que conf\xEDe."
      isCorrect: 1
    - text: "No decir nada sobre c\xF3mo se siente y fingir que todo est\xE1 bien."
      isCorrect: 0
    - text: "No volver a participar en ning\xFAn concurso. "
      isCorrect: 0
  - quizType: 1
    title: 
    text: "Los padres de Julia le han dicho que en verano la inscribir\xE1n en el
      taller que ella quiera. \xBFQu\xE9 criterios puede tomar en cuenta Julia para
      elegir?"
    imageCode: 
    answers:
    - text: Las habilidades que tiene para reforzarlas
      isCorrect: 1
    - text: "Lo que sus amigas har\xE1n aunque no le guste."
      isCorrect: 0
    - text: Lo que le gusta para disfrutar del verano.
      isCorrect: 1
  - quizType: 0
    title: 
    text: "\xBFCu\xE1l de estas afirmaciones sobre el reto es incorrecta?"
    imageCode: 
    answers:
    - text: "Es un prop\xF3sito con cierta dificultad para alcanzarse."
      isCorrect: 0
    - text: Requiere esfuerzo y constancia para ser alcanzado.
      isCorrect: 0
    - text: 'Su cumplimiento no nos ayuda a desarrollar cualidades. '
      isCorrect: 1
  - quizType: 1
    title: 
    text: "A mitad de a\xF1o, matricularon a Diana en la clase de Juanito. \xBFQu\xE9
      cualidades podr\xEDa desarrollar Diana con este reto?"
    imageCode: 
    answers:
    - text: "Ser disciplinada para ponerse al d\xEDa en las \xE1reas"
      isCorrect: 1
    - text: "No desarrollar\xEDa ninguna cualidad, pero s\xED habilidades."
      isCorrect: 0
    - text: "Ser tolerante para aceptar su nueva escuela, sus profesores y compa\xF1eros."
      isCorrect: 1
  - quizType: 0
    title: 
    text: "Juanito, que ha notado que Diana no tiene amigas a\xFAn, le pidi\xF3 que
      participara en su equipo de Comunicaci\xF3n. \xBFQu\xE9 cualidad tiene Juan? "
    imageCode: 
    answers:
    - text: 'Responsabilidad '
      isCorrect: 0
    - text: "Empat\xEDa"
      isCorrect: 1
    - text: Tolerancia
      isCorrect: 0
  - quizType: 1
    title: 
    text: "Julia est\xE1 muy molesta porque Juan tom\xF3 sus colores sin pedirle
      permiso. \xBFQu\xE9 estrategias podr\xEDa aplicar Julia para controlar sus
      emociones?"
    imageCode: 
    answers:
    - text: Relajarse y respirar hondo.
      isCorrect: 1
    - text: "Compartir sus emociones con \xE9l y pedirle que no lo vuelva a hacer."
      isCorrect: 1
    - text: "Hablar con sus pap\xE1s para que lo castiguen."
      isCorrect: 0
  - quizType: 2
    title: 
    text: 'Con respecto a los retos, elige V (verdadero) o F (falso) en cada enunciado. '
    imageCode: 
    answers:
    - text: Los retos no son importantes para las personas.
      isCorrect: 0
    - text: 'Cuando asumimos retos, pueden surgir emociones que dificulten llevarlos
        a cabo. '
      isCorrect: 1
    - text: Los retos nos ayudan a ser mejores personas.
      isCorrect: 1
