%YAML 1.1
%TAG !u! tag:unity3d.com,2011:
--- !u!114 &11400000
MonoBehaviour:
  m_ObjectHideFlags: 0
  m_CorrespondingSourceObject: {fileID: 0}
  m_PrefabInstance: {fileID: 0}
  m_PrefabAsset: {fileID: 0}
  m_GameObject: {fileID: 0}
  m_Enabled: 1
  m_EditorHideFlags: 0
  m_Script: {fileID: 11500000, guid: 4189e3028d1f4f648962fd11688eee3d, type: 3}
  m_Name: data
  m_EditorClassIdentifier: 
  questions:
  - quizType: 0
    title: RECONOCEMOS LA IMPORTANCIA DE LOS OBJETIVOS SMART
    text: "Los objetivos SMART  ___________ nos ayudar\xE1  centrarnos en los elementos
      indispensables de un proyecto para llevarlo a cabo."
    imageCode: 
    answers:
    - text: Universales.
      isCorrect: 0
    - text: Nacionales.
      isCorrect: 0
    - text: Inteligentes.
      isCorrect: 1
  - quizType: 0
    title: RECONOCEMOS LA IMPORTANCIA DE LOS OBJETIVOS SMART
    text: "La t\xE9cnica SMART nos permite definir\u2026"
    imageCode: 
    answers:
    - text: "Marcos de planeaci\xF3n."
      isCorrect: 0
    - text: "Marco de acci\xF3n."
      isCorrect: 1
    - text: "Marco de visi\xF3n."
      isCorrect: 0
  - quizType: 0
    title: RECONOCEMOS LA IMPORTANCIA DE LOS OBJETIVOS SMART
    text: "El FODA es una ____________ de planificaci\xF3n estrat\xE9gica que permite
      hacer una evaluaci\xF3n interna y ________ de aspectos positivos y negativos"
    imageCode: 
    answers:
    - text: "T\xE9cnica - externa."
      isCorrect: 0
    - text: Herramienta - externa.
      isCorrect: 1
    - text: Herramienta - digital.
      isCorrect: 0
  - quizType: 0
    title: RECONOCEMOS LA IMPORTANCIA DE LOS OBJETIVOS SMART
    text: "Mariana, Jos\xE9 y Pedro desean crear un emprendimiento con los materiales
      que realizan en EPT. Ellos decidieron aplicar el Smart; por ello, iniciaron
      pregunt\xE1ndose:"
    imageCode: 
    answers:
    - text: "\xBFQu\xE9 quiero lograr con exactitud? \xBFQui\xE9n participar\xE1?
        \xBFD\xF3nde trabajar\xE9 para lograrlo? \xBFQu\xE9 plazo me pondr\xE9? \xBFCu\xE1l
        es mi an\xE1lisis FODA? \xBFEn qu\xE9 me beneficiar\xE9?"
      isCorrect: 1
    - text: "\xBFQu\xE9 quiero lograr? \xBFCon qui\xE9n cuento para lograr mi meta?
        \xBFQui\xE9n es mi competencia? \xBFQu\xE9 obtengo a partir de este emprendimiento?"
      isCorrect: 0
    - text: "\xBFPoseo habilidades para alcanzar mi objetivo? Si no las tengo, \xBFc\xF3mo
        podr\xEDa desarrollarlas?"
      isCorrect: 0
  - quizType: 0
    title: RECONOCEMOS LA IMPORTANCIA DE LOS OBJETIVOS SMART
    text: "Mariana le pide a Jos\xE9 que le ayude a identificar las siglas SMART,
      por lo que dijo que cada letra ten\xEDa un significado. \xBFCu\xE1l es el significado
      de cada letra?\r"
    imageCode: 
    answers:
    - text: "Espec\xEDfico - maravillosos - alterno - relevante - temporal."
      isCorrect: 0
    - text: "Espec\xEDfico - medible - alto - relevante - temporal."
      isCorrect: 0
    - text: "Espec\xEDfico - medible - alcanzable - relevante."
      isCorrect: 1
  - quizType: 0
    title: RECONOCEMOS LA IMPORTANCIA DE LOS OBJETIVOS SMART
    text: "Jhericko le dice a su amigo que la procrastinaci\xF3n es la acci\xF3n
      o el h\xE1bito de _____________ actividades que deben atenderse de forma primordial."
    imageCode: 
    answers:
    - text: Reanudar.
      isCorrect: 0
    - text: Postergar.
      isCorrect: 1
    - text: Invertir.
      isCorrect: 0
  - quizType: 0
    title: RECONOCEMOS LA IMPORTANCIA DE LOS OBJETIVOS SMART
    text: "Pedro y Jos\xE9 pensaron que dos semanas para realizar su trabajo de investigaci\xF3n
      era demasiado tiempo. Por ello, lo dejaron para dos d\xEDas antes. \xBFA qu\xE9
      se debe la procrastinaci\xF3n?"
    imageCode: 
    answers:
    - text: "Una mala gesti\xF3n de tiempo."
      isCorrect: 1
    - text: "Una mala gesti\xF3n del espacio."
      isCorrect: 0
    - text: "Una mala gesti\xF3n en los horarios."
      isCorrect: 0
  - quizType: 0
    title: RECONOCEMOS LA IMPORTANCIA DE LOS OBJETIVOS SMART
    text: "Las emociones negativas como aburrimiento, inseguridad, ___________, frustraci\xF3n,
      entre otras est\xE1n relacionadas con la procrastinaci\xF3n.\r"
    imageCode: 
    answers:
    - text: Ancianidad.
      isCorrect: 0
    - text: Ansiedad.
      isCorrect: 1
    - text: "Depresi\xF3n."
      isCorrect: 0
  - quizType: 0
    title: RECONOCEMOS LA IMPORTANCIA DE LOS OBJETIVOS SMART
    text: "Jos\xE9 necesita ayuda para elegir las actividades que son relevantes
      e importantes, marca la alternativa que creas correcta."
    imageCode: 
    answers:
    - text: "Ver televisi\xF3n con amigos."
      isCorrect: 0
    - text: "Ordenar los libros y cuadernos para la clase de ma\xF1ana."
      isCorrect: 1
    - text: "Pasear tres d\xEDas seguidos sin revisar los pendientes."
      isCorrect: 0
  - quizType: 2
    title: RECONOCEMOS LA IMPORTANCIA DE LOS OBJETIVOS SMART
    text: 'Marca verdadero o falso:'
    imageCode: 
    answers:
    - text: El FODA solo permite percibir aspectos positivos.
      isCorrect: 0
    - text: Procrastinar es reemplazar una actividad importante por otra de menor
        rango.
      isCorrect: 1
    - text: SMART son siglas para lograr metas de forma eficiente y real.
      isCorrect: 1
