%YAML 1.1
%TAG !u! tag:unity3d.com,2011:
--- !u!114 &11400000
MonoBehaviour:
  m_ObjectHideFlags: 0
  m_CorrespondingSourceObject: {fileID: 0}
  m_PrefabInstance: {fileID: 0}
  m_PrefabAsset: {fileID: 0}
  m_GameObject: {fileID: 0}
  m_Enabled: 1
  m_EditorHideFlags: 0
  m_Script: {fileID: 11500000, guid: 4189e3028d1f4f648962fd11688eee3d, type: 3}
  m_Name: data
  m_EditorClassIdentifier: 
  questions:
  - quizType: 0
    title: 'Identificamos necesidades e ideas emprendedoras '
    text: "El <i>design thinking</i> facilita la soluci\xF3n de ___________________."
    imageCode: 
    answers:
    - text: dificultades
      isCorrect: 0
    - text: problemas
      isCorrect: 1
    - text: conflictos
      isCorrect: 0
  - quizType: 0
    title: 'Identificamos necesidades e ideas emprendedoras '
    text: "\xBFQu\xE9 herramienta es la m\xE1s adecuada para recoger informaci\xF3n
      sobre las necesidades de las usuarias y los usuarios?"
    imageCode: 
    answers:
    - text: examen
      isCorrect: 0
    - text: entrevista
      isCorrect: 1
    - text: "exposici\xF3n"
      isCorrect: 0
  - quizType: 0
    title: 'Identificamos necesidades e ideas emprendedoras '
    text: "La informaci\xF3n que se recoge a trav\xE9s de las entrevistas se puede
      organizar en un mapa de empat\xEDa. \xBFQu\xE9 ventaja tiene un mapa de empat\xEDa?"
    imageCode: 
    answers:
    - text: Permite representar el relieve con un nivel de detalle a gran escala,
        empleando para ello las curvas de nivel.
      isCorrect: 0
    - text: Permite representar la Tierra, o de parte de ella, sobre una superficie
        plana, de acuerdo con una escala.
      isCorrect: 0
    - text: 'Permite ponerse en el lugar de la usuaria o el usuario para identificar
        sus necesidades. '
      isCorrect: 1
  - quizType: 0
    title: 'Identificamos necesidades e ideas emprendedoras '
    text: "Es una de las caracter\xEDsticas del mapa de empat\xEDa."
    imageCode: 
    answers:
    - text: Permite crear ideas para solucionar una necesidad de las usuarias y usuarios.
      isCorrect: 0
    - text: "Permite conocer que piensa y siente la usuaria y el usuario, qu\xE9
        le preocupa, cu\xE1les son sus sue\xF1os, sus motivaciones. "
      isCorrect: 1
    - text: "Permite recoger la informaci\xF3n para mejorar o corregir el prototipo."
      isCorrect: 0
  - quizType: 0
    title: 'Identificamos necesidades e ideas emprendedoras '
    text: "Es una de las caracter\xEDsticas del mapa de empat\xEDa."
    imageCode: 
    answers:
    - text: "Permite conocer el entorno de la usuaria o usuario, lo que ve en sus
        amigas y amigos, qu\xE9 ofertas recibe."
      isCorrect: 1
    - text: "Permite recoger la informaci\xF3n para mejorar o corregir el prototipo."
      isCorrect: 0
    - text: Permite crear ideas para solucionar una necesidad del usuario.
      isCorrect: 0
  - quizType: 0
    title: 'Identificamos necesidades e ideas emprendedoras '
    text: "Es una de las caracter\xEDsticas del mapa de empat\xEDa."
    imageCode: 
    answers:
    - text: "Permite conocer que dice y hace la usuaria y el usuario, de qu\xE9 tema
        habla, c\xF3mo se comporta en el hogar y en el trabajo."
      isCorrect: 1
    - text: Permite solucionar las necesidades de la usuaria y el usuario.
      isCorrect: 0
    - text: "Permite evaluar si el prototipo solucionar\xE1 las necesidades de la
        usuaria y el usuario."
      isCorrect: 0
  - quizType: 0
    title: 'Identificamos necesidades e ideas emprendedoras '
    text: "Es una de las caracter\xEDsticas del mapa de empat\xEDa."
    imageCode: 
    answers:
    - text: "Permite conocer que oye la usuaria y el usuario, qu\xE9 dicen sus amigas,
        amigos, familia y colegas; y qu\xE9 medios de comunicaci\xF3n consume."
      isCorrect: 1
    - text: "Permite evaluar si el prototipo solucionar\xE1 las necesidades de la
        usuaria y el usuario."
      isCorrect: 0
    - text: "Permite recoger la informaci\xF3n para mejorar o corregir el prototipo."
      isCorrect: 0
  - quizType: 0
    title: 'Identificamos necesidades e ideas emprendedoras '
    text: 'El <i>design thinking</i> plantea como reto buscar ____________________
      a un problema. '
    imageCode: 
    answers:
    - text: soluciones tradicionales
      isCorrect: 0
    - text: soluciones nuevas
      isCorrect: 1
    - text: soluciones ya aplicadas
      isCorrect: 0
  - quizType: 0
    title: 'Identificamos necesidades e ideas emprendedoras '
    text: "Uno de los primeros pasos para conocer las necesidades de las usuarias
      y los usuarios es la observaci\xF3n. Esta afirmaci\xF3n es:"
    imageCode: 
    answers:
    - text: Verdadera
      isCorrect: 1
    - text: Falsa
      isCorrect: 0
  - quizType: 0
    title: 'Identificamos necesidades e ideas emprendedoras '
    text: "El <i>design thinking</i> ayuda a la creatividad y la innovaci\xF3n al
      generar nuevas ideas en el desarrollo de ________________ o servicios."
    imageCode: 
    answers:
    - text: ideas
      isCorrect: 0
    - text: soluciones
      isCorrect: 0
    - text: productos
      isCorrect: 1
